SOBAODANH,Toan,Van,NN,Ly,Hoa,Sinh,Su,Dia,GDCD
060000001,1.75,6.50,4.15,,3.00,3.00,,,
060000002,3.00,6.00,4.15,5.60,,,,5.00,
060000003,1.25,5.00,4.15,,,3.20,,4.25,
060000004,3.50,4.50,4.15,,3.60,3.20,,,
060000005,2.25,6.50,4.15,5.60,2.80,,,,
060000006,1.50,7.00,4.15,,,,6.25,3.75,
060000007,3.00,6.25,4.15,,,,7.25,5.75,
060000008,2.25,6.00,4.15,3.20,,,,,
060000009,4.00,5.75,4.15,,,,,4.25,
060000010,1.25,5.00,4.15,,,3.20,,4.50,
060000011,2.25,6.25,4.15,,,3.40,,4.50,
060000012,2.50,3.50,4.15,,,5.20,,4.75,
060000013,1.50,3.75,4.15,,,,5.50,3.00,
060000014,3.75,6.00,4.15,,,3.80,,3.75,
060000015,3.00,4.50,4.15,,,,4.75,5.00,
060000016,2.00,5.50,4.15,3.20,,,,3.50,
060000017,0.75,2.50,4.15,,,,4.00,3.75,
060000018,1.50,1.50,4.15,,,,4.00,3.25,
060000019,2.50,5.25,4.15,,,,6.00,5.00,
060000020,1.25,5.75,4.15,,,3.00,,4.50,
060000021,4.50,6.50,4.15,,5.60,,,,
060000022,3.25,5.75,4.15,,,,,5.00,
060000023,3.25,5.50,4.15,5.60,3.60,,,,
060000024,2.75,3.25,4.15,,,3.80,,4.75,
060000025,1.25,4.50,4.15,,,,5.25,4.00,
060000026,0.00,5.50,4.15,,2.60,4.20,,,
060000027,0.25,4.50,4.15,,,,3.00,3.25,
060000028,2.75,6.00,4.15,,,,4.75,5.50,
060000029,3.75,4.50,4.15,3.60,,,,5.00,
060000030,2.00,3.75,4.15,,,4.20,,4.50,
060000031,2.00,2.75,4.15,,,3.20,,3.50,
060000032,2.50,5.50,4.15,,5.00,3.80,,,
060000033,1.50,5.75,4.15,,,4.00,,4.00,
060000034,2.25,6.00,4.15,,,5.20,,4.00,
060000035,3.25,4.25,4.15,,,,5.50,3.75,
060000036,0.00,5.25,4.15,,,,,3.25,
060000037,3.75,5.25,4.15,5.00,4.00,,,,
060000038,2.00,5.50,4.15,,3.60,5.60,,,
060000039,3.00,6.75,4.15,,,,5.50,4.00,
060000040,3.25,5.25,4.15,,4.60,,,4.00,
060000041,1.25,5.50,4.15,,,,4.00,4.00,
060000042,4.25,5.25,4.15,,,,,4.75,
060000043,2.50,5.00,4.15,,,,4.00,4.50,
060000044,2.50,5.25,4.15,5.40,,,,4.75,
060000045,1.25,2.75,4.15,,3.20,,,4.75,
060000046,3.00,5.75,4.15,,,,,6.25,
060000047,3.50,5.50,4.15,,,,5.00,6.00,
060000048,2.50,2.75,4.15,,2.60,2.00,,,
060000049,1.75,4.50,4.15,,,,5.50,4.75,
060000050,1.50,5.00,4.15,,,,5.75,5.50,
060000051,2.75,5.25,4.15,6.60,,,,4.25,
060000052,2.00,4.50,4.15,,,,,5.00,
060000053,3.25,5.25,4.15,,,,5.00,4.50,
060000054,1.75,4.25,4.15,,,,,5.00,
060000055,3.00,5.00,4.15,,,5.00,,3.75,
060000056,3.75,5.25,4.15,,,,3.75,,
060000057,2.25,5.50,4.15,,5.20,,7.50,,
060000058,2.75,6.00,4.15,,,,5.75,5.50,
060000059,2.25,0.75,4.15,,4.20,2.40,,,
060000060,1.25,4.50,4.15,,3.40,,,3.50,
060000061,6.25,3.75,4.15,,,6.00,,7.25,
060000062,1.75,5.75,4.15,,,,5.25,5.25,
060000063,2.00,4.75,4.15,,,,6.00,4.00,
060000065,1.50,3.00,4.15,5.40,5.60,,,,
060000066,2.75,5.75,4.15,,,,5.75,5.75,
060000067,2.75,5.25,4.15,,3.20,,,4.75,
060000068,1.75,5.00,4.15,,,,5.25,5.25,
060000069,2.25,3.75,4.15,,,,6.25,5.00,
060000070,1.75,3.00,4.15,,,,4.25,3.00,
060000071,3.75,4.50,4.15,5.80,4.20,,,,
060000072,1.25,6.00,4.15,,,,,,
060000073,1.75,4.75,4.15,,,2.60,,6.75,
060000074,2.00,3.50,4.15,,,3.40,,5.50,
060000075,2.00,5.50,4.15,4.80,,,,6.50,
060000076,2.00,4.00,4.15,3.20,,,,,
060000077,1.75,5.00,4.15,,,,5.50,5.00,
060000078,3.50,4.00,4.15,,,2.40,,3.25,
060000079,0.75,3.75,4.15,,,4.00,,5.50,
060000080,4.00,5.50,4.15,6.40,5.80,,,,
060000081,1.25,6.00,4.15,,,,5.25,4.00,
060000082,2.25,3.50,4.15,,,,4.00,3.75,
060000083,1.50,4.25,4.15,,,4.40,,3.50,
060000084,1.75,5.25,4.15,,,,5.25,5.75,
060000085,4.50,5.00,4.15,,,,5.00,3.75,
060000086,0.25,5.00,4.15,,,2.20,,4.00,
060000087,2.50,5.25,4.15,,,4.80,,4.00,
060000088,0.50,3.25,4.15,,,,5.25,4.25,
060000089,1.75,3.50,4.15,,,4.40,,3.75,
060000090,4.00,6.50,4.15,,,,5.00,5.50,
060000091,1.50,2.50,4.15,3.80,,,,5.00,
060000092,2.50,5.50,4.15,2.80,,,,5.50,
060000093,1.00,3.75,4.15,,,,4.25,2.00,
060000094,3.00,5.00,4.15,,,4.00,,6.25,
060000095,1.75,3.25,4.15,4.80,3.80,,,,
060000096,2.00,5.75,4.15,3.80,,,,4.00,
060000097,4.00,5.00,4.15,,3.00,6.20,,,
060000098,0.50,5.50,4.15,,,5.60,,3.50,
060000099,1.50,7.00,4.15,3.60,,,,3.50,
060000100,3.00,5.25,4.15,4.00,5.40,,,,
060000101,3.25,4.00,4.15,,,,3.75,4.75,
060000102,1.75,6.25,4.15,5.40,,,,4.75,
060000103,1.75,2.75,4.15,,4.00,,,3.00,
060000104,2.25,5.75,4.15,,3.40,,,5.50,
060000105,2.25,4.50,4.15,,,2.80,,5.00,
060000106,1.75,5.00,4.15,,4.40,4.40,,,
060000107,0.50,3.75,4.15,,,,2.50,1.75,
060000108,2.50,6.25,4.15,,,,5.50,5.50,
060000109,0.75,2.75,4.15,,3.40,3.40,,,
060000110,1.25,4.50,4.15,,2.60,4.60,,,
060000111,2.50,6.25,4.15,,,,5.75,5.00,
060000112,0.50,1.50,4.15,,,4.00,,,
060000113,2.50,3.00,4.15,4.00,,,,4.50,
060000114,0.25,3.25,4.15,,,3.40,,3.50,
060000115,2.75,3.25,4.15,,,,4.50,5.50,
060000116,1.25,4.00,4.15,,,,5.00,3.50,
060000117,2.00,3.50,4.15,,3.60,4.20,,,
060000118,3.25,3.75,4.15,,,,6.50,5.00,
060000119,2.00,2.75,4.15,,,3.40,,5.25,
060000120,2.75,5.50,4.15,,,,3.50,6.25,
060000121,1.75,4.25,4.15,,3.60,4.60,,,
060000122,2.75,4.75,4.15,6.00,,,,5.50,
060000123,0.25,4.25,4.15,,,3.00,,3.50,
060000124,3.75,7.25,4.15,,4.40,,,5.00,
060000125,2.50,5.50,4.15,,,,4.00,4.75,
060000126,2.75,5.00,4.15,,,,8.00,4.50,
060000127,1.50,2.75,4.15,,,5.20,,3.75,
060000128,1.25,4.00,4.15,,,,3.75,3.25,
060000129,1.50,3.25,4.15,,,,4.50,4.75,
060000130,3.50,3.75,4.15,6.40,,,,6.25,
060000131,2.75,2.75,4.15,,,4.80,,4.00,
060000132,2.25,5.75,4.15,,,,5.00,4.50,
060000133,2.00,3.00,4.15,,,5.20,,4.00,
060000134,2.75,2.00,4.15,,3.60,,,3.75,
060000135,3.50,3.00,4.15,,5.00,5.60,,,
060000136,2.50,4.00,4.15,,,,5.25,,
060000137,2.50,3.25,4.15,,,5.60,,6.50,
060000138,3.00,6.00,4.15,,,3.80,,4.25,
060000139,2.00,4.50,4.15,,,,3.50,5.75,
060000140,2.75,5.75,4.15,,,,6.75,5.75,
060000141,4.50,5.50,4.15,4.40,,,,6.00,
060000142,3.25,5.25,4.15,5.40,,,,6.25,
060000143,2.50,5.50,4.15,,,,6.75,4.00,
060000144,4.75,5.75,4.15,6.80,5.60,,,,
060000145,3.75,4.50,4.15,,4.00,,,5.00,
060000146,2.00,3.75,4.15,,,,,,
060000147,2.25,4.00,4.15,6.00,,,,4.25,
060000148,1.75,5.00,4.15,,,3.40,,7.00,
060000149,1.50,5.75,4.15,,,,5.00,5.00,
060000150,2.75,4.25,4.15,,,4.40,,5.00,
060000151,0.75,4.75,4.15,,,3.80,,2.75,
060000152,3.25,3.00,4.15,5.00,4.80,,,,
060000154,2.50,2.75,4.15,,,3.00,,4.50,
060000155,0.00,2.50,4.15,,,2.40,,0.50,
060000156,1.75,4.00,4.15,,,,4.25,3.00,
060000157,2.25,4.25,4.15,,,,6.75,4.50,
060000158,1.25,5.50,4.15,6.00,,,,4.25,
060000159,3.50,6.75,4.15,,,,4.50,6.00,
060000160,1.25,3.00,4.15,,,,3.25,3.00,
060000161,0.25,3.00,4.15,,,,4.00,2.75,
060000162,3.25,5.25,4.15,,,,6.50,6.50,
060000163,2.00,4.25,4.15,,,4.40,,,
060000164,1.25,5.00,4.15,,,3.00,,,
060000165,2.00,5.50,4.15,,,,4.75,4.00,
060000166,1.25,0.50,4.15,,,,,,
060000167,1.50,3.50,4.15,,,3.00,,3.75,
060000168,1.75,5.00,4.15,,,,3.00,4.25,
060000169,2.00,6.50,4.15,,,5.00,4.25,,
060000170,1.75,,4.15,,,,4.00,4.00,
060000171,2.75,4.50,4.15,,4.40,,5.25,,
060000172,3.50,5.50,4.15,,,4.00,,4.50,
060000173,3.00,5.75,4.15,,,4.80,,5.00,
060000174,1.50,2.75,4.15,,,3.60,,5.75,
060000175,1.50,4.75,4.15,6.40,,,,4.25,
060000176,0.50,5.75,4.15,,,,5.00,3.00,
060000178,0.25,4.75,4.15,,,,5.00,5.25,
060000179,1.50,2.00,4.15,,,3.60,,2.75,
060000180,2.25,5.50,4.15,,,4.40,,3.50,
060000181,3.75,4.25,4.15,5.40,4.40,,,,
060000182,3.25,5.00,4.15,5.80,2.80,,,,
060000183,2.00,7.50,4.15,,,,4.00,4.75,
060000184,3.25,5.00,4.15,,,3.80,,,
060000185,2.00,5.50,4.15,3.40,,,,3.75,
060000186,1.75,2.75,4.15,,,3.40,,2.50,
060000187,2.00,4.00,4.15,,,,5.50,4.00,
060000188,2.75,5.50,4.15,3.80,,,,5.50,
060000189,1.75,6.00,4.15,5.20,,,,5.00,
060000190,1.75,4.25,4.15,,,3.80,,2.25,
060000191,3.25,5.50,4.15,,4.20,,,3.75,
060000192,3.00,6.00,4.15,,,,6.50,4.25,
060000193,2.25,5.50,4.15,,,,,4.50,
060000194,1.00,5.00,4.15,4.20,,,,4.50,
060000195,1.25,6.50,4.15,,,4.40,,3.00,
060000196,2.50,5.25,4.15,,,,7.00,6.25,
060000197,1.25,2.50,4.15,,,,5.25,4.25,
060000198,3.50,5.50,4.15,,,6.00,,5.00,
060000199,3.25,5.50,4.15,4.60,,,,4.50,
060000200,1.75,4.75,4.15,,,,,5.00,
060000201,1.25,3.75,4.15,,,,,3.00,
060000202,4.75,6.00,4.15,,,,8.25,6.25,
060000203,1.50,1.75,4.15,2.60,,3.40,,,
060000204,2.25,6.50,4.15,,,2.80,,3.50,
060000205,2.50,5.00,4.15,4.40,3.20,,,,
060000206,4.00,6.50,4.15,,4.00,4.00,,,
060000207,1.25,3.50,4.15,,,,3.25,4.50,
060000208,1.75,5.75,4.15,,,,5.00,4.00,
060000209,0.50,5.00,4.15,,,4.60,,3.50,
060000210,0.75,1.50,4.15,,,3.00,,2.50,
060000211,2.75,,4.15,,,3.00,,,
060000212,2.00,3.00,4.15,,,,6.50,5.50,
060000213,4.00,5.00,4.15,5.40,4.60,,,,
060000214,1.50,4.75,4.15,,3.60,,,5.00,
060000215,1.50,3.25,4.15,,,,5.75,4.00,
060000216,0.50,3.25,4.15,,,,5.00,4.75,
060000217,2.00,4.75,4.15,,,3.60,,4.00,
060000218,3.00,2.00,4.15,,,,5.75,3.50,
060000219,2.25,4.50,4.15,,,3.60,,5.50,
060000220,1.75,4.50,4.15,,3.60,,,4.50,
060000221,3.25,5.50,4.15,,,,3.75,6.25,
060000222,2.00,4.00,4.15,,,,5.00,5.75,
060000223,2.25,5.50,4.15,5.60,,,,6.00,
060000224,3.00,3.00,4.15,,,2.60,,4.00,
060000225,3.00,5.00,4.15,5.00,,,,3.00,
060000227,1.50,5.00,4.15,,,,6.75,6.50,
060000228,2.00,4.00,4.15,,,,5.25,4.50,
060000229,1.25,4.25,4.15,,3.80,3.80,,,
060000230,1.75,4.00,4.15,,,,3.25,4.75,
060000231,2.25,5.00,4.15,5.80,,,,5.25,
060000232,2.50,3.25,4.15,,,4.80,,4.50,
060000233,0.75,4.50,4.15,,,4.40,,3.00,
060000234,3.00,6.00,4.15,4.80,3.40,,,,
060000235,2.25,6.75,4.15,,,,3.50,5.00,
060000236,1.75,4.50,4.15,,,,3.75,4.00,
060000237,2.75,6.25,4.15,4.00,,,,3.75,
060000238,2.25,,4.15,,,,3.50,3.25,
060000239,4.50,4.75,4.15,6.40,,,,4.75,
060000240,0.25,1.50,4.15,,3.00,,,2.50,
060000241,2.25,7.25,4.15,,,,4.00,5.50,
060000242,2.75,5.00,4.15,,,,5.50,5.00,
060000243,2.50,3.50,4.15,,,,5.50,4.25,
060000244,0.25,3.25,4.15,,,4.00,,5.25,
060000245,3.00,5.00,4.15,,3.00,4.80,,,
060000246,1.75,6.75,4.15,,,,,3.25,
060000247,2.50,5.50,4.15,6.40,,,,4.50,
060000248,2.25,4.50,4.15,,4.80,,,2.50,
060000249,3.00,5.25,4.15,5.20,,,,6.00,
060000250,3.25,4.75,4.15,,,,4.25,4.50,
060000251,1.25,,4.15,,,,7.00,3.25,
060000252,2.00,4.25,4.15,,,4.40,,5.25,
060000253,2.50,4.50,4.15,,,,6.25,5.50,
060000254,2.25,4.50,4.15,,,,6.00,,
060000255,0.25,1.75,4.15,,,,4.00,2.25,
060000256,3.00,5.50,4.15,4.60,,,,5.75,
060000257,2.00,4.50,4.15,,,,,,
060000258,3.50,4.00,4.15,,,,,4.75,
060000259,2.25,5.50,4.15,5.00,,,,6.25,
060000260,2.00,4.50,4.15,4.40,,,,3.25,
060000261,1.75,2.50,4.15,,,,2.50,4.00,
060000262,1.75,4.50,4.15,,,4.60,,3.50,
060000263,3.50,5.25,4.15,4.80,,,,4.50,
060000264,2.25,5.50,4.15,,,3.60,,5.00,
060000265,4.00,3.50,4.15,5.40,,,,4.50,
060000266,5.00,4.50,4.15,5.80,,,,4.75,
060000267,3.00,3.50,4.15,5.00,4.80,,,,
060000268,2.50,6.00,4.15,,,,4.50,6.00,
060000269,1.50,4.50,4.15,,3.60,,,3.75,
060000270,3.25,6.00,4.15,,5.80,5.00,,,
060000271,3.75,5.50,4.15,5.20,4.00,,,,
060000272,1.00,1.25,4.15,,3.00,3.80,,,
060000273,1.25,5.75,4.15,,,,6.25,5.25,
060000274,1.75,5.25,4.15,,,,3.50,5.50,
060000275,1.75,5.00,4.15,,3.00,4.20,,,
060000276,1.50,3.75,4.15,,,,3.25,2.25,
060000277,2.00,4.25,4.15,,4.60,,,3.50,
060000278,1.50,5.50,4.15,,3.20,3.80,,,
060000279,2.00,4.00,4.15,6.00,,,6.75,,
060000280,1.50,3.00,4.15,,,,4.25,3.50,
060000281,1.50,5.50,4.15,3.80,,4.00,,,
060000282,1.50,6.00,4.15,,,3.80,,6.00,
060000283,3.00,5.50,4.15,,,,,6.25,
060000284,2.00,6.50,4.15,,,,5.75,6.50,
060000285,1.50,5.00,4.15,,,,3.75,6.25,
060000286,1.75,,4.15,,,,,,
060000287,0.00,2.50,4.15,,,4.20,,2.75,
060000288,2.25,3.50,4.15,,,,,3.50,
060000289,0.75,2.50,4.15,,3.00,,,3.00,
060000290,2.00,5.75,4.15,4.00,3.20,,,,
060000291,0.50,1.25,4.15,,,,3.75,3.50,
060000292,3.25,6.75,4.15,4.20,,,,6.50,
060000293,3.50,6.50,4.15,,,,5.75,5.75,
060000294,2.25,5.00,4.15,,,3.00,,5.00,
060000295,2.00,3.50,4.15,,,3.20,,5.00,
060000296,4.25,6.75,4.15,,,,5.00,7.00,
060000297,2.00,5.50,4.15,,,,4.50,3.50,
060000298,2.75,4.00,4.15,,,4.20,,5.50,
060000299,2.50,5.75,4.15,,5.40,,,3.50,
060000300,2.75,5.25,4.15,,,3.20,,5.50,
060000301,1.50,5.75,4.15,,,,5.00,5.25,
060000302,1.50,4.50,4.15,,,,4.50,4.25,
060000303,0.50,3.50,4.15,,3.80,2.80,,,
060000304,2.00,4.25,4.15,,,4.20,,4.50,
060000305,1.75,4.50,4.15,,,,5.50,5.25,
060000306,3.25,3.75,4.15,,3.20,1.60,,,
060000307,1.75,5.50,4.15,,,4.60,,5.75,
060000308,3.00,5.50,4.15,,4.00,,,3.50,
060000309,3.50,4.50,4.15,5.80,,,,5.25,
060000310,2.00,4.25,4.15,,3.80,,,4.00,
060000311,0.50,5.00,4.15,,,,6.00,4.75,
060000312,0.25,3.00,4.15,,,3.40,,4.25,
060000313,3.00,,4.15,,,,,,
060000314,1.75,5.25,4.15,,,4.60,,4.00,
060000315,3.25,5.00,4.15,,4.80,3.80,,,
060000316,3.00,5.50,4.15,,,,5.25,5.75,
060000317,2.50,4.00,4.15,,4.40,,,3.50,
060000318,4.75,6.25,4.15,5.80,,,,5.75,
060000319,2.25,3.00,4.15,,,,,2.50,
060000320,2.50,5.00,4.15,,,,4.75,6.00,
060000321,2.50,5.25,4.15,,,,6.00,5.50,
060000322,0.00,,4.15,,,,,,
060000323,2.00,5.75,4.15,,6.00,,,5.50,
060000324,2.75,7.50,4.15,,,,,5.50,
060000325,2.00,5.00,4.15,,,,,6.75,
060000326,2.25,5.25,4.15,,,,5.00,4.75,
060000327,3.25,3.50,4.15,,,,5.50,5.00,
060000328,3.75,4.25,4.15,,4.60,4.20,,,
060000329,3.50,4.25,4.15,5.80,,,,6.00,
060000330,2.00,5.00,4.15,,,5.20,,3.50,
060000331,3.25,4.50,4.15,,,,5.50,5.25,
060000332,2.00,4.50,4.15,,,,5.25,5.25,
060000333,2.75,5.00,4.15,,,,3.00,6.75,
060000334,2.50,4.25,4.15,,,,5.25,3.50,
060000335,1.25,5.00,4.15,,,,3.75,3.75,
060000336,1.25,3.00,4.15,,,,6.50,,
060000337,3.00,6.00,4.15,,4.40,3.40,,,
060000338,1.75,5.50,4.15,,,,4.00,4.50,
060000339,2.25,5.25,4.15,,,4.20,,4.75,
060000340,2.25,5.50,4.15,,,4.80,,3.75,
060000341,2.75,5.50,4.15,5.00,4.00,,,,
060000342,1.50,4.50,4.15,,,,5.50,3.25,
060000343,1.25,5.25,4.15,,3.40,,,4.75,
060000344,2.75,5.25,4.15,4.60,5.60,,,,
060000345,5.00,5.50,4.15,5.40,5.80,,,,
060000346,0.25,5.75,4.15,,2.80,2.60,,,
060000347,5.00,4.00,4.15,,,6.60,,6.00,
060000348,2.75,3.50,4.15,5.40,,,,4.00,
060000349,4.75,6.25,4.15,,,,,5.75,
060000350,3.75,6.00,4.15,,,,,4.50,
060000351,2.50,6.75,4.15,,,,4.00,4.50,
060000352,3.25,6.00,4.15,4.60,,,,3.00,
060000353,3.50,5.50,4.15,,,,5.25,4.75,
060000354,2.00,5.00,4.15,2.40,3.20,,,,
060000355,4.00,5.00,4.15,5.20,5.40,,,,
060000356,2.25,5.00,4.15,,,3.20,,3.75,
060000357,2.00,2.50,4.15,,,4.00,,,
060000358,1.25,3.50,4.15,,,,4.50,4.00,
060000359,1.25,,4.15,,,,,6.25,
060000360,3.25,3.25,4.15,,,6.40,,4.00,
060000361,3.50,4.50,4.15,,,,3.25,4.25,
060000362,2.00,3.75,4.15,,,3.00,4.75,,
060000363,3.75,4.25,4.15,,,,5.75,4.50,
060000364,2.25,4.25,4.15,,,,5.50,5.25,
060000365,3.50,4.25,4.15,5.00,,,,3.25,
060000366,3.00,5.25,4.15,5.20,,,,4.75,
060000367,3.75,3.50,4.15,6.20,,,,4.50,
060000368,3.25,,4.15,5.40,,,,,
060000369,2.75,3.75,4.15,,,,5.00,6.00,
060000370,2.75,5.50,4.15,,,,5.00,5.25,
060000371,0.50,4.75,4.15,,,,4.25,5.00,
060000372,0.75,4.50,4.15,,,,6.25,5.50,
060000373,0.75,4.50,4.15,,,,4.75,4.25,
060000374,2.50,5.50,4.15,,,,5.75,5.50,
060000375,2.25,3.75,4.15,,,4.60,,,
060000376,3.00,6.75,4.15,,5.00,,,5.00,
060000377,0.75,3.75,4.15,,,3.60,,3.00,
060000378,2.00,4.00,4.15,5.20,2.60,,,,
060000379,0.50,3.25,4.15,,,,3.00,3.75,
060000380,1.25,4.00,4.15,,,,5.00,4.50,
060000381,2.50,4.50,4.15,,,,4.75,5.50,
060000382,3.00,6.50,4.15,,,,5.00,6.00,
060000383,2.25,5.00,4.15,,,,6.75,5.25,
060000384,2.25,4.00,4.15,5.40,,,,,
060000385,3.75,5.00,4.15,6.80,,,,6.00,
060000386,3.75,5.00,4.15,,,,6.00,6.75,
060000387,1.75,5.00,4.15,,,,5.00,7.25,
060000388,3.25,4.25,4.15,,,4.80,,6.50,
060000389,2.00,5.25,4.15,,,3.60,,5.75,
060000390,4.75,5.00,4.15,5.80,3.60,,,,
060000391,3.75,5.25,4.15,6.00,6.20,,,,
060000392,0.75,3.50,4.15,,,,5.50,5.00,
060000393,1.25,6.50,4.15,,2.80,,,6.00,
060000394,2.50,4.00,4.15,,3.20,,,4.50,
060000395,4.50,4.50,4.15,4.80,,,,4.50,
060000396,3.25,3.25,4.15,4.60,3.40,,,,
060000397,3.25,7.00,4.15,,,5.40,,5.75,
060000398,1.75,4.75,4.15,,,,5.00,4.00,
060000399,0.75,1.50,4.15,,,,3.50,3.50,
060000400,1.50,2.75,4.15,,,3.40,,,
060000401,0.75,5.00,4.15,,,,5.00,4.50,
060000402,3.25,5.75,4.15,,,,5.00,4.75,
060000403,2.50,3.50,4.15,,3.40,4.20,,,
060000404,2.50,3.00,4.15,,3.20,4.00,,,
060000405,1.50,2.50,4.15,,,,4.00,3.75,
060000406,1.50,5.00,4.15,,,,,4.00,
060000407,1.75,4.00,4.15,,,0.00,,4.25,
060000408,3.00,4.75,4.15,,,,6.25,5.00,
060000409,3.00,4.75,4.15,4.60,,,,4.00,
060000410,3.00,5.50,4.15,3.20,,,,4.50,
060000411,2.25,6.25,4.15,2.80,,,,2.50,
060000412,2.25,3.50,4.15,4.00,,,,5.00,
060000413,2.00,8.00,4.15,,,,,7.50,
060000414,1.75,4.75,4.15,,,,6.00,3.75,
060000415,2.50,6.00,4.15,,3.40,,,5.25,
060000416,2.25,5.75,4.15,3.40,,,,5.25,
060000417,2.50,5.00,4.15,5.20,,,6.25,,
060000418,2.00,4.50,4.15,,,2.80,,5.25,
060000419,3.00,3.25,4.15,,4.40,,,3.75,
060000420,2.75,5.00,4.15,4.80,,,,5.25,
060000421,1.75,4.50,4.15,,4.40,,,2.50,
060000422,2.25,5.25,4.15,,,4.60,,4.50,
060000423,2.25,3.50,4.15,,,,5.25,4.00,
060000424,3.50,4.50,4.15,5.80,,,,5.50,
060000425,3.50,3.00,4.15,,,3.80,,4.25,
060000426,2.75,4.25,4.15,,,,5.25,5.00,
060000427,3.25,5.00,4.15,,,,5.75,5.25,
060000428,1.25,5.50,4.15,,,,5.25,5.25,
060000429,3.00,1.25,4.15,,,3.20,,5.00,
060000430,1.75,2.25,4.15,2.40,,,4.00,,
060000431,1.75,6.25,4.15,,2.60,5.40,,,
060000432,3.50,5.25,4.15,,3.80,,,3.75,
060000433,2.25,3.00,4.15,,3.00,2.40,,,
060000434,2.75,4.75,4.15,5.20,,,,4.50,
060000435,1.75,4.50,4.15,,,,5.75,5.25,
060000436,2.75,5.50,4.15,,,,5.50,5.25,
060000437,3.25,5.50,4.15,,,4.80,,5.25,
060000438,2.25,5.00,4.15,,,,5.00,3.75,
060000439,1.75,5.75,4.15,,,,4.75,3.75,
060000440,2.00,5.25,4.15,,,,4.25,5.25,
060000441,2.75,5.25,4.15,5.20,,,,4.00,
060000442,2.00,4.25,4.15,5.00,,,,4.25,
060000443,3.50,4.50,4.15,4.00,,,,6.00,
060000444,2.25,5.00,4.15,,,,4.50,3.50,
060000445,2.00,3.25,4.15,,4.00,,,5.00,
060000446,3.00,5.50,4.15,4.20,3.80,,,,
060000447,1.75,5.00,4.15,,3.20,,,4.00,
060000448,1.75,4.25,4.15,,,4.60,,5.25,
060000449,4.50,5.00,4.15,6.60,4.80,,,,
060000450,2.00,4.25,4.15,,,,5.00,,
060000451,3.25,3.25,4.15,5.80,5.00,,,,
060000452,3.00,5.75,4.15,,,,6.50,6.25,
060000453,2.50,5.50,4.15,,,4.20,,3.75,
060000454,2.50,6.00,4.15,,4.20,,,3.25,
060000455,3.50,3.75,4.15,,,5.40,,6.25,
060000456,3.75,6.50,4.15,,2.60,,,6.00,
060000457,4.25,4.25,4.15,,,,5.00,6.25,
060000458,1.50,5.25,4.15,,,,7.00,5.00,
060000459,2.25,5.00,4.15,,4.00,,,2.75,
060000460,2.25,3.50,4.15,,,4.00,,3.50,
060000461,3.25,5.50,4.15,5.00,4.20,,,,
060000462,2.25,4.50,4.15,,,,6.50,2.50,
060000463,2.50,4.75,4.15,,,,6.50,4.50,
060000464,2.75,3.75,4.15,5.20,,,,5.50,
060000465,3.00,5.25,4.15,,,4.00,,4.00,
060000466,2.25,5.00,4.15,,,5.00,,5.00,
060000467,2.75,5.75,4.15,,,,4.00,3.25,
060000468,3.75,4.25,4.15,5.80,,,,4.25,
060000469,4.00,5.75,4.15,,,,4.00,5.50,
060000470,1.25,2.50,4.15,2.80,3.00,,,,
060000471,0.75,3.75,4.15,,,2.60,,4.75,
060000472,1.25,3.50,4.15,,,4.80,,5.00,
060000473,3.50,2.00,4.15,,2.80,,,4.75,
060000474,1.75,4.50,4.15,3.60,4.00,,,,
060000475,2.50,5.00,4.15,,,,8.25,7.00,
060000476,2.00,5.00,4.15,,,,6.00,6.50,
060000477,3.25,5.75,4.15,,,,5.50,3.25,
060000478,1.00,3.00,4.15,2.80,,,,4.50,
060000479,1.50,5.50,4.15,4.40,,,,5.50,
060000480,0.75,2.50,4.15,,,,4.50,2.75,
060000481,2.75,6.25,4.15,,,3.60,,5.25,
060000482,2.00,2.00,4.15,,,4.40,,4.00,
060000483,3.25,5.00,4.15,,,,3.50,4.75,
060000484,0.75,3.00,4.15,2.80,2.00,,,,
060000485,1.75,1.75,4.15,,,4.60,,5.25,
060000486,3.50,6.00,4.15,,3.20,,,3.75,
060000487,1.50,5.25,4.15,,,4.00,,3.25,
060000488,2.50,5.50,4.15,4.80,4.80,,,,
060000489,3.75,6.00,4.15,,3.40,,,6.00,
060000490,1.25,4.00,4.15,,,,4.25,4.25,
060000491,2.25,6.25,4.15,,,6.40,,4.25,
060000492,3.25,6.00,4.15,,3.20,,,6.00,
060000493,3.50,4.00,4.15,4.40,,,,6.25,
060000494,2.00,4.25,4.15,,,,7.00,5.00,
060000495,2.25,5.00,4.15,,4.80,,,5.25,
060000496,3.50,5.00,4.15,,,,4.25,3.25,
060000497,4.25,5.00,4.15,,,5.40,,6.50,
060000498,3.75,4.75,4.15,,,,3.25,4.00,
060000499,0.75,5.00,4.15,,,4.80,,6.00,
060000500,2.50,2.75,4.15,,3.80,,,2.75,
060000501,2.75,5.75,4.15,,,5.00,,5.25,
060000502,1.75,2.75,4.15,,,,3.75,3.50,
060000503,1.50,6.25,4.15,,,,7.00,5.25,
060000504,2.75,5.50,4.15,,,,6.00,6.25,
060000505,4.25,1.50,4.15,,,5.00,,5.50,
060000506,0.50,5.00,4.15,,,,3.75,3.00,
060000507,1.50,4.00,4.15,,,,5.00,3.25,
060000508,2.25,4.50,4.15,,,,3.75,5.75,
060000509,1.50,4.25,4.15,,,,6.50,,
060000510,2.50,5.00,4.15,,,5.20,,4.50,
060000511,0.75,5.50,4.15,,,,3.75,2.75,
060000512,2.00,4.50,4.15,,,4.40,,4.25,
060000513,0.25,3.00,4.15,,3.00,3.60,,,
060000514,2.75,4.00,4.15,,,3.80,,4.00,
060000515,1.75,3.75,4.15,,3.80,,,4.50,
060000516,0.75,2.25,4.15,,,,6.50,2.50,
060000517,1.25,6.00,4.15,,,,5.00,3.75,
060000518,1.75,4.75,4.15,,,,,5.25,
060000519,1.25,,4.15,,3.00,3.60,,,
060000520,2.75,6.50,4.15,4.40,,,,5.50,
060000521,2.00,5.50,4.15,,,,6.25,6.25,
060000522,0.50,2.50,4.15,,,3.80,,,
060000523,1.75,3.50,4.15,5.80,,,,5.75,
060000524,1.75,2.25,4.15,,,,6.75,5.00,
060000525,4.00,5.00,4.15,,3.40,,,4.50,
060000526,1.25,3.25,4.15,,,,3.50,3.50,
060000527,1.75,4.50,4.15,,,,5.75,5.75,
060000528,1.50,5.00,4.15,,4.40,4.60,,,
060000529,1.75,4.75,4.15,,,5.20,,3.00,
060000530,2.00,3.50,4.15,,,3.20,,4.75,
060000531,1.50,4.25,4.15,4.20,4.00,,,,
060000532,1.50,2.25,4.15,,2.80,4.20,,,
060000533,1.50,5.00,4.15,,,,4.00,4.75,
060000534,2.25,5.25,4.15,,,,7.00,5.75,
060000535,3.50,5.75,4.15,5.80,4.00,,,,
060000536,2.25,2.50,4.15,,2.80,,,5.50,
060000537,1.25,5.00,4.15,,,3.00,,4.00,
060000538,1.50,2.00,4.15,,,4.20,,5.25,
060000539,2.50,3.75,4.15,,,4.00,,6.00,
060000540,2.25,6.25,4.15,5.40,,,,5.25,
060000541,2.75,3.75,4.15,,3.80,,,4.75,
060000542,1.75,5.00,4.15,4.60,,,,3.75,
060000543,1.75,4.25,4.15,4.00,,,,4.25,
060000544,2.25,6.50,4.15,,,,3.50,4.50,
060000545,2.00,3.25,4.15,,2.20,3.40,,,
060000546,3.25,2.75,4.15,5.60,3.60,,,,
060000547,2.75,5.75,4.15,,,,5.00,6.50,
060000548,3.50,5.75,4.15,,,,3.75,5.50,
060000549,2.75,5.00,4.15,,,,,5.00,
060000550,1.50,4.00,4.15,,,,3.25,3.25,
060000551,3.00,4.75,4.15,6.00,5.80,,,,
060000552,5.00,5.25,4.15,,,,,2.75,
060000553,3.75,5.00,4.15,,,,5.50,4.25,
060000554,0.50,1.50,4.15,,,,5.75,4.00,
060000555,3.00,2.50,4.15,,,,,3.25,
060000556,3.75,6.25,4.15,,,3.20,,6.75,
060000557,2.00,4.50,4.15,,,3.60,,4.75,
060000558,2.50,5.00,4.15,,4.60,,,5.75,
060000559,1.25,3.00,4.15,,,,3.25,5.00,
060000560,2.25,4.50,4.15,2.80,,,,,
060000561,2.50,3.75,4.15,,,3.40,,4.25,
060000562,2.50,3.75,4.15,,,,6.00,4.00,
060000563,0.75,4.00,4.15,,,,,5.00,
060000564,1.25,6.00,4.15,,,,5.50,4.50,
060000565,0.25,4.50,4.15,,,,3.25,2.50,
060000566,3.00,6.75,4.15,,,,5.75,6.50,
060000567,3.75,5.50,4.15,,,,6.00,6.00,
060000568,2.50,4.00,4.15,,,,,5.00,
060000569,3.75,2.50,4.15,,,,5.25,6.00,
060000570,2.25,5.00,4.15,,,4.80,,5.50,
060000571,2.50,5.25,4.15,,,3.60,,4.25,
060000572,0.75,3.75,4.15,,,,3.50,3.25,
060000573,3.50,5.00,4.15,5.20,5.20,,,,
060000574,3.75,4.75,4.15,,,6.00,,5.75,
060000575,3.50,5.50,4.15,,3.80,,,6.75,
060000576,2.75,4.50,4.15,,3.40,,7.00,,
060000577,3.25,6.00,4.15,,,,5.75,5.25,
060000578,2.00,6.00,4.15,4.00,,,,6.25,
060000579,2.75,5.00,4.15,,,3.20,,4.00,
060000580,2.50,6.00,4.15,,,4.20,,4.25,
060000581,0.25,1.75,4.15,,,2.00,,3.00,
060000582,3.00,5.00,4.15,,,4.60,,4.00,
060000583,2.25,2.00,4.15,,,2.20,,4.00,
060000584,1.25,5.00,4.15,,,,,4.00,
060000585,2.50,5.25,4.15,,,,6.25,4.00,
060000586,3.50,7.75,4.15,,,,6.75,5.00,
060000587,4.75,5.50,4.15,,5.20,,,,
060000588,3.25,6.50,4.15,,,3.40,,4.75,
060000589,2.75,7.00,4.15,,,,4.50,5.00,
060000590,0.00,2.50,4.15,2.20,,,4.00,,
060000591,1.25,3.25,4.15,,,,3.00,5.75,
060000592,1.50,3.50,4.15,,,,2.50,4.00,
060000593,1.75,5.50,4.15,,,,5.75,3.50,
060000594,1.25,6.50,4.15,,,3.80,,5.75,
060000595,3.00,4.00,4.15,3.40,,,,6.25,
060000596,1.75,6.50,4.15,,,,3.00,5.25,
060000597,1.00,4.00,4.15,,,,2.00,3.75,
060000598,4.75,3.75,4.15,5.40,,,,6.00,
060000599,3.75,4.00,4.15,,,,5.00,6.00,
060000600,2.75,5.50,4.15,,,,6.25,6.00,
060000601,3.00,5.50,4.15,,,,5.00,5.50,
060000602,1.25,4.00,4.15,,4.80,1.80,,,
060000603,1.75,2.75,4.15,,,4.00,,4.75,
060000604,3.00,5.25,4.15,,,,3.25,5.50,
060000605,2.75,5.25,4.15,4.00,,,,4.50,
060000606,3.00,4.50,4.15,,,,3.00,5.50,
060000607,4.00,6.75,4.15,,,,,4.75,
060000608,2.50,5.75,4.15,,,,,2.75,
060000609,2.00,2.75,4.15,,2.80,,,4.25,
060000610,3.25,5.50,4.15,,4.40,,,6.00,
060000611,1.50,4.00,4.15,,,3.40,,5.50,
060000612,1.25,1.25,4.15,,,,1.25,2.25,
060000613,2.75,1.75,4.15,,4.20,4.40,,,
060000614,1.50,5.75,4.15,,,,,4.25,
060000615,1.25,5.25,4.15,,5.00,3.20,,,
060000616,3.25,5.25,4.15,5.80,4.60,,,,
060000617,1.50,4.50,4.15,,,,4.50,4.50,
060000618,1.75,5.00,4.15,4.80,,,,3.50,
060000619,1.75,5.50,4.15,,,4.20,,4.75,
060000620,3.25,3.25,4.15,,,,2.75,4.50,
060000621,4.00,5.50,4.15,,,,6.00,5.25,
060000622,2.50,2.50,4.15,,3.60,4.40,,,
060000623,2.50,2.50,4.15,,2.80,3.60,,,
060000624,2.25,3.25,4.15,,,4.40,5.25,,
060000625,2.50,3.50,4.15,,,2.60,,,
060000626,1.75,5.50,4.15,,3.80,5.00,,,
060000627,3.50,3.00,4.15,4.20,,,,,
060000628,1.50,3.50,4.15,,2.00,3.80,,,
060000629,0.25,3.50,4.15,,,,2.75,2.25,
060000630,2.50,3.75,4.15,,,5.20,,5.00,
060000631,1.75,4.75,4.15,,,,4.50,5.50,
060000632,0.50,,4.15,,,,,,
060000633,1.25,5.00,4.15,,3.80,3.80,,,
060000634,3.75,5.50,4.15,,,3.80,,7.00,
060000635,3.00,4.00,4.15,,,,5.50,5.75,
060000636,4.00,4.75,4.15,,,,,3.00,
060000637,1.75,4.25,4.15,,,,3.00,5.50,
060000638,1.75,5.75,4.15,,,,4.50,3.25,
060000639,2.00,4.25,4.15,,3.00,2.20,,,
060000640,0.25,3.25,4.15,4.40,,,,5.25,
060000641,1.25,3.50,4.15,,,,4.50,4.75,
060000642,2.25,,4.15,,,3.80,,4.25,
060000643,2.50,3.50,4.15,,,,5.00,5.25,
060000644,3.25,4.50,4.15,,,,5.25,6.50,
060000645,3.00,3.00,4.15,5.60,,,,4.25,
060000646,2.25,4.00,4.15,4.60,3.80,,,,
060000647,0.50,4.50,4.15,,3.20,,,4.00,
060000648,5.50,5.00,4.15,5.40,4.60,,,,
060000649,3.25,5.50,4.15,,,,,3.50,
060000650,0.00,2.50,4.15,,,,5.50,5.25,
060000651,3.00,6.00,4.15,,,,5.75,6.50,
060000652,3.25,4.50,4.15,,,,,4.75,
060000653,1.75,5.00,4.15,,,5.00,,4.25,
060000654,2.25,,4.15,,,4.20,,6.75,
060000655,2.00,4.00,4.15,,,4.20,,6.00,
060000656,2.25,7.00,4.15,,,3.20,,4.50,
060000657,3.00,4.25,4.15,,,,,,
060000658,2.00,4.75,4.15,4.00,3.60,,,,
060000659,2.00,6.00,4.15,,,,6.00,6.25,
060000660,2.50,5.00,4.15,,,,2.50,3.25,
060000661,2.25,4.75,4.15,,,4.60,,4.75,
060000662,3.00,4.50,4.15,,,,5.25,5.75,
060000663,0.75,,4.15,,5.00,,,6.25,
060000664,2.25,4.75,4.15,,,,5.00,5.00,
060000665,3.00,6.00,4.15,5.00,,,,5.50,
060000666,3.00,6.50,4.15,,,,4.00,4.50,
060000667,2.50,2.25,4.15,,,3.80,5.25,,
060000668,2.25,5.50,4.15,,4.00,4.80,,,
060000669,2.50,6.00,4.15,,,,5.75,4.00,
060000670,3.25,5.50,4.15,,4.60,2.80,,,
060000671,2.25,4.50,4.15,4.80,,,,4.50,
060000672,2.00,4.50,4.15,,,3.00,,4.25,
060000673,2.50,6.25,4.15,,,,,3.75,
060000674,2.25,6.25,4.15,,4.80,,,4.25,
060000675,1.75,5.50,4.15,,,,2.75,5.25,
060000676,1.75,3.25,4.15,,,,5.00,2.25,
060000677,2.00,5.00,4.15,,,,,3.00,
060000678,3.50,3.75,4.15,,,3.80,,3.00,
060000679,3.50,5.25,4.15,,3.60,4.60,,,
060000680,2.75,5.75,4.15,,,3.60,,5.25,
060000681,0.00,1.75,4.15,,,3.80,,2.25,
060000682,1.75,5.00,4.15,,,5.60,,5.50,
060000683,1.25,5.75,4.15,,,3.40,,5.25,
060000684,2.75,4.50,4.15,,2.60,6.00,,,
060000685,5.50,3.50,4.15,6.80,4.60,,,,
060000686,3.75,6.75,4.15,,,,,4.75,
060000687,3.00,5.50,4.15,,,,5.25,6.25,
060000688,2.75,5.25,4.15,,,,5.25,5.00,
060000689,1.75,5.50,4.15,4.40,,,,6.00,
060000690,2.25,5.75,4.15,,,,3.50,6.00,
060000691,1.25,4.00,4.15,,4.00,,,3.75,
060000692,0.75,2.75,4.15,,,,2.50,3.25,
060000693,1.25,3.50,4.15,,,,,2.50,
060000694,2.50,6.00,4.15,3.80,2.80,,,,
060000695,2.50,4.75,4.15,,,,5.00,5.75,
060000696,3.00,5.25,4.15,,,,5.25,6.75,
060000697,2.25,4.50,4.15,,,4.20,,3.25,
060000698,1.50,4.50,4.15,,,4.80,,3.75,
060000699,2.50,3.00,4.15,,,,3.75,3.50,
060000700,1.25,4.50,4.15,,,,6.50,5.50,
060000701,2.25,4.00,4.15,,,,5.50,3.50,
060000702,2.00,5.00,4.15,,,,2.75,3.50,
060000703,2.50,,4.15,,,,2.75,1.50,
060000704,4.50,5.75,4.15,5.60,,,,6.25,
060000705,1.75,5.50,4.15,,,3.80,,3.25,
060000706,2.00,5.50,4.15,,,,5.00,6.00,
060000707,1.75,4.75,4.15,4.60,,,,5.00,
060000708,2.00,5.00,4.15,,,,5.25,5.00,
060000709,2.25,5.50,4.15,,,,5.25,4.50,
060000710,0.25,,4.15,,,,,,
060000711,2.00,5.25,4.15,,,,7.50,5.75,
060000712,2.25,2.75,4.15,,,,,3.25,
060000713,2.75,5.25,4.15,,,,3.50,3.00,
060000714,0.00,3.75,4.15,,,3.20,,2.00,
060000715,3.50,4.50,4.15,,,4.40,,6.25,
060000716,2.50,5.50,4.15,,,,4.75,5.00,
060000717,0.25,1.25,4.15,,,,,2.00,
060000718,1.25,4.75,4.15,,3.80,4.60,,,
060000719,1.25,3.00,4.15,,,,6.50,,
060000720,0.00,2.50,4.15,,,,6.00,4.75,
060000721,4.00,5.50,4.15,,,,4.50,6.50,
060000722,0.75,6.75,4.15,,3.40,3.00,,,
060000723,2.00,5.25,4.15,3.60,,,,3.00,
060000724,2.50,5.25,4.15,,,4.80,,4.25,
060000725,1.50,4.00,4.15,,,,5.50,,
060000726,1.75,5.25,4.15,,4.80,,,4.25,
060000727,1.50,6.75,4.15,,,,4.75,5.00,
060000728,2.75,5.00,4.15,,4.40,5.00,,,
060000729,2.25,6.50,4.15,,,,5.25,5.00,
060000730,3.25,3.00,4.15,,,,6.50,,
060000731,2.00,4.00,4.15,,4.40,,,4.00,
060000732,2.75,5.75,4.15,,,,,6.50,
060000733,1.25,4.00,4.15,,,3.40,,3.25,
060000734,1.50,7.25,4.15,,,4.60,,3.25,
060000735,2.25,5.50,4.15,,5.20,3.80,,,
060000736,3.00,6.00,4.15,,,5.20,,5.25,
060000737,2.25,4.25,4.15,,,2.80,,5.00,
060000738,1.75,4.50,4.15,,,,4.00,5.25,
060000739,2.75,5.75,4.15,,,4.80,,5.00,
060000740,3.75,5.75,4.15,,,3.60,,5.25,
060000741,0.75,3.00,4.15,,4.20,4.00,,,
060000742,0.50,5.50,4.15,,,,4.50,5.50,
060000743,3.50,4.00,4.15,,,4.60,,5.25,
060000744,3.25,5.75,4.15,2.40,,,,5.75,
060000745,3.50,5.25,4.15,,,,5.50,6.50,
060000746,3.25,5.25,4.15,,,,5.50,6.00,
060000747,3.00,5.25,4.15,,,,4.25,4.75,
060000748,2.25,4.75,4.15,,,,5.50,6.00,
060000749,0.50,2.00,4.15,4.80,,,,3.50,
060000750,2.75,4.00,4.15,4.20,,,,4.00,
060000751,1.50,4.50,4.15,,,2.40,,5.75,
060000752,1.75,1.75,4.15,,,4.40,,5.50,
060000753,1.25,1.75,4.15,,3.40,3.80,,,
060000754,2.50,5.00,4.15,,,4.60,,4.50,
060000755,5.75,5.25,4.15,,5.40,5.40,,,
060000756,4.00,7.00,4.15,,,,6.50,4.00,
060000757,2.25,2.50,4.15,,5.80,3.20,,,
060000758,3.00,5.00,4.15,3.60,,,,5.25,
060000759,1.50,6.25,4.15,,3.40,,,3.75,
060000760,1.25,5.75,4.15,,,,4.00,5.25,
060000761,0.00,1.25,4.15,,,2.00,,2.25,
060000762,4.00,5.75,4.15,5.60,4.20,,,,
060000763,3.00,3.25,4.15,,,,6.75,6.00,
060000764,3.50,5.50,4.15,,4.60,5.00,,,
060000766,2.00,5.00,4.15,3.00,,,,4.25,
060000767,2.50,4.00,4.15,,,,5.00,2.50,
060000768,2.00,4.50,4.15,,,,,5.00,
060000769,4.00,5.50,4.15,,,,5.75,5.25,
060000770,5.00,6.75,4.15,,,5.00,,,
060000771,3.00,5.50,4.15,,4.20,,,,
060000772,1.25,3.50,4.15,,5.00,3.00,,,
060000773,1.50,6.00,4.15,,,,,5.00,
060000774,4.25,6.00,4.15,,,,5.25,6.00,
060000775,1.50,5.00,4.15,,,,4.50,2.50,
060000776,2.50,4.00,4.15,,,,,2.50,
060000777,2.25,6.00,4.15,,,,7.00,5.50,
060000778,3.00,6.00,4.15,,3.00,4.60,,,
060000779,0.25,3.75,4.15,,,2.80,,3.75,
060000781,1.00,3.50,4.15,,,,5.00,4.25,
060000782,3.25,4.75,4.15,,,,7.00,3.50,
060000783,3.25,6.25,4.15,,,,6.50,3.00,
060000784,1.75,4.25,4.15,,,3.80,,4.50,
060000785,2.00,5.50,4.15,,,,4.00,5.00,
060000786,2.50,5.50,4.15,,,,6.00,3.50,
060000787,3.75,5.25,4.15,,4.60,4.20,,,
060000788,3.25,5.75,4.15,,,,6.50,5.00,
060000789,1.50,5.25,4.15,,,,3.25,4.00,
060000790,2.75,5.50,4.15,3.80,4.40,,,,
060000791,0.75,,4.15,,,,,,
060000792,3.50,4.25,4.15,,,,5.00,5.00,
060000793,4.00,6.00,4.15,,,,7.25,3.50,
060000794,1.50,3.00,4.15,,,,4.75,1.75,
060000795,2.00,6.50,4.15,,,,6.50,4.50,
060000796,3.50,6.50,4.15,,3.40,,,5.50,
060000797,0.75,4.50,4.15,3.20,,,,5.00,
060000798,2.00,4.25,4.15,,,3.40,,5.00,
060000799,2.00,4.25,4.15,,,,5.50,4.75,
060000800,0.50,2.50,4.15,,2.40,,,4.25,
060000801,1.75,4.75,4.15,,4.20,5.00,,,
060000802,3.00,3.25,4.15,5.40,3.20,,,,
060000803,0.50,1.50,4.15,,,,,,
060000804,0.75,3.75,4.15,,,,6.75,4.00,
060000805,1.25,3.50,4.15,,4.00,5.00,,,
060000806,3.00,6.50,4.15,,,2.80,,4.25,
060000807,2.25,3.75,4.15,5.80,,,,5.00,
060000808,1.75,6.25,4.15,,,3.00,,6.25,
060000809,4.00,5.00,4.15,,,,5.75,5.50,
060000810,2.50,5.50,4.15,,,3.60,,6.25,
060000811,1.50,3.25,4.15,,,3.80,6.50,,
060000812,1.50,5.50,4.15,,,3.40,,3.50,
060000813,1.75,4.50,4.15,,4.80,4.40,,,
060000815,1.50,5.00,4.15,,,,5.25,,
060000816,3.50,3.25,4.15,,,,7.25,1.75,
060000817,3.00,6.25,4.15,,,,6.50,3.00,
060000818,0.25,0.50,4.15,,,,1.75,1.50,
060000819,1.25,1.25,4.15,,,2.60,,2.00,
060000820,2.25,5.50,4.15,,,4.00,5.75,,
060000821,1.75,4.25,4.15,,,3.80,,,
060000822,1.50,3.50,4.15,,,,4.50,1.75,
060000823,2.25,3.50,4.15,,,4.20,,5.25,
060000824,1.25,5.00,4.15,,,,6.00,2.50,
060000825,1.75,4.50,4.15,,,,5.75,5.00,
060000826,2.50,4.00,4.15,3.00,3.60,,,,
060000827,3.00,6.50,4.15,,,,6.00,6.00,
060000828,2.75,4.25,4.15,,4.20,5.60,,,
060000829,2.25,2.25,4.15,,,,3.25,5.00,
060000830,2.50,5.50,4.15,,,4.00,,6.25,
060000831,0.75,3.50,4.15,,,2.40,,2.00,
060000832,2.75,5.50,4.15,4.40,,,,5.50,
060000833,6.00,8.00,4.15,,,4.80,,,
060000834,4.00,7.00,4.15,,,,6.25,5.25,
060000835,3.00,4.25,4.15,,,5.00,,5.50,
060000836,1.25,4.50,4.15,,2.40,4.60,,,
060000837,0.50,2.50,4.15,,,,5.00,5.25,
060000838,2.00,7.75,4.15,,3.80,4.20,,,
060000839,2.50,5.25,4.15,,,,6.00,3.75,
060000840,3.25,4.00,4.15,,,,7.00,6.00,
060000841,2.00,6.25,4.15,,5.20,,,6.25,
060000842,3.00,6.00,4.15,,5.00,,,5.00,
060000843,0.25,5.00,4.15,,,2.80,,1.75,
060000844,1.50,6.00,4.15,5.00,,,,3.75,
060000845,2.75,5.25,4.15,,,,5.50,5.50,
060000846,0.75,5.25,4.15,,,,6.00,5.00,
060000847,3.50,4.25,4.15,,,,5.50,5.75,
060000848,3.50,6.75,4.15,,,,5.50,4.25,
060000849,1.25,5.00,4.15,,,,4.25,4.00,
060000850,4.50,6.00,4.15,,,,7.00,5.00,
060000851,2.50,5.75,4.15,,,3.60,,5.25,
060000852,2.25,4.50,4.15,,,3.20,,4.25,
060000853,2.25,7.00,4.15,,4.20,,,5.25,
060000854,2.50,6.25,4.15,,3.80,4.00,,,
060000855,0.75,3.75,4.15,,,2.80,,2.00,
060000856,2.25,,4.15,,,,,5.50,
060000857,1.00,,4.15,,,,,,
060000858,3.75,5.00,4.15,,3.80,,,6.50,
060000860,1.50,5.75,4.15,,3.80,5.80,,,
060000861,1.75,3.75,4.15,,,,7.00,7.25,
060000862,1.25,3.75,4.15,,,,4.75,2.50,
060000863,2.50,5.50,4.15,,4.00,,,5.50,
060000864,1.50,,4.15,,,3.60,,2.75,
060000865,2.50,5.00,4.15,3.80,,,,4.50,
060000866,3.75,3.75,4.15,,,,5.25,5.25,
060000867,1.25,2.50,4.15,,,3.20,,4.00,
060000868,1.75,5.25,4.15,,,,5.25,3.50,
060000869,3.25,6.50,4.15,,,,6.50,6.50,
060000870,2.50,4.75,4.15,,,,6.00,5.00,
060000871,3.50,6.50,4.15,4.00,3.20,,,,
060000872,3.75,5.75,4.15,,,,,3.75,
060000873,2.50,3.50,4.15,,,,5.00,4.00,
060000874,3.00,6.00,4.15,,,,,5.50,
060000875,3.00,4.50,4.15,,,,7.25,5.75,
060000876,1.75,,4.15,,,,,,
060000877,1.50,2.75,4.15,,,3.40,,5.25,
060000878,2.25,5.00,4.15,,,,4.25,4.75,
060000880,2.25,4.00,4.15,,,,5.50,4.00,
060000881,1.75,5.75,4.15,,,,7.00,4.00,
060000882,2.25,4.00,4.15,,,4.80,,2.25,
060000883,2.25,3.00,4.15,3.80,,,,5.00,
060000884,2.75,6.00,4.15,,,,8.50,7.50,
060000886,3.00,6.00,4.15,,3.80,,,5.50,
060000887,2.00,4.50,4.15,,,3.40,,3.75,
060000888,2.75,6.00,4.15,5.00,,,,5.75,
060000889,4.00,5.75,4.15,,,,,4.75,
060000890,2.50,5.50,4.15,,,,,5.50,
060000891,2.75,7.50,4.15,,,3.80,,5.25,
060000892,2.75,7.00,4.15,,,,7.25,4.25,
060000893,2.75,4.25,4.15,,5.20,3.00,,,
060000894,1.75,6.00,4.15,,,,,5.25,
060000895,3.00,6.50,4.15,,,,5.75,6.00,
060000896,3.75,6.75,4.15,,5.20,6.00,,,
060000897,2.00,5.50,4.15,,,,5.75,6.50,
060000898,2.25,5.25,4.15,,,,6.00,4.50,
060000899,4.25,4.00,4.15,4.80,,,,4.25,
060000900,2.25,5.25,4.15,,,,5.50,3.50,
060000901,2.50,4.00,4.15,,,,4.00,2.00,
060000902,2.00,5.25,4.15,,,,6.00,4.50,
060000903,1.50,4.00,4.15,,,5.20,,4.25,
060000904,2.00,5.00,4.15,3.60,,,,,
060000905,1.50,4.00,4.15,,,,3.25,3.00,
060000906,2.75,4.50,4.15,,,2.80,,5.25,
060000907,4.50,4.00,4.15,,,,6.50,5.50,
060000908,5.00,6.00,4.15,,5.20,,,6.50,
060000909,3.75,5.75,4.15,,,,7.25,5.75,
060000910,1.25,,4.15,,,,3.25,,
060000911,2.75,4.75,4.15,5.40,3.60,,,,
060000912,4.50,5.75,4.15,5.20,,,,5.75,
060000913,4.50,5.00,4.15,4.20,4.40,,,,
060000914,3.25,3.50,4.15,,,3.80,,4.00,
060000915,3.75,2.25,4.15,,,3.20,,4.25,
060000916,3.00,4.25,4.15,,,,5.25,5.00,
060000917,1.25,,4.15,,,,5.75,2.50,
060000918,4.25,5.00,4.15,5.80,,,,6.50,
060000919,1.25,5.50,4.15,,,,3.00,2.75,
060000920,1.25,5.75,4.15,,4.60,3.60,,,
060000921,1.75,4.00,4.15,,,,5.50,6.00,
060000922,1.50,5.25,4.15,,,,5.50,4.25,
060000923,3.50,5.25,4.15,,,3.80,,3.50,
060000924,2.25,5.00,4.15,,,,5.25,4.00,
060000925,2.75,5.00,4.15,,,,6.75,5.75,
060000926,1.75,7.00,4.15,,,,3.75,4.25,
060000927,4.25,,4.15,,,,5.50,,
060000928,2.75,3.25,4.15,,,3.00,,6.25,
060000929,3.00,4.50,4.15,,5.00,3.40,,,
060000930,3.50,6.50,4.15,5.80,,,,,
060000931,3.25,6.25,4.15,,,,6.50,5.25,
060000932,2.75,4.00,4.15,,3.60,,,5.50,
060000933,4.25,5.25,4.15,6.00,,,,4.75,
060000934,0.00,1.75,4.15,5.20,,3.20,,,
060000935,2.50,4.75,4.15,6.00,,,,4.25,
060000936,2.25,4.00,4.15,,,,6.00,4.50,
060000937,3.50,3.25,4.15,5.80,,,,4.50,
060000938,3.00,3.50,4.15,,3.80,,3.00,,
060000939,3.25,6.00,4.15,,,,3.25,3.50,
060000940,1.75,5.00,4.15,,,2.60,,3.75,
060000941,3.50,6.00,4.15,,,4.00,,4.50,
060000942,2.00,3.00,4.15,,,,5.00,2.75,
060000943,2.25,5.50,4.15,,,2.80,,6.00,
060000944,1.75,5.50,4.15,,,4.00,,4.00,
060000945,1.75,3.50,4.15,,,,7.50,2.75,
060000946,1.25,3.50,4.15,,,,4.75,4.00,
060000947,1.75,6.00,4.15,,,,6.50,4.50,
060000948,3.50,4.75,4.15,,,,6.25,5.75,
060000949,2.00,2.25,4.15,,,3.00,,3.00,
060000950,4.00,5.25,4.15,2.40,,,,4.25,
060000951,1.25,4.50,4.15,,,,6.75,5.25,
060000952,1.75,3.00,4.15,,3.80,4.40,,,
060000953,3.00,2.75,4.15,5.20,4.40,,,,
060000954,3.00,4.75,4.15,,,,,5.50,
060000955,3.50,4.50,4.15,,4.00,,,5.00,
060000956,2.00,6.25,4.15,,,,5.50,4.25,
060000957,2.75,4.75,4.15,4.40,,,,5.75,
060000958,1.75,5.50,4.15,,,5.20,,4.00,
060000959,3.00,3.00,4.15,,,5.40,,5.75,
060000960,3.75,6.25,4.15,,5.60,5.40,,,
060000961,1.25,2.75,4.15,,,3.20,,3.00,
060000962,2.00,3.25,4.15,2.40,,4.00,,,
060000963,3.25,5.50,4.15,,,,6.50,5.50,
060000964,2.50,7.00,4.15,,,,6.50,5.00,
060000965,0.75,4.25,4.15,,,,5.75,3.00,
060000966,2.00,4.75,4.15,4.80,4.40,,,,
060000967,3.25,5.75,4.15,,,,6.00,6.00,
060000968,2.00,5.50,4.15,,,,2.50,3.75,
060000969,4.00,6.25,4.15,,,,,3.75,
060000970,2.50,5.75,4.15,4.20,4.20,,,,
060000971,2.00,3.00,4.15,,,,5.00,4.25,
060000972,2.00,6.00,4.15,,,,5.75,5.25,
060000973,1.75,5.00,4.15,,,,4.25,4.25,
060000974,1.50,3.50,4.15,,,,3.25,5.50,
060000975,1.75,3.00,4.15,,,3.60,,3.50,
060000976,2.00,5.25,4.15,,3.60,5.20,,,
060000977,0.75,1.75,4.15,3.20,,,,1.25,
060000978,1.75,3.25,4.15,,,,5.00,2.75,
060000979,3.25,5.75,4.15,,,,2.75,5.25,
060000980,3.00,4.50,4.15,,4.80,4.20,,,
060000981,3.75,6.50,4.15,,,,5.25,4.25,
060000982,2.00,5.50,4.15,,,,4.25,5.25,
060000984,2.25,5.00,4.15,,,3.20,,4.25,
060000985,3.25,5.75,4.15,,,,4.25,4.75,
060000986,1.25,3.75,4.15,,,3.40,,5.00,
060000987,2.75,4.50,4.15,,,,,3.25,
060000988,1.25,3.50,4.15,5.60,,1.80,,,
060000989,0.25,5.25,4.15,,,,,,
060000990,2.25,5.50,4.15,,,,6.00,5.50,
060000991,1.75,5.25,4.15,,,,6.25,5.00,
060000992,2.00,,4.15,,,,5.75,3.25,
060000993,4.75,4.50,4.15,,5.20,5.00,,,
060000994,2.00,5.25,4.15,,,3.60,,6.50,
060000995,2.00,5.50,4.15,,,,5.75,4.25,
060000996,1.25,4.50,4.15,,,5.80,,4.50,
060000997,3.00,6.00,4.15,,,,4.50,3.00,
060000998,3.50,3.75,4.15,,3.80,3.60,,,
060000999,3.75,4.00,4.15,,,3.40,,4.00,
060001000,2.50,4.25,4.15,5.80,2.80,,,,
060001001,2.25,3.50,4.15,,,,6.00,,
060001002,0.75,4.75,4.15,,,3.60,,4.50,
060001003,2.75,5.25,4.15,,,4.00,,4.75,
060001004,2.00,4.75,4.15,,,,4.50,3.00,
060001005,3.00,2.25,4.15,4.80,,,,5.50,
060001006,3.00,2.50,4.15,2.80,,5.40,,,
060001007,3.50,3.50,4.15,3.80,,,,5.25,
060001008,3.50,6.50,4.15,,,4.00,,5.25,
060001009,2.25,5.50,4.15,2.80,3.80,,,,
060001010,3.00,4.25,4.15,,,,5.75,5.25,
060001011,3.25,6.00,4.15,,,,4.75,5.75,
060001012,3.75,5.25,4.15,,,,5.25,5.00,
060001013,3.25,5.50,4.15,4.40,4.20,,,,
060001014,1.50,3.75,4.15,,3.60,,,3.50,
060001015,2.50,5.25,4.15,4.40,3.80,,,,
060001016,1.50,3.00,4.15,,,,,3.75,
060001017,3.25,6.75,4.15,,,,6.25,3.50,
060001018,0.75,2.75,4.15,,3.80,5.00,,,
060001019,2.00,6.50,4.15,,,3.60,,3.50,
060001020,2.00,4.50,4.15,,,5.20,,4.00,
060001021,1.25,7.25,4.15,,,,5.75,4.00,
060001022,3.25,5.25,4.15,,,,4.50,5.50,
060001023,3.50,,4.15,,,,,,
060001024,2.00,3.25,4.15,,4.80,3.40,,,
060001025,4.75,5.75,4.15,4.40,,,,,
060001026,3.75,6.25,4.15,,,,5.50,3.75,
060001027,2.50,3.00,4.15,,,,,3.50,
060001028,2.75,7.25,4.15,,,,6.00,4.00,
060001029,2.75,6.25,4.15,4.00,,,,4.25,
060001030,4.75,5.00,4.15,,,5.60,,5.50,
060001031,3.75,2.50,4.15,4.00,3.60,,,,
060001032,2.75,5.00,4.15,,,5.20,,5.25,
060001033,0.75,2.00,4.15,,,,5.50,2.25,
060001034,4.25,6.00,4.15,6.40,5.80,,,,
060001035,2.75,6.00,4.15,3.20,,,,5.50,
060001036,4.00,5.75,4.15,,,,4.50,4.75,
060001037,1.00,5.00,4.15,,,,3.50,2.50,
060001038,3.00,5.00,4.15,,,4.60,,5.00,
060001039,2.25,2.00,4.15,,,3.20,,3.50,
060001040,2.25,3.25,4.15,,,5.60,,3.25,
060001041,3.50,4.50,4.15,,,,5.50,6.25,
060001042,2.25,4.00,4.15,,4.60,5.00,,,
060001043,4.25,5.00,4.15,,5.20,,,,
060001044,2.00,4.50,4.15,4.40,3.80,,,,
060001045,0.50,3.50,4.15,,,,5.75,4.25,
060001046,1.25,2.50,4.15,,,,4.00,4.25,
060001047,1.50,4.75,4.15,,,,6.75,4.50,
060001048,2.00,3.50,4.15,,,,,5.25,
060001049,0.00,3.50,4.15,,,,6.00,3.00,
060001050,2.75,6.75,4.15,,,,6.25,3.25,
060001051,3.00,5.00,4.15,,,,5.00,5.25,
060001052,4.25,4.00,4.15,6.60,,,,6.50,
060001053,1.50,3.75,4.15,,,,2.00,2.50,
060001054,1.50,5.25,4.15,,,,4.00,4.25,
060001055,3.00,5.50,4.15,,5.00,,,4.25,
060001056,1.75,5.50,4.15,,,,3.75,4.75,
060001057,1.25,5.00,4.15,5.40,,,,4.25,
060001058,0.50,3.00,4.15,,,,5.75,5.25,
060001059,1.75,5.00,4.15,,,,,5.75,
060001060,3.00,6.75,4.15,,,,6.25,6.25,
060001061,2.00,3.50,4.15,,,2.80,,3.25,
060001062,1.25,3.50,4.15,,3.40,4.80,,,
060001063,1.75,2.75,4.15,,,3.00,,3.75,
060001064,0.50,5.75,4.15,3.00,2.80,,,,
060001065,1.75,6.00,4.15,,,,4.50,6.50,
060001066,4.00,5.50,4.15,,3.80,,,4.50,
060001067,3.25,4.50,4.15,5.00,4.40,,,,
060001068,4.50,4.25,4.15,,,,4.50,5.25,
060001069,1.25,2.00,4.15,,3.60,,,3.00,
060001070,3.50,5.00,4.15,,,,3.25,5.50,
060001071,1.50,4.00,4.15,5.20,,,,5.00,
060001072,1.00,6.50,4.15,,,3.60,,6.00,
060001073,1.50,4.00,4.15,,,,5.25,3.50,
060001074,3.25,4.75,4.15,,4.40,,,4.25,
060001075,1.75,2.25,4.15,,,4.80,,4.00,
060001076,2.25,3.25,4.15,,,,5.50,4.00,
060001077,0.75,3.00,4.15,,4.00,,,4.25,
060001078,4.75,5.00,4.15,,,,6.50,6.50,
060001079,1.25,3.00,4.15,,,,3.25,4.50,
060001080,2.50,5.00,4.15,,,,4.75,5.50,
060001081,1.50,3.25,4.15,,4.00,,,2.25,
060001082,2.00,3.00,4.15,,,,5.00,2.50,
060001084,2.75,4.00,4.15,,,,6.25,6.25,
060001085,0.75,3.00,4.15,,,,3.25,2.25,
060001086,0.50,1.25,4.15,4.00,,,,3.25,
060001087,2.25,4.50,4.15,,,3.60,,3.75,
060001088,1.25,2.50,4.15,,3.40,4.60,,,
060001089,4.25,5.00,4.15,4.20,,,,6.50,
060001090,3.25,4.25,4.15,,,3.60,,3.50,
060001091,2.25,6.00,4.15,,,,6.25,4.25,
060001092,3.00,7.00,4.15,,3.80,,,4.00,
060001093,3.00,4.50,4.15,,,,5.00,4.75,
060001094,2.00,4.25,4.15,,,4.20,,3.75,
060001095,1.75,2.25,4.15,,3.60,3.60,,,
060001096,3.50,4.75,4.15,,,,3.50,4.75,
060001097,3.00,3.00,4.15,,3.80,,,5.00,
060001098,1.75,1.25,4.15,,2.20,5.20,,,
060001099,1.75,3.25,4.15,,3.00,,,4.50,
060001100,1.50,3.00,4.15,,,,4.25,4.00,
060001101,0.25,5.00,4.15,,,4.40,,4.50,
060001102,1.75,5.50,4.15,,,,3.75,5.50,
060001103,1.25,3.75,4.15,,,3.40,,2.75,
060001104,3.25,5.50,4.15,,,3.80,,5.25,
060001105,2.50,3.00,4.15,5.80,,,,4.75,
060001106,3.75,6.50,4.15,,,,4.25,5.50,
060001107,1.25,5.00,4.15,,3.60,4.00,,,
060001108,1.50,5.00,4.15,,,,6.00,4.50,
060001109,3.25,5.75,4.15,,,,6.50,,
060001110,2.75,4.50,4.15,4.40,,,,5.75,
060001111,3.50,6.00,4.15,,,,3.75,4.50,
060001112,3.75,6.50,4.15,,,,4.25,6.00,
060001113,2.25,5.75,4.15,3.40,,,,4.50,
060001114,1.25,4.25,4.15,,,3.00,,5.25,
060001115,2.25,3.75,4.15,,,,3.75,5.00,
060001116,0.50,4.50,4.15,,,,3.25,4.75,
060001117,2.00,5.00,4.15,,,,4.00,3.50,
060001118,0.75,,4.15,,,,3.50,,
060001119,1.25,3.00,4.15,,,4.60,,3.50,
060001120,3.00,5.00,4.15,,4.80,4.80,,,
060001121,3.25,5.50,4.15,,,,4.75,5.50,
060001122,0.50,4.75,4.15,,,3.80,,4.00,
060001123,1.75,6.50,4.15,,,,4.75,6.00,
060001124,2.50,5.00,4.15,,,,3.50,4.75,
060001125,3.50,4.75,4.15,,,,3.50,4.50,
060001126,2.00,6.75,4.15,,4.20,5.40,,,
060001127,1.25,5.50,4.15,,,,4.25,3.00,
060001128,0.75,3.50,4.15,,,3.00,,3.00,
060001129,0.50,2.25,4.15,,,6.20,,2.00,
060001130,1.25,2.50,4.15,,,,2.75,2.75,
060001131,0.00,3.25,4.15,,,,2.00,2.75,
060001132,1.75,4.00,4.15,,,4.00,,4.25,
060001133,2.75,4.00,4.15,4.00,,,,3.75,
060001134,1.75,1.25,4.15,,,,,2.00,
060001135,2.50,4.50,4.15,,,,4.50,3.00,
060001136,2.00,5.00,4.15,,,,3.75,5.00,
060001137,2.00,5.00,4.15,,,,2.75,4.00,
060001138,3.25,4.75,4.15,,,,3.00,5.25,
060001139,1.25,5.75,4.15,,,,3.75,4.50,
060001140,1.25,4.00,4.15,3.00,2.40,,,,
060001141,1.50,,4.15,,,,,,
060001142,2.50,4.50,4.15,,,,5.50,5.75,
060001143,1.25,3.50,4.15,,,4.00,,4.75,
060001144,2.75,4.00,4.15,,,,3.75,4.50,
060001145,0.00,1.25,4.15,,,3.40,,1.75,
060001146,1.75,5.25,4.15,,,3.60,,4.25,
060001147,4.00,6.25,4.15,,6.20,6.00,,,
060001148,4.50,4.50,4.15,,2.80,3.80,,,
060001149,1.75,4.75,4.15,,,,3.25,5.00,
060001150,3.00,4.25,4.15,,4.20,,,3.75,
060001151,1.75,5.00,4.15,,,3.80,,5.50,
060001152,4.00,3.75,4.15,,,4.40,,6.25,
060001153,3.50,5.00,4.15,4.60,,,,3.75,
060001154,1.25,5.00,4.15,,,4.20,,5.00,
060001155,2.75,5.75,4.15,,,,,6.00,
060001156,2.75,4.75,4.15,5.00,,,,6.00,
060001157,1.50,5.50,4.15,,,4.60,,3.75,
060001158,3.75,6.00,4.15,,5.00,,,,
060001159,2.75,3.25,4.15,4.40,,,,5.25,
060001160,2.00,4.25,4.15,,,3.20,,3.50,
060001161,2.00,4.25,4.15,3.00,,,,5.25,
060001162,2.00,4.50,4.15,,,,2.75,4.50,
060001163,1.75,5.50,4.15,,4.00,2.80,,,
060001164,1.25,3.00,4.15,,,4.40,,2.25,
060001165,0.75,3.00,4.15,,,,2.50,3.50,
060001166,2.25,5.50,4.15,,,,2.50,4.75,
060001167,1.25,1.50,4.15,,4.80,,,2.00,
060001168,1.00,6.25,4.15,,,,2.25,4.50,
060001169,0.25,2.25,4.15,,,,4.75,3.50,
060001170,3.50,5.25,4.15,,4.00,,,6.25,
060001171,2.25,4.00,4.15,,,,5.50,5.25,
060001172,1.50,5.50,4.15,,,4.20,,4.00,
060001173,2.50,4.25,4.15,,,,4.00,5.25,
060001174,1.75,5.50,4.15,,,,4.50,4.25,
060001175,3.25,3.50,4.15,,,,2.50,5.00,
060001176,3.50,3.50,4.15,,,,,5.25,
060001177,1.00,5.00,4.15,,,1.80,,3.25,
060001178,2.75,5.75,4.15,,,,3.75,4.25,
060001179,1.75,4.00,4.15,,,,6.25,5.75,
060001180,1.50,5.50,4.15,5.00,,,,2.50,
060001181,1.75,6.50,4.15,4.20,,,,5.50,
060001182,1.25,,4.15,,,,,,
060001183,2.75,4.00,4.15,3.40,,,,,
060001184,3.25,5.00,4.15,,,,,4.75,
060001185,3.25,4.50,4.15,5.00,3.80,,,,
060001186,1.25,3.25,4.15,,,3.60,,5.25,
060001187,1.50,5.75,4.15,,,4.80,,6.25,
060001188,2.25,5.75,4.15,,,,4.50,2.75,
060001189,1.75,4.75,4.15,,,,4.25,6.25,
060001190,2.50,4.50,4.15,,,,7.00,5.75,
060001191,3.75,5.50,4.15,5.60,,,,5.25,
060001192,0.50,1.25,4.15,,,,2.75,3.00,
060001193,5.25,5.00,4.15,5.60,,,,4.25,
060001194,3.75,6.50,4.15,,5.60,5.80,,,
060001195,1.75,4.50,4.15,,3.80,4.00,,,
060001196,2.25,2.75,4.15,,,,4.25,4.00,
060001197,0.50,4.50,4.15,,,,,4.50,
060001198,1.50,5.75,4.15,,3.60,3.60,,,
060001199,2.75,6.25,4.15,,,,4.75,6.75,
060001200,2.00,4.25,4.15,4.20,,,,4.25,
060001201,3.75,5.75,4.15,,,,4.50,6.00,
060001203,5.25,6.75,4.15,,,,,5.00,
060001204,2.75,5.00,4.15,,,,6.50,6.50,
060001205,0.75,4.75,4.15,,3.60,4.20,,,
060001206,1.75,5.75,4.15,,4.60,,,5.75,
060001208,3.50,5.50,4.15,,,,3.50,6.00,
060001209,3.25,6.25,4.15,,,5.40,,6.25,
060001210,2.25,3.50,4.15,,,,5.00,5.00,
060001211,4.75,6.00,4.15,,4.60,5.80,,,
060001212,3.25,6.00,4.15,5.80,4.60,,,,
060001213,2.00,4.50,4.15,,,,2.00,5.25,
060001214,1.75,4.50,4.15,,4.20,,,5.50,
060001215,1.75,5.25,4.15,,,3.80,,3.75,
060001216,2.75,6.00,4.15,,,,4.00,5.75,
060001217,2.25,4.00,4.15,5.60,,,,6.50,
060001218,4.00,8.50,4.15,,,,8.50,6.75,
060001219,3.00,6.00,4.15,5.40,,,,6.25,
060001220,1.50,5.75,4.15,,,,3.75,2.25,
060001221,1.00,,4.15,2.80,,,,,
060001222,2.00,6.00,4.15,,4.20,,,5.25,
060001223,1.75,4.25,4.15,,3.20,4.00,,,
060001224,2.00,3.00,4.15,,,,4.00,5.00,
060001225,2.75,6.75,4.15,,4.20,4.20,,,
060001226,3.50,5.50,4.15,,5.00,,,5.25,
060001227,2.50,5.50,4.15,,3.80,,,5.75,
060001228,1.50,3.50,4.15,,2.80,3.20,,,
060001229,3.75,5.00,4.15,,,,,6.25,
060001230,1.50,4.50,4.15,4.60,3.80,,,,
060001231,2.75,3.50,4.15,,3.00,,,3.25,
060001232,2.50,3.25,4.15,,,,5.25,4.75,
060001233,1.50,5.00,4.15,,,,5.00,4.25,
060001234,1.25,3.50,4.15,,,,4.75,5.00,
060001235,1.50,5.75,4.15,,,,3.75,6.00,
060001236,2.50,5.25,4.15,4.00,3.80,,,,
060001237,2.25,5.50,4.15,,,,3.75,5.25,
060001238,1.50,3.25,4.15,,2.20,5.60,,,
060001239,1.25,2.00,4.15,,,3.00,,3.75,
060001240,1.25,3.00,4.15,,,,3.25,3.25,
060001241,4.25,4.00,4.15,,,,5.75,5.00,
060001242,2.50,5.00,4.15,,,,4.50,4.75,
060001243,0.25,4.25,4.15,,,,2.50,3.50,
060001244,2.00,4.75,4.15,,,,2.50,3.75,
060001245,3.25,5.25,4.15,5.80,4.20,,,,
060001246,1.50,4.25,4.15,,4.00,,,5.50,
060001247,1.25,4.00,4.15,,,,6.25,3.00,
060001248,1.50,7.25,4.15,,,4.60,,4.50,
060001249,0.75,4.00,4.15,,,,,3.50,
060001250,1.75,5.00,4.15,,,,4.50,7.00,
060001251,2.25,5.25,4.15,,,,4.50,4.00,
060001253,2.50,5.00,4.15,,,2.20,,5.75,
060001254,2.50,4.25,4.15,,,,6.25,3.75,
060001255,1.25,4.50,4.15,,,,5.25,4.25,
060001256,1.25,2.25,4.15,,,,3.50,4.00,
060001257,1.50,5.00,4.15,,,3.20,,3.75,
060001258,1.75,5.00,4.15,5.40,,,,6.00,
060001259,5.00,6.25,4.15,,3.80,6.80,,,
060001260,1.75,3.00,4.15,,,,5.00,4.25,
060001261,2.25,5.50,4.15,,,,,,
060001262,1.50,3.00,4.15,,,4.00,,3.25,
060001263,0.25,3.75,4.15,4.80,,,,4.25,
060001264,2.25,5.50,4.15,,,,3.75,6.50,
060001265,1.25,,4.15,2.80,,,7.50,,
060001266,0.25,4.25,4.15,,6.00,,,3.25,
060001267,3.00,5.50,4.15,,,,6.25,5.25,
060001268,3.50,4.00,4.15,,,,,3.50,
060001269,0.25,4.50,4.15,,,,4.25,4.00,
060001270,2.75,4.25,4.15,,,,6.00,6.50,
060001271,5.50,5.25,4.15,,4.60,,,5.25,
060001272,2.50,6.50,4.15,,,,,4.25,
060001273,1.50,5.25,4.15,,3.20,,,5.25,
060001274,2.00,4.50,4.15,,,3.60,,6.00,
060001275,2.50,5.00,4.15,,,,6.50,4.50,
060001276,4.50,5.25,4.15,6.00,6.00,,,,
060001277,2.00,5.00,4.15,,,,4.75,4.00,
060001278,1.50,4.25,4.15,5.20,2.80,,,,
060001279,2.00,3.25,4.15,,,,,3.50,
060001280,1.25,4.75,4.15,,,3.80,,6.00,
060001281,2.50,3.25,4.15,,,2.80,,2.50,
060001282,3.00,6.50,4.15,,,,6.25,5.00,
060001283,1.50,5.00,4.15,,,3.80,,5.50,
060001284,3.25,2.50,4.15,,,,,,
060001285,2.75,5.75,4.15,,,,5.75,6.00,
060001286,2.25,5.25,4.15,,,,6.00,5.00,
060001287,3.00,4.25,4.15,5.20,3.20,,,,
060001288,2.75,3.00,4.15,4.40,3.60,,,,
060001289,2.25,6.50,4.15,,4.20,,,6.00,
060001290,3.75,4.75,4.15,6.20,,,,5.50,
060001291,2.75,5.50,4.15,,,,3.00,4.50,
060001292,4.00,6.50,4.15,,,,7.00,6.50,
060001293,1.75,4.75,4.15,,4.60,,,4.50,
060001294,2.25,5.50,4.15,5.40,,,,5.50,
060001295,1.25,5.00,4.15,,,,3.75,4.00,
060001296,3.25,7.25,4.15,,,,,4.50,
060001297,1.25,3.50,4.15,,,3.40,,5.00,
060001298,3.00,5.00,4.15,5.20,,,,4.75,
060001299,1.50,4.75,4.15,,4.80,2.60,,,
060001300,2.25,6.50,4.15,,,,5.25,5.75,
060001301,2.50,4.50,4.15,,,3.40,,6.50,
060001302,2.00,4.50,4.15,,,,2.00,4.00,
060001303,1.75,4.25,4.15,,,,3.25,5.50,
060001304,1.75,5.00,4.15,5.80,,,7.50,,
060001305,2.00,4.25,4.15,,2.80,,,6.25,
060001306,4.00,5.50,4.15,,,,6.00,5.00,
060001307,3.00,6.25,4.15,,,3.80,,5.00,
060001308,4.50,6.00,4.15,6.20,4.60,,,,
060001309,2.50,5.00,4.15,,,,,5.50,
060001310,1.75,4.75,4.15,,,,5.00,6.25,
060001311,2.25,5.00,4.15,,,,,5.50,
060001312,0.50,6.25,4.15,,,5.00,,5.25,
060001313,1.25,4.75,4.15,,2.60,,,4.00,
060001314,3.25,5.75,4.15,,4.40,,,5.75,
060001315,2.50,5.25,4.15,,,4.00,,5.25,
060001316,3.25,6.25,4.15,4.80,,,,5.50,
060001317,3.50,5.50,4.15,4.40,,,,4.00,
060001318,4.25,5.50,4.15,,5.00,,,5.00,
060001319,0.75,5.25,4.15,,,,3.25,4.50,
060001320,3.25,5.50,4.15,,1.80,4.00,,,
060001321,0.75,5.00,4.15,,,,,2.50,
060001322,2.75,6.00,4.15,,,,2.50,5.50,
060001323,1.75,3.50,4.15,,2.60,3.20,,,
060001324,2.75,4.50,4.15,,,,5.00,5.00,
060001326,1.50,2.50,4.15,6.40,3.00,,,,
060001327,1.25,5.25,4.15,5.00,,,,3.75,
060001328,4.00,4.50,4.15,,,,,5.75,
060001329,2.50,4.25,4.15,,,,4.50,5.25,
060001330,1.50,5.75,4.15,5.20,4.00,,,,
060001331,2.00,6.25,4.15,,,,7.00,6.00,
060001332,2.00,5.50,4.15,,5.00,,,6.50,
060001333,3.25,5.50,4.15,5.20,,3.80,,,
060001334,1.25,1.75,4.15,2.40,1.20,,,,
060001335,1.50,2.25,4.15,,,3.00,,5.50,
060001336,2.75,5.25,4.15,,,2.60,,6.00,
060001337,3.00,2.50,4.15,,3.00,3.40,,,
060001338,4.75,5.00,4.15,5.80,6.20,,,,
060001339,2.75,3.25,4.15,,4.20,,,5.50,
060001340,1.25,3.25,4.15,,,3.60,,3.75,
060001341,2.25,7.50,4.15,4.20,,,,,
060001342,2.25,3.25,4.15,,,3.40,,5.00,
060001343,3.00,4.25,4.15,4.80,3.80,,,,
060001344,0.00,1.75,4.15,3.80,3.20,,,,
060001345,3.00,5.25,4.15,,,,5.75,5.25,
060001346,0.50,3.50,4.15,,,4.40,,4.75,
060001347,0.75,4.25,4.15,,,,6.25,5.00,
060001348,0.50,1.50,4.15,,,,,3.25,
060001349,1.75,5.50,4.15,6.20,,,,5.25,
060001350,3.25,2.00,4.15,,,,3.00,5.25,
060001351,0.25,,4.15,,,,,,
060001352,1.25,4.50,4.15,,4.00,,,4.50,
060001353,1.50,5.25,4.15,,,,6.50,6.00,
060001354,2.50,5.00,4.15,,,4.00,,5.75,
060001355,1.25,3.75,4.15,,,,,5.50,
060001356,2.25,4.75,4.15,,,,4.25,2.75,
060001357,1.25,2.25,4.15,,,3.20,,3.00,
060001358,0.75,4.50,4.15,,,,2.00,3.50,
060001359,2.50,5.25,4.15,,,5.40,,5.75,
060001360,0.50,3.75,4.15,,,3.20,,1.50,
060001361,3.25,5.00,4.15,4.00,,,,3.00,
060001362,0.00,,4.15,,,,,,
060001363,2.00,5.00,4.15,,,,4.75,4.00,
060001364,1.25,3.25,4.15,,,,3.75,3.75,
060001365,2.00,5.00,4.15,,,,5.50,5.25,
060001366,2.50,4.50,4.15,,,4.40,,3.00,
060001367,2.25,4.50,4.15,3.80,,,,5.25,
060001368,0.00,1.50,4.15,,,,3.50,2.00,
060001369,3.25,4.00,4.15,6.60,5.40,,,,
060001370,0.75,6.00,4.15,,5.20,,,1.75,
060001371,1.25,4.50,4.15,,,,5.00,3.50,
060001372,2.25,6.00,4.15,5.80,,,,5.25,
060001373,2.25,4.25,4.15,,,,4.25,4.00,
060001374,1.50,4.75,4.15,3.00,,,,,
060001376,1.75,5.25,4.15,,,4.80,,3.75,
060001377,1.50,5.25,4.15,,2.80,,,3.50,
060001378,2.25,3.00,4.15,,,,2.25,4.50,
060001379,1.00,2.25,4.15,,3.20,,,3.00,
060001380,1.75,5.50,4.15,,,,4.25,5.75,
060001381,2.75,4.25,4.15,,,,5.00,3.50,
060001382,0.25,4.00,4.15,,,,3.25,3.50,
060001383,0.00,2.00,4.15,,,,1.50,3.50,
060001384,2.50,6.00,4.15,,,5.40,,4.50,
060001385,1.25,5.75,4.15,3.40,3.00,,,,
060001386,2.50,3.50,4.15,,,,,3.00,
060001387,2.50,6.00,4.15,,,,6.50,3.75,
060001388,1.75,4.25,4.15,,3.40,5.40,,,
060001389,1.25,4.00,4.15,,,3.60,,2.25,
060001390,2.00,4.00,4.15,5.40,3.80,,,,
060001391,2.00,5.00,4.15,,,,4.50,3.75,
060001392,2.00,5.50,4.15,,,,3.75,5.75,
060001393,2.50,5.00,4.15,,,4.00,,4.00,
060001394,2.50,3.75,4.15,,,,5.00,6.00,
060001395,2.75,5.00,4.15,,,5.40,,5.75,
060001396,2.50,4.25,4.15,5.40,,,3.00,,
060001397,1.75,4.00,4.15,,4.00,4.20,,,
060001398,2.25,4.50,4.15,,4.20,,,5.75,
060001399,2.25,6.50,4.15,,,,3.25,6.00,
060001400,2.00,5.75,4.15,,,,6.50,4.00,
060001401,2.00,6.00,4.15,4.40,,,,4.50,
060001402,2.25,4.75,4.15,2.60,4.20,,,,
060001403,1.50,4.75,4.15,,,3.80,5.00,,
060001404,1.50,4.50,4.15,3.80,2.20,,,,
060001405,2.25,3.25,4.15,,,3.40,,4.75,
060001406,3.25,4.50,4.15,,,,3.75,6.50,
060001407,0.00,3.50,4.15,,,4.40,,1.25,
060001408,3.25,5.50,4.15,,5.60,,,5.25,
060001409,1.75,6.00,4.15,,,,3.50,4.00,
060001410,3.00,6.25,4.15,5.00,,,,4.75,
060001411,2.25,2.50,4.15,5.40,,3.40,,,
060001412,4.50,4.00,4.15,,,4.00,,5.25,
060001413,3.25,0.25,4.15,2.60,,,,,
060001414,2.00,4.50,4.15,,,,2.50,4.25,
060001415,0.25,3.00,4.15,,,5.40,,3.75,
060001416,3.50,4.50,4.15,5.60,4.40,,,,
060001417,2.25,4.75,4.15,,,4.40,,5.75,
060001418,2.50,4.00,4.15,,,,2.75,4.50,
060001419,2.50,6.00,4.15,,,,5.00,5.25,
060001420,1.00,5.50,4.15,,,,4.25,5.00,
060001421,2.75,5.75,4.15,5.60,,,,6.25,
060001422,2.50,5.75,4.15,,,4.40,,,
060001423,1.50,4.50,4.15,,,,4.00,4.00,
060001424,2.00,3.50,4.15,5.80,,,,5.00,
060001425,2.25,5.50,4.15,,4.60,5.40,,,
060001426,0.25,3.00,4.15,,,,,3.25,
060001427,2.25,5.00,4.15,3.80,,,,,
060001428,3.00,5.00,4.15,5.20,,5.20,,,
060001429,1.75,3.50,4.15,3.60,,4.00,,,
060001430,1.75,3.75,4.15,,4.20,,,3.00,
060001431,4.75,5.50,4.15,,,,,5.50,
060001432,1.50,6.25,4.15,,5.20,4.20,,,
060001433,1.25,2.25,4.15,,,3.20,,4.00,
060001434,1.50,5.50,4.15,,,3.80,,3.75,
060001435,0.75,3.25,4.15,5.40,,,,1.75,
060001436,1.75,2.75,4.15,5.00,,,,,
060001437,3.75,5.25,4.15,5.80,4.20,,,,
060001438,1.75,4.25,4.15,,,5.40,,4.25,
060001439,1.75,6.75,4.15,,,3.40,,4.25,
060001440,4.00,6.50,4.15,,,,5.25,7.00,
060001441,1.75,5.25,4.15,,,,4.25,3.75,
060001442,4.00,4.00,4.15,,,,4.00,5.75,
060001443,2.00,5.25,4.15,,,4.20,,4.25,
060001444,3.50,3.75,4.15,,,,6.00,6.75,
060001445,2.75,4.25,4.15,,,3.00,,3.75,
060001446,3.75,5.50,4.15,5.20,,,,4.75,
060001447,1.75,3.75,4.15,,,,4.50,2.50,
060001448,1.50,5.50,4.15,4.80,2.40,,,,
060001449,3.25,3.50,4.15,,,3.00,,4.25,
060001450,2.25,5.75,4.15,5.60,,,,4.25,
060001451,2.50,6.00,4.15,,4.00,,,5.75,
060001452,2.00,6.75,4.15,,3.40,,,6.25,
060001453,1.75,3.25,4.15,4.80,,,,3.75,
060001454,2.50,7.00,4.15,,,,,5.00,
060001455,1.75,5.00,4.15,6.20,,,,4.25,
060001456,3.00,4.00,4.15,,,4.20,,4.50,
060001457,2.25,5.50,4.15,,,,2.75,4.50,
060001458,2.00,6.25,4.15,,,,3.50,4.25,
060001459,1.75,4.25,4.15,,,4.60,,4.25,
060001460,2.25,3.50,4.15,4.20,,,,4.75,
060001461,1.00,4.50,4.15,4.40,3.20,,,,
060001462,2.25,4.00,4.15,3.80,4.60,,,,
060001463,2.75,6.25,4.15,,3.60,,,5.00,
060001464,4.25,5.25,4.15,4.80,2.80,,,,
060001465,1.75,5.75,4.15,,,,6.50,4.00,
060001466,2.25,6.75,4.15,,,,,4.00,
060001467,3.25,5.50,4.15,,4.00,5.80,,,
060001468,1.50,4.75,4.15,,,3.60,,5.25,
060001469,1.25,4.25,4.15,,,,4.50,2.75,
060001470,2.25,6.00,4.15,,,,,5.00,
