SOBAODANH,Toan,Van,NN,Ly,Hoa,Sinh,Su,Dia,GDCD
036000001,3.00,5.25,2.63,,,,5.00,6.50,
036000002,2.25,,2.63,,,2.80,,3.75,
036000003,3.00,2.50,2.63,5.80,,,,,
036000004,4.00,4.50,2.63,,,4.40,,7.50,
036000005,3.25,,2.63,,,5.20,,,
036000006,3.00,2.75,2.63,,5.80,,,,
036000007,1.25,6.00,2.63,,,,5.25,7.00,
036000008,2.00,3.00,2.63,,,,,4.00,
036000009,3.25,5.00,2.63,5.40,,,,,
036000010,4.00,2.50,2.63,,,6.20,,7.50,
036000011,4.75,5.00,2.63,,6.00,,,,
036000012,3.75,3.25,2.63,,6.20,7.40,,,
036000013,1.50,3.50,2.63,,,,5.50,6.75,
036000014,2.50,3.25,2.63,,,6.00,,4.50,
036000015,4.25,4.50,2.63,,6.80,6.80,,,
036000016,2.25,5.25,2.63,,,,4.00,6.25,
036000017,4.00,5.75,2.63,6.20,,,,5.75,
036000018,2.50,5.00,2.63,,,4.40,,3.50,
036000019,2.75,2.00,2.63,,,3.80,,4.25,
036000020,4.00,4.00,2.63,,,4.60,,5.00,
036000021,2.50,3.75,2.63,,,,6.75,7.25,
036000022,3.50,5.50,2.63,,,,5.00,7.50,
036000023,2.00,3.00,2.63,,,5.60,,4.25,
036000024,4.25,3.00,2.63,,5.80,7.00,,,
036000025,3.25,5.25,2.63,,,,7.25,5.25,
036000026,2.75,4.75,2.63,,,4.20,,4.25,
036000027,3.25,4.00,2.63,,,,5.00,6.25,
036000028,3.50,2.50,2.63,,,5.60,,7.75,
036000029,1.50,2.50,2.63,,,3.20,,4.00,
036000030,5.25,2.50,2.63,,,5.20,,4.75,
036000031,0.00,3.25,2.63,,,4.80,,7.25,
036000032,2.00,3.25,2.63,,,,3.75,3.50,
036000033,2.00,3.75,2.63,,,,4.50,5.50,
036000034,3.25,4.00,2.63,,,4.60,,5.50,
036000035,3.25,2.75,2.63,,7.20,,,,
036000036,3.00,3.75,2.63,,,5.60,,7.50,
036000037,1.25,1.50,2.63,4.00,,5.00,,,
036000038,3.50,4.25,2.63,,,,4.50,5.75,
036000039,3.00,4.75,2.63,,,,5.00,5.00,
036000040,3.25,3.50,2.63,,,,5.00,4.25,
036000041,2.50,2.00,2.63,6.00,,4.00,,,
036000042,4.00,3.25,2.63,,,4.60,,5.75,
036000043,4.00,2.75,2.63,6.00,,3.40,,,
036000044,4.00,6.00,2.63,,,,5.75,6.50,
036000045,4.50,3.00,2.63,,,,6.50,5.75,
036000046,1.75,6.00,2.63,,,,5.50,5.00,
036000047,2.50,4.25,2.63,,,5.60,,5.50,
036000048,2.00,3.00,2.63,,,,4.25,4.25,
036000049,1.25,3.00,2.63,,,,3.75,5.50,
036000050,1.50,5.00,2.63,,,,4.50,4.25,
036000051,2.00,5.00,2.63,,,,,5.75,
036000052,3.25,2.50,2.63,,4.80,3.80,,,
036000053,2.00,6.00,2.63,,,,4.25,,
036000054,2.75,4.00,2.63,,,,5.25,5.75,
036000055,2.25,2.25,2.63,,5.20,5.60,,,
036000056,3.00,6.00,2.63,,,,4.50,5.50,
036000057,3.75,5.50,2.63,,4.40,4.20,,,
036000058,2.75,3.50,2.63,5.80,,4.00,,,
036000059,2.25,2.50,2.63,,,4.40,,3.75,
036000060,1.25,3.25,2.63,,,4.80,,8.25,
036000061,1.25,1.50,2.63,,,3.60,,3.00,
036000062,4.50,4.00,2.63,,,,,5.75,
036000063,2.75,1.75,2.63,,,4.40,,5.50,
036000064,3.00,4.00,2.63,,,,5.50,5.50,
036000065,3.50,4.50,2.63,5.40,5.00,,,,
036000066,2.25,2.00,2.63,,,4.40,,3.25,
036000067,4.00,3.50,2.63,,4.00,4.80,,,
036000068,2.25,3.50,2.63,,3.80,,,6.50,
036000069,1.25,2.75,2.63,,,4.60,,,
036000070,3.50,4.75,2.63,,,3.00,,6.75,
036000071,0.75,2.50,2.63,,,,5.25,2.25,
036000072,4.50,4.25,2.63,,,4.00,,5.75,
036000073,2.00,4.00,2.63,5.00,5.80,,,,
036000074,1.50,1.00,2.63,5.20,,4.60,,,
036000075,3.25,4.25,2.63,,,5.60,,6.75,
036000076,1.75,2.00,2.63,,,,3.75,5.50,
036000077,2.00,1.25,2.63,,7.40,5.60,,,
036000078,2.75,5.50,2.63,,5.40,5.60,,,
036000079,3.75,3.75,2.63,,4.60,4.80,,,
036000080,4.00,3.25,2.63,,,,6.50,6.50,
036000081,2.75,3.00,2.63,,6.20,4.40,,,
036000082,2.50,3.00,2.63,,,,6.50,7.75,
036000083,2.50,4.50,2.63,,,6.20,,7.25,
036000085,1.50,2.50,2.63,,,,5.50,4.25,
036000086,2.00,3.50,2.63,,,,5.00,4.25,
036000087,4.50,2.25,2.63,6.60,5.60,,,,
036000088,1.50,5.00,2.63,,,,5.00,3.50,
036000089,1.75,2.25,2.63,,,3.40,,3.25,
036000090,3.25,1.50,2.63,5.60,,5.00,,,
036000091,3.00,2.75,2.63,,4.20,4.60,,,
036000092,3.25,6.00,2.63,,,,,6.50,
036000093,4.75,5.50,2.63,,,,,6.50,
036000094,4.25,4.25,2.63,6.80,,,,,
036000095,3.75,6.25,2.63,,5.20,5.80,,,
036000096,0.25,2.50,2.63,,,,5.50,3.75,
036000097,3.00,2.75,2.63,,4.40,4.60,,,
036000098,3.50,2.50,2.63,,,4.00,,4.25,
036000099,3.25,4.75,2.63,,5.80,5.00,,,
036000100,4.25,3.00,2.63,,4.80,,,3.75,
036000101,3.00,5.00,2.63,,,,5.00,7.00,
036000102,1.75,3.50,2.63,,,5.00,,6.00,
036000103,0.50,3.75,2.63,,,5.00,,6.50,
036000104,3.25,4.50,2.63,,,,7.50,7.25,
036000105,3.00,3.00,2.63,,4.80,,,3.50,
036000106,3.00,3.75,2.63,,,,4.00,4.75,
036000107,1.75,1.75,2.63,,,,7.00,7.25,
036000108,4.25,2.00,2.63,5.80,4.20,,,,
036000109,4.00,4.50,2.63,,,,4.50,6.00,
036000110,2.75,4.50,2.63,,,,5.00,5.25,
036000111,3.25,4.25,2.63,,,,,5.00,
036000112,2.00,1.25,2.63,4.60,,3.00,,,
036000113,5.00,5.50,2.63,5.80,,5.20,,,
036000114,4.00,4.50,2.63,,,,4.25,5.75,
036000115,2.75,3.50,2.63,,,,6.75,7.50,
036000116,2.00,3.75,2.63,,,5.60,,6.75,
036000117,3.50,2.50,2.63,,,5.20,,7.00,
036000118,2.75,3.50,2.63,,,5.40,,5.50,
036000119,3.75,3.50,2.63,6.40,,,,7.50,
036000120,2.50,5.00,2.63,,,,6.50,5.50,
036000121,5.50,2.25,2.63,,6.80,6.40,,,
036000122,2.25,3.25,2.63,,,,3.00,3.50,
036000123,4.75,4.00,2.63,,5.80,,,4.75,
036000124,3.50,3.50,2.63,,,4.20,,5.00,
036000125,3.75,4.00,2.63,,,4.60,,5.00,
036000126,2.50,4.00,2.63,,,4.40,,6.00,
036000127,3.25,2.00,2.63,,,5.20,,5.75,
036000128,2.25,2.00,2.63,,,,8.50,5.75,
036000129,3.00,1.75,2.63,,,4.40,,6.75,
036000130,2.50,4.00,2.63,,,4.00,,4.50,
036000131,3.50,2.75,2.63,,,2.60,,3.00,
036000132,4.00,2.50,2.63,,,,5.00,4.75,
036000133,3.00,2.00,2.63,,,,,,
036000134,3.75,5.00,2.63,,,,2.00,6.50,
036000135,2.50,2.50,2.63,,,5.20,,3.50,
036000136,3.75,3.50,2.63,7.00,,,,,
036000137,1.50,2.00,2.63,,,5.00,5.00,,
036000138,1.25,1.75,2.63,,1.80,3.00,,,
036000139,2.75,3.50,2.63,,,2.40,,6.50,
036000140,3.00,6.00,2.63,,,,8.50,6.75,
036000141,3.50,1.50,2.63,,,5.00,,3.50,
036000142,3.75,6.00,2.63,,,,8.00,6.00,
036000143,3.25,3.75,2.63,,,4.80,,4.75,
036000144,4.00,4.50,2.63,,6.00,6.60,,,
036000145,2.50,2.00,2.63,,,4.40,,6.00,
036000146,2.00,4.50,2.63,,,,5.50,4.50,
036000147,3.50,3.00,2.63,,,5.60,,,
036000148,3.00,3.25,2.63,,,,7.75,7.00,
036000149,3.00,4.00,2.63,,,5.20,,5.00,
036000150,3.00,4.25,2.63,,,5.40,,5.75,
036000151,4.50,3.75,2.63,,5.80,4.80,,,
036000152,3.25,5.75,2.63,6.00,,,,,
036000153,4.50,3.50,2.63,,6.00,6.00,,,
036000154,4.00,3.00,2.63,,,6.00,,8.50,
036000155,4.25,5.50,2.63,,,5.00,,7.00,
036000156,3.75,4.50,2.63,,,,4.50,6.50,
036000157,2.75,4.00,2.63,,,,3.50,5.25,
036000158,4.00,4.25,2.63,,5.60,6.00,,,
036000159,4.25,4.75,2.63,,,,,6.75,
036000160,4.25,4.00,2.63,,5.00,5.80,,,
036000161,4.25,4.50,2.63,,,,5.75,4.50,
036000162,2.25,1.75,2.63,,4.60,,,1.75,
036000163,3.75,4.00,2.63,,6.40,,,6.25,
036000164,4.25,3.50,2.63,,,,4.25,4.75,
036000165,2.00,3.75,2.63,,,,3.00,1.75,
036000166,2.75,5.75,2.63,,,,3.75,6.50,
036000167,3.50,2.00,2.63,,4.60,4.60,,,
036000168,3.75,4.25,2.63,,,,5.50,5.50,
036000169,3.75,4.50,2.63,,,,5.00,4.50,
036000170,2.25,3.50,2.63,5.20,,4.60,,,
036000171,3.50,2.00,2.63,,,4.20,,7.50,
036000172,2.00,1.25,2.63,5.20,,4.40,,,
036000173,1.25,1.75,2.63,7.20,,5.80,,,
036000174,3.75,2.00,2.63,,7.00,5.60,,,
036000175,2.75,3.50,2.63,,,,5.50,3.50,
036000176,3.75,3.50,2.63,,,6.40,,7.00,
036000177,2.75,3.50,2.63,,6.00,5.40,,,
036000178,2.75,3.00,2.63,,6.20,,,4.75,
036000179,2.75,1.50,2.63,,6.20,4.40,,,
036000180,3.00,4.00,2.63,,5.20,,,5.75,
036000181,2.50,2.00,2.63,,,4.80,,6.00,
036000182,3.75,2.75,2.63,,,5.00,,7.25,
036000183,3.25,4.50,2.63,,,4.00,,5.50,
036000184,3.00,1.50,2.63,,,5.40,,7.00,
036000185,3.75,3.00,2.63,,,6.00,,4.25,
036000186,2.00,2.25,2.63,,,,8.50,5.50,
036000187,2.25,3.00,2.63,,,5.80,,7.50,
036000188,4.00,3.00,2.63,6.40,,,,3.50,
036000189,3.00,3.00,2.63,,,4.60,,6.25,
036000190,2.50,5.50,2.63,,,,8.00,6.00,
036000191,2.75,5.75,2.63,,,,5.25,7.50,
036000192,3.25,4.50,2.63,,5.60,,,,
036000193,3.25,4.50,2.63,,,,,5.50,
036000194,3.50,2.75,2.63,6.60,,,,,
036000195,6.00,5.00,2.63,6.40,,,,,
036000196,4.25,4.25,2.63,,,,,7.00,
036000197,4.00,4.25,2.63,,,6.00,,4.25,
036000198,1.75,0.50,2.63,5.60,,4.20,,,
036000199,2.50,3.50,2.63,,,4.60,,4.75,
036000200,2.50,3.50,2.63,,,6.00,,6.75,
036000201,5.00,5.00,2.63,,,6.20,,7.00,
036000202,3.50,3.00,2.63,,,5.40,,4.00,
036000203,3.00,4.25,2.63,,5.00,4.60,,,
036000204,4.75,4.00,2.63,,5.80,5.60,,,
036000205,2.00,1.00,2.63,,,5.20,,2.25,
036000206,3.25,4.25,2.63,,,4.40,,4.50,
036000207,2.50,4.50,2.63,,,3.80,,4.50,
036000209,2.75,3.50,2.63,,,4.40,,4.50,
036000210,3.00,3.00,2.63,,,4.80,,6.00,
036000211,2.25,3.00,2.63,,,5.20,,6.25,
036000212,3.50,5.00,2.63,,,,5.00,5.75,
036000213,3.25,5.50,2.63,,,6.20,,5.50,
036000214,3.75,4.25,2.63,,6.60,6.40,,,
036000215,3.00,4.50,2.63,,,4.60,,3.75,
036000216,2.25,4.00,2.63,,,,3.00,5.50,
036000217,2.75,3.75,2.63,,,,6.75,5.25,
036000218,1.50,4.50,2.63,,,,2.50,7.25,
036000219,3.75,4.50,2.63,,,,5.00,6.25,
036000220,2.50,3.00,2.63,,4.80,5.20,,,
036000221,3.50,2.25,2.63,,,5.60,,3.25,
036000223,3.00,5.75,2.63,,,4.60,,4.50,
036000224,3.00,4.75,2.63,,5.60,,,5.00,
036000225,2.75,2.50,2.63,5.40,,3.80,,,
036000226,3.25,4.50,2.63,,,,,7.00,
036000227,3.50,3.50,2.63,,3.40,4.00,,,
036000228,3.75,1.75,2.63,5.40,,,,,
036000229,2.00,1.25,2.63,,4.80,5.00,,,
036000230,3.00,2.50,2.63,4.40,,,,5.50,
036000231,2.75,6.00,2.63,,,,5.00,6.75,
036000232,1.25,5.00,2.63,,,,2.75,4.50,
036000233,3.25,4.50,2.63,,,4.80,,4.50,
036000234,3.50,4.00,2.63,,,3.20,,6.50,
036000235,3.50,3.50,2.63,,,,4.75,5.75,
036000236,2.25,4.25,2.63,,,,5.00,6.00,
036000237,2.00,5.50,2.63,6.00,5.80,,,,
036000238,2.50,1.75,2.63,,,2.60,,2.25,
036000239,2.00,2.75,2.63,,6.20,5.00,,,
036000240,3.50,4.00,2.63,,,,6.00,4.75,
036000241,3.00,4.50,2.63,,,4.40,,7.50,
036000242,4.25,3.75,2.63,,,,5.25,5.75,
036000243,1.50,3.00,2.63,,,3.80,,5.50,
036000244,4.25,3.50,2.63,,,5.00,,5.00,
036000245,1.50,2.00,2.63,,,3.20,,6.50,
036000246,2.25,3.50,2.63,,,,5.00,4.25,
036000247,2.25,5.00,2.63,,,4.80,,5.00,
036000248,2.00,3.00,2.63,,,,7.75,4.50,
036000249,2.00,2.25,2.63,,,,7.00,5.50,
036000250,1.50,3.00,2.63,,,4.40,,5.50,
036000251,2.25,3.00,2.63,,5.60,5.40,,,
036000252,2.00,3.00,2.63,,,,5.50,3.00,
036000253,1.75,2.75,2.63,,,,2.50,1.75,
036000254,2.75,3.50,2.63,,,,3.25,5.50,
036000255,2.50,3.00,2.63,,,,7.25,6.00,
036000256,1.25,3.25,2.63,,,,7.25,6.50,
036000257,3.50,3.00,2.63,,,,6.25,7.00,
036000258,2.50,1.25,2.63,,,5.40,,4.25,
036000259,3.00,4.75,2.63,,,,,,
036000260,3.00,3.50,2.63,,,,5.25,4.25,
036000261,2.50,2.00,2.63,,5.80,,,3.50,
036000262,4.00,3.25,2.63,,,5.40,,3.50,
036000263,2.75,2.75,2.63,,,,3.50,5.50,
036000264,2.75,3.50,2.63,,6.80,4.20,,,
036000265,5.50,2.00,2.63,6.40,,,,5.25,
036000266,3.50,3.00,2.63,,,,4.25,4.00,
036000267,4.00,3.00,2.63,,,,5.75,5.25,
036000268,1.50,2.25,2.63,,5.80,5.40,,,
036000269,2.75,2.00,2.63,,,5.00,,4.50,
036000270,2.00,3.50,2.63,,,,5.00,6.00,
036000271,5.25,4.00,2.63,,,,,6.50,
036000273,2.50,4.00,2.63,,,,6.75,6.25,
036000274,1.75,1.50,2.63,,,3.20,,3.50,
036000275,3.50,4.00,2.63,,,,7.50,6.75,
036000276,2.75,4.25,2.63,,,,5.50,4.50,
036000277,4.50,4.50,2.63,,,4.60,,6.50,
036000278,4.25,4.00,2.63,,5.20,6.00,,,
036000279,4.25,5.25,2.63,,,5.00,,6.25,
036000280,3.00,1.50,2.63,,,4.20,,7.00,
036000281,2.00,2.50,2.63,,,4.20,,6.50,
036000283,2.25,1.50,2.63,,,4.40,,4.50,
036000284,2.00,1.25,2.63,,,4.00,,4.25,
036000285,4.00,4.75,2.63,,,,5.25,5.50,
036000286,5.50,4.00,2.63,5.60,,,,,
036000287,3.25,4.50,2.63,,,,4.75,6.00,
036000288,3.00,2.25,2.63,5.20,5.60,,,,
036000289,3.50,4.50,2.63,,,,3.75,4.75,
036000290,2.50,2.50,2.63,,6.20,,,4.00,
036000291,2.50,2.50,2.63,,5.20,5.00,,,
036000292,3.00,4.50,2.63,,,,4.25,7.25,
036000293,3.75,4.00,2.63,,6.40,4.60,,,
036000294,2.25,1.25,2.63,4.60,,5.00,,,
036000295,2.00,1.75,2.63,,,3.60,,2.25,
036000296,2.50,3.50,2.63,,6.00,4.60,,,
036000297,2.00,3.00,2.63,,,3.80,,8.00,
036000298,2.75,1.50,2.63,,6.00,2.40,,,
036000299,1.75,1.50,2.63,,,2.60,,3.50,
036000300,3.00,4.00,2.63,,6.60,4.80,,,
036000301,1.25,2.00,2.63,,,4.20,,1.50,
036000302,3.00,6.00,2.63,,,,5.25,3.25,
036000303,4.00,2.75,2.63,,6.40,4.60,,,
036000304,3.50,2.00,2.63,,,,6.50,3.50,
036000305,4.00,3.25,2.63,7.00,,,,,
036000306,4.50,6.50,2.63,,,,,6.00,
036000307,3.50,2.50,2.63,,,3.80,,4.00,
036000308,2.50,4.50,2.63,,,4.60,,6.25,
036000309,4.25,4.00,2.63,,6.40,6.80,,,
036000310,4.00,4.00,2.63,,5.60,,,,
036000311,2.75,2.25,2.63,,,5.00,,5.00,
036000312,3.25,4.50,2.63,,,,6.50,4.75,
036000313,2.25,2.75,2.63,,,,3.25,6.00,
036000314,3.50,5.00,2.63,,,,7.25,5.75,
036000315,3.25,6.25,2.63,,,,4.50,6.00,
036000316,3.75,4.00,2.63,,,,5.50,5.75,
036000317,4.25,4.00,2.63,,,,,5.25,
036000318,2.50,4.50,2.63,,,,5.50,5.25,
036000319,4.25,3.00,2.63,,,,5.75,5.50,
036000320,2.50,2.25,2.63,,5.20,2.40,,,
036000321,4.25,4.75,2.63,,4.80,4.80,,,
036000322,3.00,2.25,2.63,,,4.80,,6.25,
036000323,2.50,2.50,2.63,,,4.60,,4.50,
036000324,3.50,3.25,2.63,,,,6.00,6.75,
036000325,3.00,1.50,2.63,,5.00,3.80,,,
036000326,3.75,3.25,2.63,,,4.20,,5.00,
036000327,4.00,5.50,2.63,,,,,6.25,
036000328,3.50,4.50,2.63,,,,4.50,5.00,
036000329,2.75,3.00,2.63,,,6.40,,4.75,
036000330,2.00,6.00,2.63,,,3.60,,5.00,
036000331,1.75,3.25,2.63,,,,6.25,4.75,
036000332,3.75,2.50,2.63,,,4.20,,7.00,
036000333,4.25,4.75,2.63,,4.00,3.40,,,
036000334,1.75,2.00,2.63,,,6.00,,3.25,
036000335,1.25,0.50,2.63,,2.60,,,2.00,
036000336,3.50,3.00,2.63,,,,6.25,4.50,
036000337,4.75,3.50,2.63,,5.40,6.40,,,
036000338,3.25,5.50,2.63,,,6.20,,6.50,
036000339,3.00,5.50,2.63,,,6.00,,5.25,
036000340,3.00,5.00,2.63,,,,7.25,4.25,
036000341,3.50,5.00,2.63,,5.80,5.40,,,
036000342,2.75,3.50,2.63,,,4.80,,6.25,
036000343,1.75,2.50,2.63,,,6.00,,5.00,
036000344,2.50,4.50,2.63,,5.80,5.60,,,
036000345,2.75,2.00,2.63,,,6.60,,5.00,
036000346,5.00,4.25,2.63,6.40,5.60,,,,
036000347,4.75,4.75,2.63,,,,5.50,7.25,
036000348,2.25,1.50,2.63,,,,4.50,3.25,
036000349,3.75,4.00,2.63,,4.00,,,5.50,
036000350,3.50,2.75,2.63,,,,4.75,4.50,
036000351,3.25,5.50,2.63,,,,4.75,7.50,
036000352,0.50,1.75,2.63,5.20,,3.20,,,
036000353,4.50,6.25,2.63,,,,7.50,7.25,
036000354,2.00,3.50,2.63,,,5.80,,2.75,
036000355,3.75,3.00,2.63,,4.00,,,4.25,
036000356,2.75,1.00,2.63,,,4.40,,3.75,
036000357,0.00,2.75,2.63,,,5.20,,6.50,
036000358,3.50,5.00,2.63,,,,4.75,6.25,
036000359,3.50,2.50,2.63,,,,5.00,5.25,
036000360,3.75,3.00,2.63,,,,5.00,6.25,
036000361,3.75,4.00,2.63,,5.60,,,,
036000362,1.75,4.50,2.63,,,,3.25,4.00,
036000363,3.75,3.00,2.63,,,5.80,,5.50,
036000364,3.75,1.50,2.63,,,3.00,,1.50,
036000365,1.75,3.25,2.63,,,6.00,,3.50,
036000366,2.50,1.25,2.63,,,2.20,,3.00,
036000367,2.75,2.00,2.63,,3.40,,,2.50,
036000368,1.25,2.00,2.63,,,,3.75,2.25,
036000369,2.75,3.00,2.63,,,,6.00,7.75,
036000370,2.25,2.25,2.63,,6.00,,,5.00,
036000371,3.75,4.75,2.63,,,,6.25,5.25,
036000372,1.50,6.00,2.63,,,,4.25,5.00,
036000373,4.00,4.00,2.63,,,6.20,,7.50,
036000374,3.00,4.25,2.63,,4.80,5.20,,,
036000375,4.00,5.25,2.63,,,,5.50,4.75,
036000376,5.50,4.50,2.63,7.20,,,,,
036000377,3.25,5.00,2.63,5.80,,,,,
036000378,4.00,3.25,2.63,,3.20,3.80,,,
036000379,3.00,4.00,2.63,,,,5.25,5.50,
036000380,2.75,3.75,2.63,,,,5.75,4.75,
036000381,2.25,3.50,2.63,,4.00,4.60,,,
036000382,3.00,4.25,2.63,,,5.20,,4.00,
036000383,4.25,3.75,2.63,5.80,,,,,
036000384,4.25,4.75,2.63,,,,6.00,6.75,
036000385,3.75,3.00,2.63,,4.60,4.20,,,
036000386,2.50,2.25,2.63,,,3.40,,5.25,
036000387,3.50,5.25,2.63,,,,6.00,6.25,
036000388,3.75,3.50,2.63,,,,4.75,4.00,
036000389,3.00,3.00,2.63,,5.40,5.00,,,
036000390,4.50,4.50,2.63,,,,,6.75,
036000391,2.50,3.50,2.63,,,,4.25,3.75,
036000392,2.75,3.00,2.63,,,,4.75,5.50,
036000393,2.75,5.75,2.63,,,,6.50,5.50,
036000394,2.00,5.00,2.63,,,5.80,,5.75,
036000395,2.50,2.00,2.63,,,4.80,,5.25,
036000396,3.75,3.00,2.63,,6.40,4.60,,,
036000397,2.75,1.25,2.63,6.00,,3.00,,,
036000398,4.25,4.25,2.63,,,,6.00,4.25,
036000399,4.25,3.75,2.63,,,5.80,,6.75,
036000400,4.25,6.00,2.63,,,,,7.25,
036000401,6.00,4.00,2.63,,,,,6.25,
036000403,4.25,4.00,2.63,,4.40,5.40,,,
036000404,2.75,1.50,2.63,5.40,,4.40,,,
036000405,3.50,2.00,2.63,,4.60,3.80,,,
036000406,4.00,3.00,2.63,,,,4.75,4.25,
036000407,3.00,2.75,2.63,,,4.00,,4.25,
036000408,3.00,2.25,2.63,,,,3.50,4.75,
036000409,2.50,2.75,2.63,,,,4.00,4.75,
036000410,4.00,2.75,2.63,,,6.20,,5.25,
036000411,2.50,2.75,2.63,,,7.00,,3.25,
036000412,3.00,5.50,2.63,,,,5.75,5.75,
036000414,4.25,4.50,2.63,,,,4.00,6.00,
036000415,5.25,4.00,2.63,5.00,5.60,,,,
036000416,5.75,4.75,2.63,,,,,5.75,
036000417,5.00,6.50,2.63,,,,,7.75,
036000418,2.50,3.00,2.63,,,6.20,,4.75,
036000419,3.00,5.25,2.63,,,,5.75,5.50,
036000420,1.25,4.75,2.63,,,5.60,,5.00,
036000421,2.50,1.25,2.63,,3.20,6.80,,,
036000422,3.75,5.00,2.63,,6.80,,,,
036000423,3.00,4.50,2.63,,,4.80,,,
036000424,3.75,6.50,2.63,,,,7.00,6.50,
036000425,2.50,3.75,2.63,,,,6.00,5.00,
036000426,5.00,3.75,2.63,,,6.80,,5.00,
036000427,2.75,4.00,2.63,,,6.60,,4.50,
036000428,3.75,6.00,2.63,,,,6.00,5.00,
036000430,3.50,3.00,2.63,,,,7.50,5.00,
036000431,3.50,2.50,2.63,,6.00,,,2.00,
036000432,4.50,4.25,2.63,,3.60,6.60,,,
036000433,5.25,4.50,2.63,6.40,,6.40,,,
036000434,2.50,3.00,2.63,,,,6.00,4.50,
036000435,4.75,4.00,2.63,,4.80,7.20,,,
036000436,4.00,4.50,2.63,,,,5.25,6.25,
036000437,3.75,4.25,2.63,,,,,6.25,
036000438,5.50,,2.63,6.20,,6.40,,,
036000439,3.25,3.00,2.63,6.80,5.40,,,,
036000440,5.50,4.50,2.63,,,,,5.75,
036000441,3.25,3.25,2.63,,,5.80,,4.50,
036000442,6.00,3.25,2.63,,,,,6.25,
036000443,3.75,2.00,2.63,4.80,,5.80,,,
036000444,4.50,3.50,2.63,,,5.40,,7.50,
036000445,4.50,3.50,2.63,,,,8.00,5.25,
036000446,5.00,3.00,2.63,,4.80,6.40,,,
036000447,2.75,4.50,2.63,,,5.80,,5.50,
036000448,2.50,4.00,2.63,,,,6.75,4.25,
036000449,2.50,3.50,2.63,,,6.20,,5.50,
036000450,3.50,3.00,2.63,5.40,,4.80,,,
036000451,5.50,5.00,2.63,,,,,6.00,
036000452,4.50,4.50,2.63,,7.00,,,,
036000453,5.25,4.00,2.63,,4.40,6.60,,,
036000454,2.25,5.25,2.63,,,,7.50,5.50,
036000455,3.50,2.00,2.63,4.80,,3.60,,,
036000456,3.25,2.25,2.63,,,4.20,,3.00,
036000457,3.00,4.50,2.63,,,,5.50,4.75,
036000458,3.75,5.00,2.63,,,,3.25,4.00,
036000459,2.50,2.50,2.63,,,,4.00,4.75,
036000460,3.00,1.25,2.63,,,6.20,,1.75,
036000461,3.75,3.00,2.63,,,,3.00,5.50,
036000462,2.50,2.75,2.63,,7.60,5.80,,,
036000463,3.50,2.50,2.63,,,5.80,,7.00,
036000464,3.00,5.50,2.63,,,,6.00,3.50,
036000465,3.00,4.50,2.63,,,,5.25,7.00,
036000466,4.75,2.25,2.63,,4.00,7.00,,,
036000467,2.75,5.75,2.63,,4.40,5.40,,,
036000468,1.75,4.50,2.63,,7.20,,,,
036000469,4.50,4.50,2.63,,6.60,5.20,,,
036000471,2.50,3.25,2.63,,,,4.25,4.75,
036000472,4.25,2.25,2.63,,,4.80,,6.00,
036000473,3.25,4.75,2.63,,,5.20,,5.25,
036000474,3.00,2.50,2.63,,,,4.25,5.25,
036000475,4.25,2.25,2.63,,,5.60,,6.00,
036000476,4.75,5.00,2.63,,,,4.00,4.00,
036000477,3.25,2.75,2.63,,,6.20,,,
036000478,4.75,5.50,2.63,,3.20,7.00,,,
036000479,4.00,4.00,2.63,,,6.20,,4.00,
036000480,3.00,2.50,2.63,,,4.20,,5.50,
036000481,3.50,2.25,2.63,,,5.40,,6.25,
036000482,2.25,4.50,2.63,,,3.40,,5.25,
036000483,4.75,3.75,2.63,,4.40,6.80,,,
036000484,3.25,0.75,2.63,,,,5.50,4.00,
036000485,3.75,2.00,2.63,,,4.60,,3.25,
036000486,5.25,3.00,2.63,,3.60,,,5.50,
036000487,3.00,2.00,2.63,6.00,4.40,,,,
036000488,3.50,3.50,2.63,,7.20,,,,
036000489,2.50,2.75,2.63,,,4.60,,3.50,
036000490,3.75,4.00,2.63,,6.40,,,,
036000491,3.00,3.00,2.63,,,5.20,,5.00,
036000492,3.50,4.25,2.63,,,,4.25,4.00,
036000493,5.50,3.25,2.63,7.20,5.80,,,,
036000494,3.75,3.50,2.63,,6.80,,,,
036000495,3.50,3.00,2.63,,5.80,5.20,,,
036000496,4.25,5.50,2.63,,,,,5.75,
036000497,4.50,2.25,2.63,,4.20,,,4.25,
036000498,5.50,3.25,2.63,,5.80,,,,
036000499,1.75,3.25,2.63,,,4.60,,5.00,
036000500,3.00,5.00,2.63,,,,5.50,4.25,
036000501,3.75,3.25,2.63,,5.60,,,,
036000502,3.25,2.75,2.63,,,5.20,,4.50,
036000503,4.75,4.50,2.63,,5.20,6.00,,,
036000504,4.00,5.25,2.63,,5.00,5.20,,,
036000505,4.25,2.25,2.63,,,6.80,,5.50,
036000506,5.00,4.00,2.63,4.60,,,,,
036000507,4.00,4.00,2.63,,,,4.25,5.00,
036000508,2.50,1.75,2.63,,6.00,6.20,,,
036000509,4.75,4.50,2.63,,3.60,4.80,,,
036000510,4.00,5.50,2.63,,,5.00,,4.75,
036000511,3.50,3.00,2.63,,5.00,4.80,,,
036000512,3.25,3.00,2.63,,4.40,5.60,,,
036000513,3.25,3.50,2.63,,6.40,,,,
036000514,1.25,2.25,2.63,,,5.80,,3.50,
036000515,3.00,4.25,2.63,5.80,5.00,,,,
036000516,2.00,3.50,2.63,,,,7.00,4.75,
036000517,0.00,2.75,2.63,6.60,,,,4.25,
036000518,2.25,6.25,2.63,,,,4.00,7.00,
036000519,3.00,4.25,2.63,,4.20,,,6.25,
036000520,6.00,5.00,2.63,,,,,5.75,
036000521,1.25,3.25,2.63,2.20,,5.00,,,
036000522,1.25,2.25,2.63,,3.80,6.40,,,
036000523,1.25,4.50,2.63,4.00,,5.20,,,
036000524,2.50,5.75,2.63,,,,6.25,6.25,
036000525,1.50,4.75,2.63,,,,5.00,3.75,
036000526,2.50,3.00,2.63,,,7.00,,6.75,
036000527,4.25,5.00,2.63,,,,,6.50,
036000528,3.00,5.25,2.63,,4.80,,,5.50,
036000529,2.75,5.50,2.63,,,,5.50,4.00,
036000530,1.75,4.00,2.63,,,4.20,,4.00,
036000531,2.75,4.25,2.63,,3.80,6.60,,,
036000532,2.00,3.00,2.63,,,,5.00,4.25,
036000533,2.00,1.50,2.63,,,5.80,,6.25,
036000534,4.00,4.50,2.63,,,5.80,,7.25,
036000535,3.75,5.25,2.63,,4.40,6.60,,,
036000536,2.75,5.50,2.63,,,,5.00,5.00,
036000537,1.25,2.75,2.63,,,6.60,,2.50,
036000538,2.25,5.00,2.63,,5.20,6.00,,,
036000539,4.25,5.00,2.63,,,,6.25,7.50,
036000540,3.25,2.50,2.63,,2.60,4.80,,,
036000541,2.25,5.50,2.63,,,5.40,,6.25,
036000542,2.00,2.50,2.63,,,4.20,,4.75,
036000543,2.00,3.00,2.63,,,3.80,,4.75,
036000544,3.25,3.50,2.63,,,,,5.75,
036000545,2.00,5.50,2.63,,,6.60,,6.00,
036000546,1.50,2.75,2.63,,,4.60,,4.00,
036000547,3.75,2.75,2.63,,,3.00,,4.25,
036000548,4.00,4.50,2.63,,6.80,3.60,,,
036000549,2.75,3.75,2.63,,4.00,4.40,,,
036000550,2.00,2.25,2.63,,,,4.50,2.00,
036000551,2.00,3.25,2.63,,,,5.25,5.50,
036000552,2.00,5.00,2.63,,,3.60,,5.25,
036000553,2.75,5.00,2.63,,,4.60,,5.25,
036000554,2.50,2.50,2.63,,,,6.25,3.75,
036000555,2.50,3.00,2.63,,2.00,4.60,,,
036000556,2.75,3.50,2.63,,,,5.25,6.75,
036000557,2.75,3.00,2.63,,5.80,,,4.25,
036000558,2.75,4.50,2.63,,,,5.25,5.75,
036000559,4.00,2.50,2.63,,6.60,6.40,,,
036000560,4.50,3.50,2.63,6.00,,,,,
036000561,1.75,2.50,2.63,,,,4.75,5.00,
036000562,4.00,5.00,2.63,,,6.20,,6.50,
036000563,3.00,4.50,2.63,,3.60,4.00,,,
036000564,3.00,4.50,2.63,,,,5.50,6.75,
036000565,2.75,4.50,2.63,,,4.40,,4.75,
036000566,4.50,4.75,2.63,,,5.40,,6.25,
036000567,3.00,5.00,2.63,,4.60,,,4.00,
036000568,5.50,4.50,2.63,,,6.60,,6.25,
036000569,3.50,2.50,2.63,,,6.60,,6.00,
036000570,1.25,2.25,2.63,,,4.00,,2.50,
036000571,4.50,3.75,2.63,,3.80,5.00,,,
036000572,2.75,3.00,2.63,,3.20,4.80,,,
036000573,2.00,3.50,2.63,,,,4.50,5.50,
036000574,2.00,3.25,2.63,,4.80,,,4.25,
036000575,4.75,2.75,2.63,,,,5.50,3.25,
036000576,3.25,3.00,2.63,,,,5.00,3.75,
036000577,4.00,5.75,2.63,,,,6.25,6.00,
036000578,0.75,1.25,2.63,,,4.60,,2.00,
036000579,2.50,2.50,2.63,,5.20,4.80,,,
036000580,2.50,1.75,2.63,,3.20,5.20,,,
036000581,2.00,3.00,2.63,,,4.40,,3.25,
036000582,2.50,4.50,2.63,,,6.00,,6.50,
036000583,2.75,3.00,2.63,,3.00,,,5.00,
036000584,2.50,4.50,2.63,,,,6.25,5.25,
036000585,1.50,2.75,2.63,,,4.80,,4.00,
036000586,2.50,2.75,2.63,,,6.20,,5.25,
036000587,3.50,2.50,2.63,,,6.00,,6.25,
036000588,2.25,2.25,2.63,,,,7.25,6.50,
036000589,2.50,2.00,2.63,,,,3.50,4.50,
036000590,2.50,5.50,2.63,,,,6.75,5.00,
036000591,0.25,4.00,2.63,,,5.80,,2.75,
036000592,1.25,3.25,2.63,,,,4.00,4.25,
036000593,3.50,5.25,2.63,,,,4.50,4.75,
036000594,2.00,3.00,2.63,,,,3.50,4.50,
036000595,3.00,3.00,2.63,,,,4.25,3.00,
036000596,4.00,6.00,2.63,,,,6.00,5.75,
036000597,1.25,2.00,2.63,,,4.40,,6.00,
036000598,3.00,3.50,2.63,,,,7.00,5.00,
036000599,3.00,5.50,2.63,,,,5.00,5.25,
036000600,2.25,4.00,2.63,,,2.80,,5.50,
036000601,1.50,2.25,2.63,,4.80,,,5.00,
036000602,3.25,4.50,2.63,,3.20,4.40,,,
036000603,2.25,2.00,2.63,,4.60,4.60,,,
036000604,2.00,2.25,2.63,,,,6.50,6.00,
036000605,2.25,3.25,2.63,,,,7.25,6.25,
036000606,2.50,2.00,2.63,,2.40,5.00,,,
036000607,4.00,4.75,2.63,,4.20,6.80,,,
036000608,3.00,3.50,2.63,,5.60,,,,
036000609,3.00,3.00,2.63,,,4.60,,4.00,
036000610,4.00,3.50,2.63,,5.20,4.40,,,
036000611,2.00,4.00,2.63,,4.80,4.20,,,
036000612,3.75,3.75,2.63,5.60,4.40,,,,
036000613,3.75,3.00,2.63,,,6.80,,6.00,
036000614,4.00,4.25,2.63,,,,6.50,5.50,
036000615,2.25,5.50,2.63,,4.80,4.20,,,
036000616,3.75,2.50,2.63,,,6.40,,5.00,
036000617,1.75,3.00,2.63,,,4.80,,5.00,
036000618,3.00,3.00,2.63,,,,3.75,5.25,
036000619,2.50,2.25,2.63,,,,4.50,5.25,
036000620,2.25,5.00,2.63,,,3.80,,5.25,
036000621,2.50,1.50,2.63,,6.20,6.00,,,
036000622,3.00,5.50,2.63,,4.00,,,6.00,
036000623,3.25,4.00,2.63,,,,5.00,6.50,
036000624,3.25,3.00,2.63,,3.60,,,5.50,
036000625,2.50,4.00,2.63,,4.00,4.80,,,
036000626,1.25,5.25,2.63,,,,5.75,6.00,
036000627,3.00,3.25,2.63,,,7.00,,5.75,
036000628,3.75,4.00,2.63,,,5.80,,6.25,
036000629,2.25,4.75,2.63,,,,5.00,6.75,
036000630,3.50,5.50,2.63,,,,4.00,5.25,
036000631,1.25,2.00,2.63,3.20,,3.80,,,
036000632,4.00,3.75,2.63,,,5.60,,6.50,
036000633,3.00,5.50,2.63,,,,6.25,5.50,
036000634,4.50,2.75,2.63,3.40,,3.80,,,
036000635,2.00,3.00,2.63,,,,5.00,4.50,
036000636,1.50,3.50,2.63,,,,6.75,6.00,
036000637,2.50,7.00,2.63,,,,5.00,7.00,
036000638,1.75,3.50,2.63,,,,6.25,4.50,
036000639,4.25,3.75,2.63,,,,,5.50,
036000640,4.75,2.75,2.63,,,,7.25,4.75,
036000641,5.25,0.75,2.63,3.40,,4.40,,,
036000642,3.00,2.50,2.63,,4.00,4.00,,,
036000643,4.25,3.50,2.63,6.20,,,,,
036000644,3.75,3.50,2.63,,,,4.00,5.00,
036000645,3.75,4.00,2.63,,,,5.75,6.25,
036000646,4.00,1.25,2.63,4.80,,5.20,,,
036000647,3.00,3.50,2.63,,,,6.50,5.00,
036000648,5.25,3.50,2.63,,5.60,4.80,,,
036000649,4.50,3.25,2.63,,6.00,,,4.25,
036000650,3.25,1.50,2.63,4.60,,3.80,,,
036000651,4.75,2.00,2.63,4.20,,4.00,,,
036000652,2.00,2.25,2.63,,,,6.75,3.50,
036000653,3.25,2.00,2.63,,3.00,4.20,,,
036000654,4.25,3.75,2.63,,,,1.75,5.75,
036000655,4.50,5.00,2.63,,,,,7.50,
036000656,4.00,5.25,2.63,,5.40,5.40,,,
036000657,4.25,5.00,2.63,,4.00,,,5.75,
036000658,5.50,4.75,2.63,,,,5.75,6.50,
036000659,2.50,4.75,2.63,,,,7.25,8.00,
036000660,2.25,3.25,2.63,,3.80,,,6.00,
036000661,3.75,4.75,2.63,,,,5.00,4.75,
036000662,5.00,4.50,2.63,,7.20,6.00,,,
036000663,1.75,5.50,2.63,,,3.00,,4.25,
036000664,2.00,3.00,2.63,,,4.00,,4.50,
036000665,3.75,6.75,2.63,,,,5.00,6.00,
036000666,3.00,4.00,2.63,,,,3.75,5.75,
036000667,3.50,4.00,2.63,,,,5.00,5.75,
036000668,2.25,2.75,2.63,,3.80,3.40,,,
036000669,2.75,2.50,2.63,,,4.40,,5.75,
036000670,4.00,1.50,2.63,,,,5.75,4.75,
036000671,1.75,2.50,2.63,,,,5.75,3.75,
036000672,3.75,2.75,2.63,,2.60,,,5.75,
036000673,5.50,1.25,2.63,,5.80,,,4.00,
036000674,4.00,3.25,2.63,,4.00,,,5.00,
036000675,3.50,3.00,2.63,,,,3.75,5.25,
036000676,2.25,2.00,2.63,,,5.00,,5.25,
036000677,2.75,0.75,2.63,,,3.20,,5.00,
036000678,1.75,4.50,2.63,,,,6.50,6.50,
036000679,3.75,4.25,2.63,,,,1.25,4.00,
036000680,2.00,4.00,2.63,,,,6.00,4.00,
036000681,2.75,2.00,2.63,,,5.00,,6.00,
036000682,5.50,5.25,2.63,,,,,6.50,
036000683,3.25,2.00,2.63,,,4.00,,6.00,
036000684,3.75,3.00,2.63,5.60,,,,,
036000685,5.00,5.75,2.63,,,,,7.00,
036000686,3.25,3.50,2.63,3.60,6.00,,,,
036000687,1.75,4.50,2.63,,,,,5.75,
036000688,7.00,6.75,2.63,,,7.20,,,
036000689,5.75,2.75,2.63,,,4.20,,5.00,
036000690,2.50,4.00,2.63,,,,7.00,9.00,
036000691,5.00,2.00,2.63,6.80,,,,,
036000692,3.50,3.75,2.63,,,4.80,,6.00,
036000693,6.00,4.25,2.63,,,,,6.50,
036000694,5.00,4.00,2.63,,,,6.00,6.00,
036000695,5.25,2.75,2.63,,,4.80,,4.50,
036000696,4.00,2.50,2.63,,,,3.50,5.00,
036000697,3.00,6.75,2.63,,,,6.00,7.00,
036000698,3.50,3.75,2.63,,,,5.25,5.75,
036000699,2.25,1.25,2.63,3.40,,3.80,,,
036000700,4.25,3.00,2.63,,,,7.75,4.25,
036000701,1.75,3.00,2.63,,,5.60,,3.50,
036000702,4.00,4.00,2.63,,,,4.50,5.75,
036000703,1.75,4.25,2.63,,,,4.25,4.50,
036000704,4.00,4.00,2.63,,,,5.50,7.25,
036000705,4.75,5.00,2.63,,,,,6.50,
036000706,3.00,5.50,2.63,,,6.80,,7.75,
036000707,4.25,4.75,2.63,,,,6.50,5.75,
036000708,3.75,4.50,2.63,,,4.60,,5.25,
036000709,4.00,2.50,2.63,,5.00,6.60,,,
036000710,1.50,5.00,2.63,,,,5.75,6.25,
036000711,1.25,1.25,2.63,2.80,,3.40,,,
036000712,2.00,3.00,2.63,,,,3.25,7.00,
036000713,4.00,2.50,2.63,,6.00,4.40,,,
036000714,0.50,3.00,2.63,,,,5.50,3.50,
036000715,4.00,3.00,2.63,,,4.80,,5.75,
036000716,5.50,6.00,2.63,,,,,7.00,
036000717,3.00,3.00,2.63,,6.80,,,,
036000718,4.75,3.50,2.63,6.00,,,,,
036000719,2.25,3.00,2.63,,,5.00,,6.00,
036000720,3.75,1.75,2.63,,,,3.00,4.50,
036000721,3.75,3.00,2.63,,6.00,5.00,,,
036000722,2.50,3.75,2.63,,,,5.00,4.00,
036000723,4.75,5.50,2.63,,,,5.25,6.00,
036000724,5.25,5.00,2.63,,,,3.00,7.00,
036000725,2.00,5.00,2.63,,,,3.00,4.00,
036000726,4.25,3.75,2.63,5.00,5.60,,,,
036000727,3.75,4.00,2.63,,,,,6.50,
036000728,5.00,1.50,2.63,6.20,,,,,
036000729,5.75,4.75,2.63,,,,,6.50,
036000730,2.50,7.00,2.63,,,,7.75,6.25,
036000731,2.00,2.50,2.63,,,,3.50,6.75,
036000732,4.25,3.75,2.63,,,,4.25,6.75,
036000733,2.50,3.00,2.63,,,5.40,,6.50,
036000734,2.50,3.50,2.63,,,,7.00,5.50,
036000735,4.00,3.00,2.63,,,4.40,,4.50,
036000736,1.75,2.75,2.63,,,6.60,,4.25,
036000737,3.75,3.50,2.63,4.20,5.00,,,,
036000738,2.50,2.50,2.63,,3.60,,,4.25,
036000739,2.50,4.00,2.63,,,,4.25,5.50,
036000740,2.25,4.00,2.63,,,4.60,,5.50,
036000741,3.00,3.00,2.63,,,,5.25,5.25,
036000742,2.25,2.00,2.63,,4.00,,,7.25,
036000743,4.50,4.50,2.63,5.00,,,,3.75,
036000744,3.50,3.50,2.63,,4.60,6.20,,,
036000745,6.00,7.00,2.63,,,,,7.75,
036000746,6.00,4.00,2.63,,,,,6.75,
036000747,4.50,5.00,2.63,,5.60,4.80,,,
036000748,4.25,4.25,2.63,,,,,6.50,
036000749,3.00,3.50,2.63,,,,3.75,6.75,
036000750,2.00,3.50,2.63,,,,4.00,6.25,
036000751,4.00,4.50,2.63,,4.20,4.00,,,
036000752,3.50,4.50,2.63,,,,5.75,6.25,
036000753,5.00,3.50,2.63,6.20,,5.60,,,
036000754,1.75,4.75,2.63,,,3.80,,6.75,
036000755,2.75,3.50,2.63,,,,4.00,6.50,
036000756,3.75,3.00,2.63,,,6.40,,5.50,
036000757,2.75,3.50,2.63,,,,6.00,4.75,
036000758,2.75,2.00,2.63,,7.40,6.20,,,
036000759,3.00,4.00,2.63,,6.80,5.40,,,
036000760,1.25,1.50,2.63,2.00,,3.60,,,
036000761,5.50,2.00,2.63,4.00,,,,,
036000762,6.00,4.50,2.63,,,,,7.00,
036000763,4.75,4.00,2.63,6.40,4.40,,,,
036000764,2.50,3.50,2.63,,,,5.50,5.50,
036000765,6.00,3.00,2.63,,,5.20,,6.50,
036000766,4.50,3.00,2.63,6.80,,,,,
036000767,2.50,4.75,2.63,,4.20,4.20,,,
036000768,3.00,2.75,2.63,,,,3.00,5.00,
036000769,4.50,3.00,2.63,6.80,,7.20,,,
036000770,2.25,2.50,2.63,3.80,,4.40,,,
036000771,4.75,4.50,2.63,,4.40,7.00,,,
036000772,1.75,2.25,2.63,,3.60,3.60,,,
036000773,1.50,1.50,2.63,,,4.60,,5.25,
036000774,2.50,3.75,2.63,,,,3.75,5.75,
036000775,2.25,3.00,2.63,,,3.40,,4.50,
036000776,4.50,5.00,2.63,,,,5.00,8.00,
036000777,1.75,3.25,2.63,,,5.20,,4.75,
036000778,2.75,5.75,2.63,,5.40,,,6.75,
036000779,2.25,4.00,2.63,,,,6.75,5.75,
036000780,3.00,3.75,2.63,,3.80,,,5.25,
036000782,3.25,4.75,2.63,,6.20,5.00,,,
036000783,2.50,2.75,2.63,,,,5.75,4.75,
036000784,2.75,4.25,2.63,,,,3.75,5.25,
036000785,3.25,3.75,2.63,,,3.80,,3.25,
036000786,4.50,3.25,2.63,,,,,6.75,
036000787,2.25,2.50,2.63,,,4.40,,5.25,
036000788,4.25,4.00,2.63,,,,,7.75,
036000789,2.00,3.00,2.63,,,,5.25,6.25,
036000790,4.25,2.50,2.63,,,,3.50,4.75,
036000791,4.25,1.00,2.63,,,,4.75,4.00,
036000792,2.50,1.75,2.63,,,,3.00,2.50,
036000793,3.25,5.75,2.63,,,,6.00,6.25,
036000794,2.50,4.25,2.63,,5.40,4.00,,,
036000795,2.75,4.50,2.63,,,4.40,,3.50,
036000796,0.50,2.75,2.63,,,5.00,,4.00,
036000797,2.25,2.75,2.63,,,,7.25,4.75,
036000798,3.25,3.00,2.63,,5.00,,,4.00,
036000799,4.00,3.50,2.63,,,4.40,,6.25,
036000800,3.25,3.25,2.63,,3.60,4.40,,,
036000801,4.50,2.75,2.63,4.40,,,,3.50,
036000802,4.25,4.75,2.63,,,,,6.75,
036000803,2.75,4.25,2.63,,5.20,,,5.00,
036000804,2.00,4.25,2.63,,,,5.50,4.25,
036000805,5.50,5.25,2.63,,,,,7.00,
036000806,4.25,4.00,2.63,,,,5.25,4.50,
036000807,4.50,4.00,2.63,,,4.60,,5.75,
036000808,1.25,3.00,2.63,,,4.20,,4.25,
036000809,1.25,2.75,2.63,,,5.00,,4.50,
036000810,1.50,1.50,2.63,,,4.40,,4.75,
036000811,2.00,3.50,2.63,,,,5.50,4.75,
036000812,1.50,4.00,2.63,,,,5.25,6.25,
036000813,2.25,1.50,2.63,7.80,5.00,,,,
036000814,2.50,4.50,2.63,,,3.60,,5.00,
036000815,4.50,2.00,2.63,,6.20,6.20,,,
036000816,4.00,2.75,2.63,6.00,4.80,,,,
036000817,2.00,4.00,2.63,,5.60,,,5.25,
036000818,4.50,3.00,2.63,,,,5.00,5.00,
036000819,5.25,4.50,2.63,,,5.20,,6.75,
036000820,4.25,5.50,2.63,,,,4.25,6.75,
036000821,2.00,1.50,2.63,,3.80,3.20,,,
036000822,4.75,3.50,2.63,,4.40,6.80,,,
036000823,2.25,2.25,2.63,3.60,,4.00,,,
036000824,2.75,2.00,2.63,,,,6.50,5.50,
036000825,4.50,4.00,2.63,,,7.20,,5.50,
036000826,0.00,3.00,2.63,,,4.20,,2.50,
036000827,5.25,3.25,2.63,,,,3.00,6.00,
036000828,4.00,2.50,2.63,,,,4.50,5.00,
036000829,3.25,5.00,2.63,,,5.80,,7.50,
036000830,2.00,4.25,2.63,,,,3.75,4.75,
036000831,3.25,2.75,2.63,,4.80,4.20,,,
036000832,4.75,5.50,2.63,,,,4.75,4.25,
036000833,2.00,6.50,2.63,,,,5.75,7.50,
036000834,2.75,3.25,2.63,,4.60,,,5.25,
036000835,1.75,3.00,2.63,6.40,,,,6.25,
036000836,3.75,5.50,2.63,,,,6.25,7.25,
036000837,0.75,2.25,2.63,2.80,,1.80,,,
036000838,2.25,2.25,2.63,,,,4.50,4.25,
036000839,1.25,4.25,2.63,,,,4.25,4.50,
036000840,2.00,3.00,2.63,,,2.60,,4.25,
036000841,5.25,5.50,2.63,,,,,6.50,
036000842,4.50,5.75,2.63,,,,,7.25,
036000843,3.00,2.75,2.63,,4.00,,,4.50,
036000844,6.00,5.50,2.63,,,,,6.75,
036000845,3.00,4.25,2.63,,3.20,5.20,,,
036000846,2.75,3.50,2.63,,,,6.00,6.75,
036000847,5.00,3.00,2.63,,,,7.00,5.50,
036000848,4.00,4.50,2.63,,,,,6.50,
036000849,2.25,3.00,2.63,,5.60,4.60,,,
036000850,2.00,5.75,2.63,,,,5.00,5.00,
036000851,3.50,3.50,2.63,,5.60,4.80,,,
036000852,3.50,5.00,2.63,,7.00,,,,
036000853,3.50,4.00,2.63,,,,5.00,7.00,
036000854,3.75,3.50,2.63,,,,,5.00,
036000855,4.75,4.50,2.63,,,5.20,,4.50,
036000856,1.25,3.50,2.63,,,5.40,,3.75,
036000857,2.25,2.25,2.63,,,2.80,,3.50,
036000858,5.00,5.75,2.63,,,,3.50,6.25,
036000859,5.00,3.75,2.63,,,,2.75,5.00,
036000860,3.00,2.25,2.63,,,3.80,,4.50,
036000861,3.00,1.50,2.63,,,,6.00,4.75,
036000862,2.50,5.50,2.63,,,,6.00,6.75,
036000863,4.00,4.00,2.63,,,6.80,,7.50,
036000864,2.75,6.00,2.63,,,,6.50,6.50,
036000865,2.25,5.50,2.63,,,,6.00,6.50,
036000866,4.00,4.00,2.63,,,,,6.50,
036000867,2.50,3.50,2.63,,3.80,,,6.75,
036000868,1.75,3.00,2.63,,,,4.25,5.00,
036000869,3.00,5.50,2.63,,,,5.75,5.00,
036000870,3.25,6.50,2.63,,3.60,3.20,,,
036000871,4.75,2.50,2.63,,,,3.50,3.75,
036000872,4.75,5.00,2.63,,,,4.25,6.25,
036000873,3.00,5.00,2.63,,,,3.50,7.00,
036000874,2.50,1.75,2.63,4.60,,4.00,,,
036000875,2.75,4.50,2.63,,5.40,,,7.00,
036000876,2.50,2.00,2.63,3.80,,4.60,,,
036000877,4.00,1.75,2.63,,,,5.50,3.75,
036000878,6.00,3.50,2.63,,5.80,,,,
036000879,3.75,3.00,2.63,,7.20,,,,
036000880,1.75,2.50,2.63,,,4.40,,3.75,
036000881,3.50,3.50,2.63,6.40,,,,,
036000882,5.25,2.50,2.63,,,,,6.25,
036000883,1.75,3.00,2.63,,,2.80,,,
036000884,4.00,5.00,2.63,,5.00,6.00,,,
036000885,3.00,4.50,2.63,,,,4.75,7.00,
036000886,3.25,5.00,2.63,,,,3.75,6.75,
036000887,1.50,,2.63,,,,,,
036000888,1.50,3.75,2.63,,4.80,,,4.25,
036000889,2.50,4.25,2.63,,,2.40,,4.00,
036000890,2.50,3.00,2.63,,,,3.75,2.75,
036000891,3.75,3.75,2.63,,,,6.25,5.00,
036000892,1.50,3.50,2.63,,,4.00,,3.25,
036000893,2.50,3.50,2.63,,,,5.00,5.50,
036000894,3.00,3.00,2.63,,,5.00,,7.00,
036000895,1.75,4.00,2.63,,,2.80,,3.25,
036000896,2.50,4.00,2.63,,,,5.50,6.50,
036000897,2.50,4.75,2.63,,,,5.50,3.75,
036000898,2.25,3.75,2.63,,,4.60,,4.50,
036000899,2.75,4.00,2.63,,,5.00,,5.75,
036000900,2.50,4.50,2.63,,5.40,4.00,,,
036000901,2.00,4.25,2.63,,,2.80,,6.50,
036000902,2.00,2.00,2.63,,,,3.50,6.50,
036000903,1.50,2.50,2.63,,,,6.75,6.75,
036000904,4.00,3.50,2.63,,,5.60,,6.00,
036000905,2.25,2.25,2.63,,,,5.25,3.25,
036000906,3.50,4.00,2.63,,,,5.25,6.75,
036000907,3.00,4.75,2.63,,,6.40,,6.50,
036000908,3.25,2.00,2.63,,5.40,5.00,,,
036000909,3.00,3.25,2.63,,6.60,,,,
036000910,2.00,3.00,2.63,,5.20,,,5.00,
036000911,2.75,4.00,2.63,,,,5.00,6.75,
036000912,1.75,4.00,2.63,,,,4.50,4.00,
036000913,3.00,3.50,2.63,,,,6.25,6.50,
036000914,3.75,4.25,2.63,,,,6.50,5.00,
036000915,1.75,4.75,2.63,,,,4.25,6.25,
036000916,4.25,4.25,2.63,,5.40,6.60,,,
036000917,3.25,4.25,2.63,,,,,6.50,
036000918,5.75,6.00,2.63,,,,,5.25,
036000919,3.00,3.50,2.63,,4.60,5.00,,,
036000920,5.00,4.75,2.63,,6.00,,,,
036000921,3.75,5.00,2.63,,6.60,,,,
036000922,4.00,1.75,2.63,,6.60,5.00,,,
036000923,0.50,3.00,2.63,,,4.60,,5.25,
036000924,1.25,2.50,2.63,,,,4.75,6.00,
036000925,2.75,4.00,2.63,,,4.00,,6.75,
036000926,2.75,4.25,2.63,,,,7.75,6.25,
036000927,2.25,3.25,2.63,,,,6.00,5.00,
036000928,2.50,3.75,2.63,,,4.60,,6.25,
036000929,2.25,3.25,2.63,,,3.40,,6.25,
036000930,1.50,4.00,2.63,,2.20,3.20,,,
036000931,2.00,1.50,2.63,3.60,,3.40,,,
036000933,5.25,2.50,2.63,5.60,,,,,
036000934,1.25,2.00,2.63,,,4.00,,5.25,
036000935,1.75,3.50,2.63,,,4.40,,4.50,
036000936,3.25,5.00,2.63,,,,5.50,7.25,
036000937,0.25,3.25,2.63,,,,4.25,5.00,
036000938,4.00,5.50,2.63,,,,,6.00,
036000939,3.00,3.25,2.63,,,3.60,,6.25,
036000940,2.50,3.75,2.63,,,,6.00,7.25,
036000941,2.00,1.75,2.63,,,5.60,,4.75,
036000942,2.75,5.00,2.63,,,4.40,,5.50,
036000943,2.50,4.75,2.63,,4.00,5.20,,,
036000944,3.50,5.75,2.63,,5.00,5.20,,,
036000945,2.00,4.75,2.63,,,,4.00,6.50,
036000946,2.50,4.00,2.63,,,,2.50,4.00,
036000947,2.00,3.00,2.63,,,4.80,,4.00,
036000948,2.75,4.50,2.63,,,,7.50,8.00,
036000949,2.25,2.25,2.63,,,5.80,,4.00,
036000950,6.00,3.50,2.63,7.60,,,,,
036000951,3.25,2.75,2.63,,6.80,6.20,,,
036000952,0.00,1.50,2.63,,4.00,3.20,,,
036000953,1.75,3.00,2.63,,,,4.75,3.75,
036000954,2.25,2.50,2.63,,,,5.00,4.00,
036000955,3.50,4.75,2.63,,5.00,4.60,,,
036000956,4.00,4.25,2.63,,,,,6.25,
036000957,2.00,4.00,2.63,,4.20,5.00,,,
036000958,2.50,2.75,2.63,,,,8.50,4.75,
036000959,0.00,4.00,2.63,,2.60,2.60,,,
036000960,1.75,3.00,2.63,,,,7.00,5.00,
036000961,3.25,3.25,2.63,,,,3.00,4.00,
036000962,4.50,4.75,2.63,6.40,6.20,,,,
036000963,3.25,4.75,2.63,,,4.00,,6.75,
036000964,3.50,4.00,2.63,,5.00,4.60,,,
036000965,3.25,4.00,2.63,,4.20,,,5.50,
036000966,2.75,3.00,2.63,,,4.80,,6.75,
036000967,3.75,5.75,2.63,,,,7.25,7.50,
036000968,1.75,4.00,2.63,,4.00,,,5.75,
036000969,4.50,5.25,2.63,,,,,6.00,
036000970,3.50,5.75,2.63,,,,5.25,7.00,
036000971,1.50,1.50,2.63,,,,6.00,4.25,
036000972,2.00,3.75,2.63,,,4.20,,4.75,
036000973,2.50,1.25,2.63,,,,4.50,5.00,
036000974,1.75,4.50,2.63,,,,5.50,4.75,
036000975,2.25,2.75,2.63,,,,6.00,4.00,
036000976,2.75,4.00,2.63,,,,3.50,6.50,
036000977,3.50,4.50,2.63,,4.80,5.60,,,
036000978,2.00,2.50,2.63,,,,6.75,4.50,
036000979,1.75,3.75,2.63,,,4.40,,3.50,
036000980,4.00,4.00,2.63,,,,,6.25,
036000981,4.00,5.00,2.63,,,,5.75,6.25,
036000982,2.25,4.00,2.63,,4.20,5.20,,,
036000983,5.75,3.00,2.63,5.60,,,,,
036000984,3.00,3.00,2.63,,,,3.50,5.75,
036000985,3.00,2.75,2.63,,,,3.50,6.50,
036000986,0.50,1.25,2.63,,,,5.75,3.75,
036000987,2.50,3.50,2.63,,5.20,6.20,,,
036000988,3.00,4.00,2.63,,,,2.50,6.00,
036000989,3.00,2.50,2.63,,,,5.75,4.00,
036000990,0.00,,2.63,,,,,,
036000991,1.75,2.75,2.63,,,3.00,,5.50,
036000992,2.00,3.50,2.63,,,3.60,,7.25,
036000993,2.75,3.00,2.63,,,,5.00,5.00,
036000994,2.75,2.00,2.63,,5.40,2.80,,,
036000995,2.75,2.75,2.63,,7.20,,,,
036000996,2.25,2.25,2.63,,6.60,,,,
036000997,1.75,2.75,2.63,,2.60,6.40,,,
036000998,3.75,3.00,2.63,4.40,5.00,,,,
036000999,2.75,3.50,2.63,,5.40,5.60,,,
036001000,4.50,4.00,2.63,,,,6.00,6.75,
036001001,2.25,2.50,2.63,,,,6.50,5.00,
036001002,2.50,3.00,2.63,5.80,6.80,,,,
036001003,2.50,3.75,2.63,,4.20,5.00,,,
036001004,1.50,1.75,2.63,,,,,2.75,
036001005,4.00,4.25,2.63,,5.20,6.00,,,
036001006,3.25,2.50,2.63,,,5.40,,6.75,
036001007,2.75,2.75,2.63,,,,5.00,6.25,
036001008,5.00,4.50,2.63,7.20,,,,,
036001009,3.25,2.00,2.63,,,4.20,,3.50,
036001010,1.50,1.50,2.63,,,4.20,,5.00,
036001011,1.75,4.50,2.63,,,,3.75,5.50,
036001012,3.00,4.75,2.63,,6.40,5.80,,,
036001013,2.00,4.25,2.63,,,3.80,,5.00,
036001014,2.25,3.50,2.63,,3.80,,,5.00,
036001015,2.75,5.50,2.63,,,,6.75,4.50,
036001016,2.50,4.25,2.63,,5.60,6.80,,,
036001017,3.50,4.50,2.63,,,,4.00,6.50,
036001018,2.25,3.50,2.63,,,,4.00,5.75,
036001019,2.75,3.50,2.63,,,5.00,,4.75,
036001020,2.50,6.00,2.63,,,,7.00,6.75,
036001021,2.50,2.50,2.63,,4.80,5.80,,,
036001022,3.25,2.50,2.63,6.00,,,,,
036001023,4.50,4.00,2.63,,,,4.75,6.25,
036001024,2.00,2.25,2.63,,,4.40,,4.50,
036001025,3.00,5.50,2.63,,4.40,4.60,,,
036001026,3.75,2.75,2.63,,4.60,,,5.75,
036001028,3.25,4.50,2.63,,,,3.75,6.25,
036001029,3.00,3.50,2.63,,,,4.50,5.00,
036001030,0.25,2.50,2.63,,,5.20,,4.25,
036001031,2.00,3.50,2.63,,,4.60,,6.75,
036001032,1.75,2.50,2.63,,,4.80,,5.00,
036001033,2.25,1.75,2.63,,,3.60,,4.25,
036001034,1.75,2.00,2.63,,,2.60,,4.25,
036001035,3.00,4.75,2.63,,,,6.25,6.50,
036001036,3.00,1.50,2.63,,,,,5.50,
036001037,3.25,4.00,2.63,,,,7.50,6.50,
036001038,5.50,5.00,2.63,6.60,,,,,
036001039,4.00,3.50,2.63,,,,,5.75,
036001040,4.25,6.50,2.63,,,,,6.25,
036001041,4.25,3.75,2.63,,,5.80,,6.00,
036001042,1.75,3.25,2.63,,,,4.75,5.50,
036001043,4.00,2.00,2.63,5.20,,,,,
036001044,1.75,1.50,2.63,4.20,,,,4.50,
036001045,1.75,3.00,2.63,4.40,4.80,,,,
036001046,2.25,4.50,2.63,,,,7.00,7.25,
036001047,3.25,3.00,2.63,,,5.20,,7.00,
036001048,2.50,4.00,2.63,,,,5.50,5.75,
036001049,0.00,2.50,2.63,,,5.00,,3.00,
036001050,2.50,2.50,2.63,,,4.80,,5.25,
036001051,1.75,2.25,2.63,,,4.60,,3.25,
036001052,1.75,2.50,2.63,,,4.00,,5.00,
036001053,3.25,5.25,2.63,,,6.40,,6.75,
036001054,3.25,3.25,2.63,,,3.80,,4.75,
036001055,1.75,2.75,2.63,,,7.20,,,
036001056,3.00,3.00,2.63,,,5.20,,5.25,
036001057,3.50,4.00,2.63,,,,4.25,7.00,
036001058,3.50,4.50,2.63,6.60,6.80,,,,
036001059,3.25,3.25,2.63,,3.40,,,5.50,
036001060,2.50,4.00,2.63,,,,4.00,6.50,
036001061,3.50,3.75,2.63,6.20,4.20,,,,
036001062,2.25,4.00,2.63,,,,7.25,5.75,
036001063,3.00,4.75,2.63,6.00,,,,,
036001064,3.50,2.75,2.63,,,,7.25,5.00,
036001065,2.00,3.00,2.63,,,3.20,,5.00,
036001066,1.25,1.75,2.63,,,5.20,,4.25,
036001067,3.50,3.50,2.63,,,2.40,,5.75,
036001068,2.50,5.50,2.63,,3.40,4.60,,,
036001069,2.50,3.50,2.63,,,,5.00,7.25,
036001070,2.50,2.50,2.63,,3.80,,,5.00,
036001071,2.75,3.75,2.63,,,,5.00,4.75,
036001072,1.50,2.00,2.63,,,6.60,,5.00,
036001073,2.75,3.75,2.63,,,,5.00,6.25,
036001074,2.00,3.50,2.63,,,,4.00,6.25,
036001075,1.75,3.50,2.63,,3.40,,,4.50,
036001076,3.25,2.25,2.63,,,,5.50,2.75,
036001077,2.25,3.00,2.63,,,,3.25,4.50,
036001078,2.50,5.50,2.63,,4.60,5.20,,,
036001079,1.25,5.50,2.63,,,4.60,,4.50,
036001080,3.50,5.00,2.63,,,,6.75,6.50,
036001081,0.00,2.50,2.63,,,4.40,,4.50,
036001082,3.25,2.00,2.63,,,,7.50,5.00,
036001083,1.75,4.00,2.63,,,3.80,,4.25,
036001084,2.00,4.75,2.63,,5.00,5.20,,,
036001085,1.25,2.00,2.63,,,3.20,,4.25,
036001086,3.50,2.00,2.63,,,4.00,,5.00,
036001087,3.00,6.00,2.63,,,,,7.50,
036001088,1.25,5.00,2.63,,4.40,5.00,,,
036001089,3.00,6.00,2.63,,,,5.00,5.00,
036001090,3.00,5.00,2.63,,6.60,,,6.75,
036001091,2.00,3.00,2.63,,6.80,6.00,,,
036001092,2.75,4.50,2.63,,,,3.75,5.75,
036001093,3.00,4.25,2.63,,6.20,3.60,,,
036001094,1.00,4.50,2.63,,,,3.50,6.25,
036001095,2.75,6.00,2.63,,,,4.25,5.00,
036001096,2.75,4.75,2.63,,,,4.50,7.25,
036001097,1.50,5.00,2.63,,3.80,,,5.00,
036001098,3.00,5.75,2.63,,3.00,3.20,,,
036001099,2.75,3.25,2.63,,,5.20,,5.50,
036001100,2.00,1.00,2.63,1.60,,3.80,,,
036001101,1.50,5.00,2.63,,,,5.50,5.50,
036001102,2.75,5.75,2.63,,6.00,4.60,,,
036001103,3.75,2.50,2.63,,,,4.50,4.75,
036001104,2.75,2.75,2.63,,,4.40,,6.25,
036001105,2.25,2.00,2.63,,,,3.75,5.00,
036001106,2.25,1.50,2.63,,,5.80,,4.25,
036001107,3.25,3.50,2.63,,5.00,,,5.50,
036001108,3.25,3.50,2.63,,,,6.25,3.00,
036001109,2.00,4.50,2.63,,6.60,5.60,,,
036001110,2.25,3.00,2.63,4.80,,,,5.25,
036001111,2.75,4.00,2.63,,6.00,4.40,,,
036001112,1.50,3.25,2.63,,,4.40,,5.50,
036001113,4.50,5.00,2.63,5.40,,,,,
036001114,3.25,3.75,2.63,4.60,,,,,
036001115,4.25,3.75,2.63,7.60,5.00,,,,
036001116,3.00,5.00,2.63,,,,4.00,6.50,
036001117,2.50,4.00,2.63,,,,5.75,6.25,
036001118,4.00,4.25,2.63,,,,,6.00,
036001119,2.75,3.25,2.63,,6.40,5.40,,,
036001120,3.00,2.75,2.63,,,3.80,,5.50,
036001121,2.75,2.50,2.63,,3.00,,,5.75,
036001122,3.00,4.75,2.63,,,,,5.50,
036001123,3.00,3.25,2.63,,4.40,,,5.50,
036001124,2.75,3.25,2.63,,,4.60,,6.00,
036001125,0.50,1.75,2.63,,2.80,4.20,,,
036001126,2.75,2.50,2.63,3.40,,4.60,,,
036001127,2.00,5.00,2.63,,,4.80,,5.50,
036001128,4.00,5.50,2.63,,4.20,6.00,,,
036001129,2.25,3.50,2.63,,3.40,3.20,,,
036001130,3.25,4.75,2.63,,6.20,,,6.50,
036001131,0.25,1.50,2.63,,,3.20,,5.25,
036001132,2.50,2.50,2.63,5.60,,,,6.00,
036001133,3.75,3.75,2.63,,,,7.50,5.50,
036001134,3.00,5.25,2.63,,,,,7.50,
036001135,1.25,3.00,2.63,1.40,2.40,,,,
036001136,2.50,4.75,2.63,,,,6.75,4.75,
036001137,0.00,2.75,2.63,6.40,,,,4.50,
036001138,2.75,4.00,2.63,,,5.00,,,
036001139,3.00,4.00,2.63,,,,4.00,5.50,
036001140,4.25,3.75,2.63,,,,5.00,7.25,
036001141,2.00,3.00,2.63,,,,3.50,5.00,
036001142,3.50,3.50,2.63,,,3.20,,5.00,
036001143,3.25,4.50,2.63,,,4.20,,6.75,
036001144,3.00,6.00,2.63,,,,5.50,6.00,
036001145,4.25,3.00,2.63,,,,5.50,4.50,
036001146,3.25,5.25,2.63,,,,4.50,7.25,
036001147,1.75,2.25,2.63,,3.40,,,4.50,
036001148,1.75,3.25,2.63,,2.80,3.60,,,
036001149,2.75,2.25,2.63,,,6.20,,5.50,
036001150,2.75,4.75,2.63,,,,7.00,6.75,
036001151,3.25,3.75,2.63,6.00,,,,,
036001152,3.50,4.00,2.63,6.00,,,,,
036001153,3.75,2.50,2.63,,6.60,,,,
036001154,3.75,4.00,2.63,,,,5.25,5.00,
036001155,3.25,4.00,2.63,,,,4.25,5.00,
036001156,3.50,3.00,2.63,,,,4.00,4.75,
036001157,4.25,4.50,2.63,,5.00,5.60,,,
036001158,2.00,3.25,2.63,,3.20,3.60,,,
036001159,2.75,4.50,2.63,,,,5.00,4.75,
036001160,2.50,4.50,2.63,,,,7.50,7.25,
036001161,3.50,2.50,2.63,,,3.40,,6.50,
036001162,2.25,4.50,2.63,,,,5.25,5.25,
036001163,3.25,5.00,2.63,,4.40,4.60,,,
036001164,5.25,4.00,2.63,,4.60,,,,
036001165,3.25,1.75,2.63,,,,4.50,5.25,
036001166,2.00,2.00,2.63,,,4.00,,6.50,
036001167,5.00,5.00,2.63,,,5.80,,6.75,
036001168,3.50,3.25,2.63,,,5.80,,7.50,
036001169,3.25,2.00,2.63,5.20,,5.00,,,
036001170,2.25,3.50,2.63,,6.60,,,6.50,
036001171,3.25,2.75,2.63,,4.20,5.60,,,
036001172,3.00,2.50,2.63,,6.60,4.40,,,
036001173,4.50,4.25,2.63,,,4.60,,5.75,
036001174,5.00,3.50,2.63,6.60,5.80,,,,
036001175,3.50,3.50,2.63,4.40,,,,4.75,
036001176,4.50,2.50,2.63,,,4.40,,6.00,
036001177,4.25,3.75,2.63,,,,,6.75,
036001178,5.00,4.75,2.63,,6.60,,,,
036001179,2.00,4.75,2.63,,5.00,,,6.25,
036001180,4.25,1.25,2.63,,,,4.50,2.75,
036001181,3.00,3.25,2.63,,,,4.25,5.25,
036001182,3.50,3.50,2.63,,4.20,4.00,,,
036001183,2.50,2.50,2.63,6.20,,,,4.50,
036001184,2.50,3.50,2.63,,4.00,,,4.00,
036001185,4.00,2.50,2.63,,4.20,4.20,,,
036001186,3.75,4.00,2.63,,,,,5.50,
036001187,5.00,3.50,2.63,,,,3.75,6.50,
036001188,4.00,2.50,2.63,7.00,5.40,,,,
036001189,3.25,2.75,2.63,,5.00,3.80,,,
036001190,3.00,4.50,2.63,,,,5.25,5.50,
036001191,3.75,3.00,2.63,,6.20,5.60,,,
036001192,3.75,3.00,2.63,,,3.60,,6.00,
036001193,3.50,5.00,2.63,,,,5.00,6.00,
036001194,4.25,4.00,2.63,5.80,6.00,,,,
036001195,4.00,3.00,2.63,,6.60,,,,
036001196,4.75,5.75,2.63,,,,7.25,6.75,
036001197,2.50,3.50,2.63,,,,6.00,6.00,
036001198,2.25,4.00,2.63,,,,5.75,4.25,
036001199,4.25,5.00,2.63,,,,7.50,6.50,
036001200,0.00,0.50,2.63,,4.80,,,2.50,
036001201,1.75,2.25,2.63,3.20,,3.60,,,
036001202,2.25,5.00,2.63,,,4.80,,6.00,
036001203,4.00,3.75,2.63,6.00,,,,5.00,
036001204,0.00,1.25,2.63,,,3.20,,4.25,
036001205,2.00,5.50,2.63,,,,6.00,5.00,
036001206,4.00,3.25,2.63,,,6.60,,6.75,
036001207,3.50,3.25,2.63,,6.20,3.60,,,
036001208,3.00,2.75,2.63,,2.60,5.00,,,
036001209,3.75,4.25,2.63,,,,6.50,5.00,
036001210,4.00,2.75,2.63,5.00,,,,,
036001211,3.25,2.25,2.63,,5.40,4.20,,,
036001212,2.25,5.00,2.63,,,,4.25,9.00,
036001213,0.00,1.75,2.63,,,2.80,,4.25,
036001214,3.25,3.00,2.63,,5.00,4.20,,,
036001215,4.50,4.00,2.63,,,,6.50,6.75,
036001216,3.50,4.00,2.63,,,,6.25,,
036001217,3.50,3.25,2.63,,,,5.00,6.25,
036001218,3.00,2.00,2.63,,,,3.75,4.25,
036001219,4.00,1.75,2.63,,,5.80,7.00,,
036001220,4.00,3.25,2.63,,4.60,,,5.00,
036001221,4.00,3.00,2.63,,,,,5.50,
036001222,3.50,3.75,2.63,5.60,,,,,
036001223,3.50,3.50,2.63,6.40,,3.80,,,
036001224,2.50,2.25,2.63,5.80,,,,,
036001225,4.75,4.25,2.63,,,,,,
036001226,5.00,6.50,2.63,6.00,,,,,
036001227,2.50,1.75,2.63,,,4.40,,5.25,
036001228,3.50,3.50,2.63,,,,4.00,5.25,
036001229,2.00,3.25,2.63,,,4.00,,4.75,
036001230,2.00,4.75,2.63,,,,5.00,6.50,
036001231,4.00,3.50,2.63,7.00,4.40,,,,
036001232,2.75,,2.63,,,,,,
036001233,3.50,5.75,2.63,,,5.60,,5.50,
036001234,4.50,4.50,2.63,,,3.80,,6.50,
036001235,4.75,3.00,2.63,,7.20,5.40,,,
036001236,3.00,2.00,2.63,5.80,,3.80,,,
036001237,3.50,1.75,2.63,,,,7.00,6.25,
036001238,2.75,3.75,2.63,,3.60,3.60,,,
036001239,3.75,5.00,2.63,,,,2.75,6.00,
036001240,2.75,4.25,2.63,,,6.20,,5.75,
036001241,2.25,1.50,2.63,5.00,,,,4.50,
036001242,3.50,3.25,2.63,,,6.40,,4.75,
036001243,2.75,2.50,2.63,,,4.60,,5.50,
036001244,2.25,3.00,2.63,,,5.20,,4.00,
036001245,3.50,,2.63,7.00,6.00,,,,
036001246,4.25,2.00,2.63,,,3.80,,6.25,
036001247,3.00,1.75,2.63,,,,5.25,5.25,
036001248,3.50,2.75,2.63,,4.20,3.80,,,
036001249,4.75,4.75,2.63,,,3.20,,6.25,
036001250,5.00,5.25,2.63,,,6.80,,7.00,
036001251,3.75,2.75,2.63,,,3.60,,6.00,
036001252,3.25,4.50,2.63,,,,4.00,6.25,
036001253,3.25,1.75,2.63,,,4.60,,4.00,
036001254,2.75,5.25,2.63,,,4.60,,5.50,
036001255,2.75,3.50,2.63,5.20,,,,,
036001256,4.25,5.75,2.63,,5.80,4.60,,,
036001257,1.75,3.50,2.63,,,,5.25,5.00,
036001258,3.50,3.00,2.63,,,,5.00,6.50,
036001259,3.50,4.50,2.63,,,6.80,,7.00,
036001260,2.50,4.75,2.63,,,4.40,,5.75,
036001261,3.75,4.50,2.63,,,,5.25,5.00,
036001262,2.25,5.00,2.63,,,3.60,,3.50,
036001263,3.75,2.50,2.63,,,,6.75,6.00,
036001264,2.50,6.00,2.63,,,,7.00,6.50,
036001265,2.50,2.25,2.63,,,,3.25,4.00,
036001266,3.00,4.00,2.63,,,,4.75,6.00,
036001267,2.25,3.75,2.63,,,,2.75,4.00,
036001268,5.00,2.50,2.63,,,5.20,,6.50,
036001269,2.00,1.25,2.63,,,,4.75,4.00,
036001270,3.75,3.50,2.63,6.80,6.60,,,,
036001271,4.25,1.75,2.63,,,5.40,,6.00,
036001272,3.75,4.25,2.63,6.80,4.00,,,,
036001273,2.75,3.50,2.63,,5.80,,,5.00,
036001274,2.50,4.75,2.63,,,,5.50,4.25,
036001275,1.25,3.00,2.63,,,,5.50,4.00,
036001276,3.75,3.25,2.63,,,4.80,,4.75,
036001277,2.00,4.75,2.63,,,,3.75,4.00,
036001278,2.75,4.50,2.63,,,4.80,,5.50,
036001279,3.00,3.50,2.63,,,,4.00,4.25,
036001280,1.75,1.75,2.63,6.20,,,,4.25,
036001281,2.50,3.50,2.63,,,,4.00,4.75,
036001282,1.50,5.00,2.63,,,,5.00,6.25,
036001283,0.75,3.50,2.63,,,,4.00,4.25,
036001284,1.25,1.75,2.63,,,2.80,,,
036001285,3.00,1.50,2.63,4.00,,3.80,,,
036001286,1.25,1.25,2.63,,3.60,4.40,,,
036001287,2.50,1.50,2.63,,3.20,4.60,,,
036001288,3.50,5.25,2.63,5.40,,,,,
036001289,3.25,4.00,2.63,,,5.40,,5.25,
036001290,3.00,3.00,2.63,,,4.80,,4.25,
036001291,3.25,3.25,2.63,,,,3.75,5.25,
036001292,3.75,3.00,2.63,,,5.60,,6.25,
036001293,3.50,1.50,2.63,,5.20,,6.00,,
036001294,2.00,3.50,2.63,,,,3.50,5.25,
036001295,2.00,2.50,2.63,,,,3.50,5.00,
036001296,2.00,5.25,2.63,,,,4.25,5.25,
036001297,3.50,4.50,2.63,,4.40,5.00,,,
036001298,3.75,3.00,2.63,,,,3.25,4.00,
036001299,1.75,4.50,2.63,,,,5.00,5.00,
036001300,2.50,0.75,2.63,3.60,,3.00,,,
036001301,3.00,4.25,2.63,,,,4.50,5.75,
036001302,3.75,2.50,2.63,,4.80,4.00,,,
036001303,2.50,,2.63,,,5.40,,4.00,
036001304,3.75,4.00,2.63,5.40,5.00,,,,
036001305,3.25,5.50,2.63,,,,5.25,5.75,
036001306,4.00,3.75,2.63,,4.80,4.20,,,
036001307,4.00,4.50,2.63,,3.80,,,6.00,
036001308,2.00,5.00,2.63,,,,5.00,6.00,
036001309,2.75,1.75,2.63,,,,3.25,4.75,
036001310,3.50,3.00,2.63,,,,6.50,6.50,
036001312,2.25,2.00,2.63,,3.80,3.80,,,
036001313,2.25,5.50,2.63,,,,6.25,7.00,
036001314,1.50,3.50,2.63,,,3.20,,4.00,
036001315,2.75,4.50,2.63,,,,7.00,7.75,
036001316,2.50,6.50,2.63,,,5.40,,4.25,
036001317,3.25,4.00,2.63,,,3.00,,6.50,
036001318,4.00,3.00,2.63,,,6.40,,6.50,
036001319,3.25,4.75,2.63,,,,5.50,6.25,
036001320,6.00,3.00,2.63,,,6.20,,5.75,
036001321,1.25,2.25,2.63,,,,3.75,4.00,
036001322,3.25,3.50,2.63,,,,3.25,5.00,
036001323,3.25,5.50,2.63,,,5.60,,7.25,
036001324,2.00,3.50,2.63,,,,5.00,5.25,
036001325,3.25,5.00,2.63,,,4.20,,5.75,
036001326,3.75,3.25,2.63,,,,6.00,4.25,
036001327,2.75,5.50,2.63,,,4.00,,5.00,
036001328,3.00,3.50,2.63,,,,4.25,4.25,
036001329,2.00,6.00,2.63,,,,5.50,6.50,
036001330,3.50,2.00,2.63,,,,2.50,3.50,
036001331,3.75,4.50,2.63,,,,4.25,5.00,
036001332,3.75,4.00,2.63,,,,5.25,4.25,
036001333,5.50,3.50,2.63,,,6.60,,6.00,
036001334,2.25,5.25,2.63,,,5.60,,4.00,
036001335,2.75,4.75,2.63,,,,4.25,7.00,
036001336,3.25,2.00,2.63,,,,5.25,6.75,
036001337,3.00,4.00,2.63,,,,5.25,6.75,
036001338,0.25,2.75,2.63,,,2.40,,1.75,
036001339,1.50,2.25,2.63,,,5.00,,3.00,
036001340,3.25,3.00,2.63,,,,3.25,4.75,
036001341,4.50,3.50,2.63,,6.20,,,,
036001342,6.50,4.00,2.63,,5.80,,,,
036001343,2.25,2.00,2.63,,,3.80,,2.25,
036001344,4.00,4.50,2.63,,,,5.00,5.75,
036001345,2.25,3.50,2.63,,,3.40,,6.00,
036001346,0.00,0.50,2.63,,,2.60,,2.25,
036001347,3.75,5.00,2.63,,5.00,5.20,,,
036001348,3.75,3.00,2.63,7.20,,,,,
036001349,3.00,4.25,2.63,,,,5.75,7.25,
036001350,2.75,3.50,2.63,7.00,4.60,,,,
036001351,3.00,3.50,2.63,,4.40,,,5.75,
036001352,2.50,2.25,2.63,6.00,,,,,
036001353,1.75,4.00,2.63,,,,,4.75,
036001354,3.50,4.50,2.63,,,,6.25,5.75,
036001355,2.75,5.50,2.63,,,4.40,,5.00,
036001357,3.25,4.25,2.63,,5.40,5.00,,,
036001358,3.75,3.50,2.63,,,4.00,,3.50,
036001359,4.25,3.50,2.63,8.00,6.00,,,,
036001360,2.75,6.00,2.63,,,,6.00,4.75,
036001361,3.75,1.75,2.63,,,5.60,,4.75,
036001362,4.00,3.25,2.63,,,4.60,,5.75,
036001363,2.25,2.50,2.63,,,,5.75,6.25,
036001364,4.00,4.00,2.63,6.40,6.40,,,,
036001365,4.00,4.50,2.63,,5.20,,,4.50,
036001366,2.75,2.75,2.63,,7.40,5.80,,,
036001367,1.25,3.75,2.63,,,5.60,,5.50,
036001368,2.25,2.00,2.63,4.60,4.60,,,,
036001369,3.50,3.00,2.63,5.60,,,,,
036001370,3.75,4.00,2.63,,,6.40,,7.00,
036001371,1.50,4.00,2.63,,,,4.00,3.75,
036001372,3.25,3.25,2.63,,,,6.00,6.25,
036001373,2.25,3.50,2.63,,,,4.75,3.75,
036001374,1.75,4.50,2.63,,,,5.00,5.25,
036001375,3.75,5.25,2.63,,4.00,5.20,,,
036001376,2.00,3.00,2.63,,,,5.50,4.75,
036001377,1.50,4.75,2.63,,,3.00,,4.50,
036001378,2.25,2.25,2.63,,,,6.50,5.75,
036001379,3.50,2.75,2.63,7.20,,,,,
036001380,2.50,5.00,2.63,,,,,7.25,
036001381,3.25,6.00,2.63,,,4.20,,6.75,
036001382,3.50,3.25,2.63,4.80,5.00,,,,
036001383,1.00,2.50,2.63,,,,1.50,1.75,
036001384,4.50,4.25,2.63,5.20,,,,,
036001385,3.00,4.25,2.63,,4.20,5.20,,,
036001386,2.00,2.50,2.63,,4.60,4.20,,,
036001387,2.25,6.50,2.63,,,,7.00,7.25,
036001388,1.75,5.50,2.63,,,,4.50,4.50,
036001390,2.00,1.75,2.63,6.20,,4.40,,,
036001391,3.75,2.50,2.63,,,,3.00,3.75,
036001392,3.25,2.75,2.63,,2.40,3.00,,,
036001393,2.75,4.25,2.63,,,,5.00,6.50,
036001394,2.00,3.25,2.63,,,,4.00,8.25,
036001395,2.50,2.25,2.63,5.80,,,,,
036001396,2.50,3.75,2.63,,4.20,4.20,,,
036001397,3.50,5.25,2.63,,,4.20,,6.00,
036001398,4.75,5.00,2.63,,7.00,,,,
036001399,0.50,1.75,2.63,,,3.60,,3.25,
036001400,1.25,1.25,2.63,,,3.60,,3.50,
036001401,3.00,3.00,2.63,,,3.60,,6.25,
036001402,1.50,2.00,2.63,,3.40,3.80,,,
036001403,3.50,2.00,2.63,,4.60,,,3.75,
036001404,1.75,6.00,2.63,,,2.40,,4.50,
036001406,1.75,1.50,2.63,,,5.80,,6.00,
036001407,4.00,5.00,2.63,,,,5.75,5.75,
036001408,2.25,6.50,2.63,,,,,7.75,
036001409,2.00,3.25,2.63,,7.00,5.00,,,
036001410,2.25,2.25,2.63,,,,3.00,4.75,
036001411,3.25,4.25,2.63,,4.60,3.80,,,
036001412,4.75,2.50,2.63,,,,6.50,6.00,
036001413,3.25,2.50,2.63,,,7.00,,6.25,
036001414,2.75,3.50,2.63,,5.60,4.00,,,
036001415,1.50,2.50,2.63,,6.80,,,3.50,
036001416,2.50,4.75,2.63,,,,4.00,7.75,
036001417,1.50,3.00,2.63,,,4.00,,3.25,
036001418,3.00,3.00,2.63,,,,4.50,5.00,
036001419,2.75,3.00,2.63,5.60,6.20,,,,
036001420,2.75,4.50,2.63,,,,3.25,5.00,
036001421,2.00,2.00,2.63,,,3.40,,3.25,
036001422,1.50,5.00,2.63,,,,5.25,5.25,
036001423,4.50,3.75,2.63,,5.60,,,,
036001424,2.75,3.00,2.63,,3.40,,,6.00,
036001425,2.75,2.75,2.63,,6.00,4.80,,,
036001426,1.50,3.00,2.63,6.40,5.00,,,,
036001427,1.75,2.00,2.63,,,3.80,,5.50,
036001428,5.50,5.00,2.63,,,7.00,,,
036001429,3.75,3.00,2.63,,,5.60,,3.50,
036001430,2.50,3.75,2.63,,,,6.75,,
036001431,3.50,3.50,2.63,7.00,,,,,
036001432,2.00,4.25,2.63,,,,,5.75,
036001433,3.50,5.00,2.63,,,,,6.00,
036001434,2.50,4.75,2.63,,,,5.75,5.50,
036001435,2.25,2.50,2.63,,5.40,4.20,,,
036001436,3.00,2.50,2.63,,5.80,,,,
036001437,2.00,2.75,2.63,,5.40,3.40,,,
036001438,2.75,3.00,2.63,,4.80,3.60,,,
036001439,0.75,2.00,2.63,4.60,,3.40,,,
036001440,2.75,4.25,2.63,,,,4.75,6.75,
036001441,2.75,4.25,2.63,,,,4.25,3.25,
036001442,4.75,3.50,2.63,,,4.00,,6.50,
036001443,3.75,3.00,2.63,,,5.40,,5.75,
036001444,4.25,4.50,2.63,,,,,6.25,
036001445,4.00,3.00,2.63,6.40,5.40,,,,
036001446,2.00,3.25,2.63,,5.80,5.00,,,
036001447,3.00,3.00,2.63,,,4.80,,5.25,
036001448,1.75,1.75,2.63,,5.60,,,5.00,
036001449,2.50,2.25,2.63,,6.60,3.60,,,
036001450,1.75,2.50,2.63,,,5.00,,5.00,
036001451,3.00,3.00,2.63,,3.40,,,4.75,
036001452,2.75,4.75,2.63,,,,5.00,4.50,
036001453,0.75,2.75,2.63,,,4.60,,5.50,
036001454,2.50,2.75,2.63,,5.00,5.40,,,
036001455,2.00,3.50,2.63,,,3.40,,4.50,
036001456,2.25,3.00,2.63,6.40,,,,2.00,
036001457,5.50,4.50,2.63,,5.00,5.80,,,
036001458,3.00,3.50,2.63,,,,7.50,5.25,
036001459,2.50,2.50,2.63,,,3.80,,5.50,
036001460,2.50,3.50,2.63,5.40,,,,,
036001461,3.50,2.75,2.63,3.40,,,,,
036001462,4.50,2.75,2.63,,,,8.00,7.75,
036001463,3.25,4.50,2.63,,,,5.75,6.50,
036001464,3.00,3.00,2.63,2.20,,,,,
036001465,3.50,3.00,2.63,,,4.60,,5.50,
036001466,2.00,4.25,2.63,,,4.40,,6.00,
036001467,3.00,1.50,2.63,,,,7.50,4.00,
036001468,4.00,4.75,2.63,,,,,6.00,
036001469,3.50,3.00,2.63,,,,4.50,5.75,
036001470,3.00,5.50,2.63,,,,5.25,7.25,
036001471,2.50,4.00,2.63,,,,5.50,5.25,
036001472,2.75,6.00,2.63,,,,5.00,6.50,
036001473,4.00,5.50,2.63,,,,5.00,6.00,
036001474,3.25,4.25,2.63,,4.20,5.00,,,
036001475,3.50,4.00,2.63,,,4.60,,4.50,
036001476,1.75,3.75,2.63,,,,4.50,3.50,
036001477,2.00,4.00,2.63,,,,7.25,5.25,
036001478,4.00,3.25,2.63,,,,4.00,5.00,
036001479,3.00,3.25,2.63,,5.80,,,5.50,
036001480,2.00,4.50,2.63,,,,3.25,4.00,
036001481,2.00,3.50,2.63,,,2.80,,4.00,
036001482,2.25,5.00,2.63,,,,5.00,3.50,
036001483,1.25,4.50,2.63,,3.60,,,3.75,
036001484,1.50,3.50,2.63,4.80,,4.20,,,
036001485,1.50,3.50,2.63,,,,4.50,3.75,
036001486,2.75,3.00,2.63,,,5.40,,7.25,
036001487,2.00,5.75,2.63,,,,3.75,5.25,
036001488,2.00,4.00,2.63,,4.40,,,5.00,
036001489,3.00,3.25,2.63,,,,6.50,5.50,
036001490,2.50,3.25,2.63,,,,5.00,5.50,
036001491,3.25,4.75,2.63,,,3.60,,5.00,
036001492,3.25,5.75,2.63,,5.80,,,5.25,
036001493,4.25,2.50,2.63,,,,6.75,4.50,
036001494,1.50,3.50,2.63,,,,3.75,5.00,
036001495,3.50,4.50,2.63,,,4.60,,6.50,
036001496,3.00,6.25,2.63,,,,5.00,5.25,
036001497,3.50,5.00,2.63,5.20,5.40,,,,
036001498,1.00,2.50,2.63,,,3.40,,3.75,
036001499,4.00,5.00,2.63,,,,7.00,6.25,
036001500,3.75,4.00,2.63,,,4.40,,6.25,
036001501,3.50,5.00,2.63,,,,4.50,6.50,
036001502,2.75,4.00,2.63,,,,6.25,3.75,
036001503,2.25,5.00,2.63,,,3.80,,4.75,
036001504,3.25,5.00,2.63,,6.80,5.60,,,
036001506,1.75,2.50,2.63,,,4.80,,4.25,
036001507,3.00,3.25,2.63,,3.60,5.20,,,
036001508,4.25,4.00,2.63,,7.00,6.60,,,
036001509,2.25,4.00,2.63,,,,5.75,5.75,
036001510,2.50,5.00,2.63,,,5.40,,5.50,
036001511,2.25,3.50,2.63,,,,3.25,4.00,
036001512,2.50,2.25,2.63,,,5.80,,5.50,
036001513,2.50,2.50,2.63,,5.20,6.60,,,
036001514,4.25,4.25,2.63,,,,4.75,7.50,
036001515,4.00,5.75,2.63,,,,,5.50,
036001516,4.25,4.00,2.63,4.00,,,,,
036001517,2.50,4.50,2.63,,,,5.25,6.75,
036001518,2.50,4.75,2.63,,,,5.50,5.50,
036001519,3.50,3.25,2.63,,,,,5.75,
036001520,3.00,5.25,2.63,,,,5.75,4.75,
036001521,2.25,3.75,2.63,,,,3.75,3.00,
036001522,2.75,2.50,2.63,,,,3.25,4.25,
036001523,3.25,7.00,2.63,,,5.80,,5.00,
036001524,4.25,3.50,2.63,,,,,4.25,
036001525,3.75,2.75,2.63,6.40,4.60,,,,
036001526,4.50,4.00,2.63,,,5.60,,5.50,
036001527,4.00,2.50,2.63,,,5.80,,7.50,
036001528,3.75,1.25,2.63,6.00,,4.00,,,
036001529,4.00,3.75,2.63,,,,5.00,5.00,
036001530,2.50,3.50,2.63,4.60,3.40,,,,
036001531,2.50,2.75,2.63,2.00,4.20,,,,
036001532,1.50,3.75,2.63,,,4.20,,3.50,
036001533,2.00,2.50,2.63,,3.00,,,3.50,
036001534,3.25,3.25,2.63,,,,4.50,6.75,
036001535,3.25,1.75,2.63,,4.40,,,4.25,
036001536,0.75,1.50,2.63,,,3.00,,1.50,
036001537,2.75,4.25,2.63,,,,,6.50,
036001538,4.00,3.25,2.63,,,,5.00,5.50,
036001539,3.75,4.50,2.63,,,,1.50,4.00,
036001540,3.50,4.00,2.63,,,6.20,,7.00,
036001541,4.00,3.50,2.63,,,,3.25,4.00,
036001542,3.00,4.00,2.63,,,,5.75,6.25,
036001543,2.00,2.50,2.63,,,,6.25,4.25,
036001544,5.25,3.00,2.63,,,,5.00,3.25,
036001545,4.00,4.00,2.63,,,,4.00,5.75,
036001546,2.00,1.25,2.63,,,,3.25,2.75,
036001547,3.75,3.50,2.63,,6.00,,,,
036001548,3.75,5.00,2.63,,,,,6.00,
036001549,3.25,2.50,2.63,4.20,,,,,
036001550,3.25,4.00,2.63,,5.20,5.00,,,
036001551,3.75,4.25,2.63,,,,,5.00,
036001552,2.00,1.75,2.63,,3.40,,,4.00,
036001553,5.50,3.75,2.63,6.20,,,,,
036001554,4.50,3.50,2.63,,,,5.75,5.00,
036001555,1.25,3.00,2.63,,,3.00,,4.00,
036001556,2.75,4.50,2.63,,,4.20,,2.75,
036001557,2.25,2.50,2.63,,3.80,3.80,,,
036001558,3.00,4.50,2.63,,4.80,5.40,,,
036001559,2.25,4.75,2.63,,,,3.75,3.75,
036001560,0.00,2.00,2.63,,2.20,,,1.50,
036001561,1.75,4.75,2.63,,3.80,2.00,,,
036001562,1.75,3.25,2.63,,,,5.75,5.00,
036001563,2.50,3.00,2.63,,,4.00,,,
036001564,3.75,5.75,2.63,,,,4.25,5.25,
036001565,2.25,3.00,2.63,,,3.60,,4.00,
036001566,3.25,4.25,2.63,,4.20,5.40,,,
036001567,4.25,3.75,2.63,,4.60,4.40,,,
036001568,3.25,2.25,2.63,,,4.40,,4.25,
036001569,0.00,2.50,2.63,,,3.80,,2.25,
036001570,2.25,4.00,2.63,,7.40,7.00,,,
036001571,2.75,3.50,2.63,,,5.80,,6.50,
036001572,3.50,2.25,2.63,,,3.40,,6.50,
036001573,3.00,5.50,2.63,,,,5.00,4.75,
036001574,1.50,2.75,2.63,,,2.60,,2.50,
036001575,3.75,2.50,2.63,,,3.80,,5.75,
036001576,4.00,5.50,2.63,,,,,6.50,
036001577,2.25,4.25,2.63,,4.00,4.80,,,
036001578,1.75,2.00,2.63,3.80,,,,,
036001579,3.25,4.25,2.63,,,4.00,,6.75,
036001580,3.25,4.00,2.63,,,4.60,,7.00,
036001581,3.00,2.50,2.63,,,,5.50,5.50,
036001582,1.25,2.25,2.63,,,3.80,,1.25,
036001583,0.50,2.50,2.63,,,3.20,,3.25,
036001585,3.00,5.25,2.63,,3.60,4.40,,,
036001586,4.00,4.50,2.63,,3.60,3.60,,,
036001587,3.00,2.00,2.63,,,,4.25,5.25,
036001588,2.50,2.50,2.63,,,4.60,,5.00,
036001589,2.75,5.00,2.63,,,,4.00,6.00,
036001590,3.75,3.50,2.63,,,,5.00,5.25,
036001591,3.00,6.50,2.63,,,,5.25,5.50,
036001592,3.25,3.50,2.63,,6.00,5.40,,,
036001593,2.00,3.25,2.63,,,,6.50,5.75,
036001594,2.75,5.00,2.63,,,,5.00,8.00,
036001595,3.25,4.00,2.63,,5.40,3.40,,,
036001596,2.75,4.75,2.63,,,,5.00,6.00,
036001597,2.00,2.50,2.63,,,3.40,6.50,,
036001598,4.00,5.50,2.63,,,,,5.00,
036001599,4.00,4.75,2.63,,,,,3.25,
036001600,3.75,4.00,2.63,6.60,5.00,,,,
036001601,3.75,3.50,2.63,,4.20,4.40,,,
036001602,3.50,2.25,2.63,,,,5.50,5.50,
036001603,3.25,5.00,2.63,,,,5.00,5.00,
036001604,2.25,3.00,2.63,,,,5.25,4.50,
036001605,3.25,4.75,2.63,,,4.60,,3.75,
036001606,3.00,5.00,2.63,,,4.80,,5.75,
036001607,0.50,3.25,2.63,,,4.00,,3.25,
036001608,0.25,4.50,2.63,,,4.00,,5.25,
036001609,3.25,3.75,2.63,,5.00,,,5.00,
036001610,2.50,3.50,2.63,,,,6.50,6.00,
