SOBAODANH,Toan,Van,NN,Ly,Hoa,Sinh,Su,Dia,GDCD
032000001,4.75,5.25,2.55,,,,,5.25,
032000002,3.25,3.25,2.55,,,,,,
032000003,1.75,4.25,2.55,,,4.25,,3.75,
032000004,3.75,5.00,2.55,,,,,6.25,
032000005,3.25,3.75,2.55,,,,,4.25,
032000006,4.25,4.25,2.55,,,,,4.50,
032000007,3.50,4.50,2.55,,,,6.00,5.00,
032000008,3.00,4.00,2.55,,4.00,,,4.25,
032000009,3.50,3.75,2.55,,,,6.00,4.75,
032000010,3.00,4.25,2.55,,,4.50,,5.00,
032000011,2.25,3.25,2.55,,,,5.50,4.25,
032000012,0.75,2.25,2.55,,,3.75,,4.50,
032000013,2.75,3.75,2.55,,,,,7.50,
032000014,3.00,4.75,2.55,,,,6.50,4.00,
032000015,2.25,4.75,2.55,,,,,5.00,
032000016,3.00,4.50,2.55,,,,,7.50,
032000017,3.00,5.50,2.55,,,,,7.50,
032000018,3.00,6.00,2.55,,,,,5.75,
032000019,1.25,4.75,2.55,,,,,5.75,
032000021,1.50,3.00,2.55,,,,5.50,5.00,
032000022,1.00,5.50,2.55,,,3.75,,,
032000023,4.00,,2.55,,,,,5.00,
032000024,3.50,3.75,2.55,,,,,7.00,
032000025,2.00,,2.55,,,,,,
032000026,3.50,7.25,2.55,,,,,6.00,
032000027,2.50,5.00,2.55,,,,7.50,5.00,
032000028,1.25,3.75,2.55,,,,,2.25,
032000029,3.25,5.50,2.55,,,,,6.00,
032000030,4.75,4.50,2.55,,,,,4.75,
032000031,6.00,4.50,2.55,,,,,4.25,
032000032,3.75,3.75,2.55,,,,,5.25,
032000033,2.75,4.75,2.55,,,,,,
032000034,3.50,5.25,2.55,,,,,6.00,
032000035,3.50,4.50,2.55,,,,,5.00,
032000036,2.00,5.25,2.55,,,,,3.75,
032000037,1.75,2.75,2.55,,2.50,2.50,,,
032000038,2.75,4.75,2.55,,,,,6.00,
032000039,1.25,4.75,2.55,,,,,4.00,
032000040,3.75,5.75,2.55,,,,,5.00,
032000041,3.00,4.00,2.55,,,,,4.25,
032000042,2.25,3.75,2.55,,3.25,,,5.00,
032000043,5.25,6.50,2.55,,,,,5.00,
032000044,3.75,4.75,2.55,5.25,,,,4.50,
032000045,1.75,,2.55,,,,,,
032000046,2.25,0.50,2.55,,,,,3.00,
032000047,1.25,2.00,2.55,,2.75,2.75,,,
032000048,3.00,4.25,2.55,,,,,4.75,
032000049,1.75,3.50,2.55,,,,,5.00,
032000050,2.00,4.50,2.55,,,4.50,,4.00,
032000051,1.75,5.25,2.55,,,,,5.00,
032000052,3.75,3.75,2.55,,,,,5.00,
032000053,2.75,4.50,2.55,,,,6.75,4.75,
032000054,3.25,3.00,2.55,,3.50,,,5.25,
032000055,1.25,2.75,2.55,,,3.50,,,
032000056,1.50,3.75,2.55,,,,,4.50,
032000057,2.75,3.50,2.55,,,,,5.00,
032000058,2.00,2.00,2.55,,3.50,,,3.25,
032000059,5.25,3.75,2.55,,,,,4.75,
032000060,2.50,3.00,2.55,,,4.50,,,
032000061,2.25,4.25,2.55,,,,3.75,5.00,
032000062,2.25,5.75,2.55,,,,6.00,6.50,
032000063,1.75,5.50,2.55,,,,,5.00,
032000064,0.75,3.50,2.55,,,,,6.00,
032000065,3.25,3.50,2.55,,,,,5.25,
032000066,3.75,4.00,2.55,,,,,6.00,
032000067,1.25,2.25,2.55,,,3.75,,3.75,
032000068,4.00,6.25,2.55,,,,,5.00,
032000069,1.75,2.25,2.55,,,3.25,,2.50,
032000070,2.25,4.75,2.55,5.50,,,,,
032000071,2.50,4.00,2.55,,,,7.00,5.25,
032000072,1.75,2.75,2.55,,,,,5.00,
032000073,1.25,5.00,2.55,,,,3.50,4.50,
032000074,1.50,2.75,2.55,,,3.25,,3.25,
032000075,3.50,4.75,2.55,,,4.50,,3.75,
032000076,3.75,5.00,2.55,,,,,7.50,
032000077,3.25,5.00,2.55,,,,,6.50,
032000078,2.75,5.00,2.55,4.00,4.25,,,,
032000079,3.75,5.00,2.55,,,,,5.00,
032000080,3.25,5.00,2.55,,,,6.75,8.00,
032000081,1.50,2.75,2.55,,,2.50,,3.00,
032000082,1.25,4.50,2.55,,,3.25,,5.00,
032000083,4.00,4.50,2.55,,,,,5.00,
032000084,2.75,4.00,2.55,,,6.00,,4.75,
032000085,2.75,3.50,2.55,,,4.50,,,
032000086,1.25,4.00,2.55,,,2.75,,3.75,
032000087,1.50,3.25,2.55,,,,5.75,3.75,
032000088,1.25,2.75,2.55,,,3.50,,3.25,
032000089,2.75,4.50,2.55,,,,,5.25,
032000090,3.25,3.00,2.55,,,4.50,,4.00,
032000091,3.00,5.00,2.55,,,3.75,,5.50,
032000092,2.00,2.75,2.55,,2.75,2.50,,,
032000093,1.75,4.25,2.55,,,,5.50,5.75,
032000094,0.75,2.50,2.55,,,2.50,,2.50,
032000095,1.50,4.50,2.55,,,3.50,,3.75,
032000096,4.25,2.75,2.55,,,,,5.25,
032000097,1.50,3.25,2.55,,,2.50,,5.00,
032000098,1.25,1.25,2.55,,,3.75,,3.25,
032000099,1.25,4.75,2.55,,,,3.00,,
032000100,6.25,5.75,2.55,,,,,6.00,
032000101,3.75,5.75,2.55,,,,,6.00,
032000102,1.75,5.50,2.55,3.00,,,,5.25,
032000103,3.50,5.25,2.55,,,,,6.00,
032000104,1.25,1.25,2.55,,,,,2.25,
032000105,3.50,6.00,2.55,,,,,,
032000106,5.50,3.75,2.55,,,,,4.75,
032000107,4.00,5.50,2.55,,,,,5.50,
032000108,3.75,5.25,2.55,,,,,5.00,
032000109,4.00,4.50,2.55,,,,,5.25,
032000110,1.25,3.75,2.55,,,3.00,,,
032000111,1.25,2.00,2.55,,,,,,
032000112,3.50,4.25,2.55,,,,8.00,5.50,
032000113,3.00,3.00,2.55,,,,,5.00,
032000114,3.25,5.00,2.55,,,,6.25,5.50,
032000115,3.75,5.75,2.55,,,,,5.00,
032000116,2.00,2.00,2.55,,,4.00,,4.25,
032000117,3.75,5.50,2.55,,,,,6.50,
032000118,1.50,6.50,2.55,,,,5.75,6.50,
032000119,1.50,2.75,2.55,,,3.50,,4.00,
032000120,3.75,3.25,2.55,,,,,4.75,
032000121,4.00,3.00,2.55,,,,,5.00,
032000122,1.25,2.75,2.55,,,,,5.00,
032000123,2.25,,2.55,,,,,,
032000124,1.75,2.00,2.55,,,,,6.00,
032000125,2.75,2.75,2.55,,,,,3.75,
032000126,2.25,2.00,2.55,,,2.00,,3.00,
032000127,2.75,3.25,2.55,,3.50,2.50,,,
032000128,1.25,1.75,2.55,,,3.50,,3.75,
032000129,2.50,6.00,2.55,,,,,7.00,
032000131,1.50,5.00,2.55,,,,,4.75,
032000132,1.50,6.00,2.55,,,,5.75,7.25,
032000133,4.50,2.50,2.55,,,,,4.75,
032000134,3.25,2.75,2.55,,,,,4.75,
032000135,3.25,4.25,2.55,,,,6.00,5.50,
032000136,1.75,,2.55,,,,,,
032000137,2.00,2.75,2.55,,,4.50,,5.00,
032000138,4.25,4.50,2.55,,,,,6.25,
032000139,2.50,2.75,2.55,,,,,,
032000140,1.25,3.50,2.55,,,3.75,,3.75,
032000141,1.25,3.00,2.55,,,2.25,,3.50,
032000142,2.00,5.00,2.55,,,,5.50,5.75,
032000143,3.00,2.50,2.55,,,,5.75,5.50,
032000144,3.50,3.50,2.55,,,3.25,,3.75,
032000145,3.00,2.25,2.55,4.50,,,,,
032000146,1.50,4.00,2.55,,,4.50,,4.75,
032000147,1.75,3.75,2.55,,,3.00,,3.75,
032000148,2.50,3.00,2.55,,,,5.25,2.75,
032000149,2.00,5.25,2.55,,,3.50,,5.00,
032000150,1.50,2.25,2.55,,,3.50,,4.00,
032000151,0.50,2.75,2.55,,,3.25,,,
032000152,1.50,4.25,2.55,,,,4.75,5.25,
032000153,3.50,4.75,2.55,,,,,4.50,
032000154,4.75,6.00,2.55,,,3.25,,,
032000155,4.00,5.75,2.55,,,,,5.00,
032000156,2.75,,2.55,,,5.00,,,
032000157,3.00,4.00,2.55,,,,,4.00,
032000158,2.00,3.75,2.55,,,3.25,,4.25,
032000159,3.25,4.25,2.55,,,,,5.00,
032000160,2.50,1.75,2.55,,,2.50,,1.50,
032000161,3.25,5.25,2.55,,,,,5.75,
032000162,2.50,3.25,2.55,,,6.00,,6.75,
032000163,3.25,3.75,2.55,,,,7.75,5.75,
032000164,2.75,4.25,2.55,,,,,6.00,
032000165,2.75,4.00,2.55,,,,4.25,3.25,
032000166,1.25,2.50,2.55,,,3.25,,,
032000167,1.75,1.50,2.55,,,3.50,,4.50,
032000168,3.50,3.00,2.55,,,4.25,,5.25,
032000169,3.25,4.50,2.55,,,,,5.25,
032000170,2.00,1.75,2.55,,,3.50,,3.75,
032000171,3.25,4.75,2.55,,,,8.25,6.75,
032000172,3.75,4.00,2.55,,,6.50,,7.00,
032000173,1.75,3.75,2.55,,,,,5.00,
032000174,2.50,3.25,2.55,,,3.25,,3.50,
032000176,2.00,4.00,2.55,,,,5.00,7.75,
032000177,2.25,2.25,2.55,,,2.50,,3.50,
032000178,1.75,3.50,2.55,,,,,4.00,
032000179,2.50,3.00,2.55,,,,,3.75,
032000180,2.50,3.25,2.55,,,,5.50,,
032000181,1.75,1.75,2.55,,,3.00,,3.50,
032000182,3.75,3.50,2.55,,,,,5.00,
032000183,3.00,3.50,2.55,,,3.50,,3.50,
032000184,3.25,,2.55,,,,,,
032000185,2.00,1.75,2.55,,,3.25,,5.25,
032000186,1.25,3.75,2.55,,,2.75,,3.00,
032000187,3.25,3.25,2.55,,,,,4.25,
032000188,1.75,4.75,2.55,,,,5.25,6.25,
032000189,1.75,3.75,2.55,,3.50,,,5.25,
032000190,4.00,3.50,2.55,,,2.50,,4.00,
032000191,1.25,4.00,2.55,,,,,2.75,
032000192,2.50,3.00,2.55,,,4.00,,3.50,
032000193,4.00,5.00,2.55,,,,,4.75,
032000194,2.00,2.75,2.55,,,2.75,,2.50,
032000195,3.25,4.25,2.55,,5.00,,,6.25,
032000196,3.75,4.75,2.55,,,,,7.00,
032000197,2.00,4.75,2.55,,,,,4.00,
032000198,3.25,6.00,2.55,,,,,5.25,
032000199,2.50,7.00,2.55,,,,,7.25,
032000200,2.50,3.25,2.55,,,6.50,,5.75,
032000201,2.50,4.25,2.55,,,3.50,,2.75,
032000202,3.50,5.25,2.55,,,,,6.00,
032000203,1.75,2.50,2.55,,2.75,3.00,,,
032000204,1.75,4.75,2.55,,,3.00,,5.00,
032000205,3.25,4.75,2.55,,,,,6.25,
032000206,1.25,3.75,2.55,,,3.75,,,
032000207,6.25,3.75,2.55,,,3.50,,,
032000208,1.50,5.00,2.55,,,4.25,,6.25,
032000209,0.50,3.00,2.55,,,3.00,,2.50,
032000210,2.25,1.75,2.55,,,3.25,,2.00,
032000211,1.50,5.50,2.55,,,,,6.75,
032000212,1.75,5.00,2.55,,,,,6.25,
032000213,1.75,4.75,2.55,,,,3.25,5.75,
032000214,3.25,4.75,2.55,,,,,5.50,
032000215,3.75,6.00,2.55,,,,6.75,6.25,
032000216,4.00,3.75,2.55,,,,,,
032000217,3.75,4.50,2.55,,,,7.00,5.00,
032000218,3.25,3.75,2.55,,,5.25,,5.25,
032000219,2.75,3.00,2.55,,,,6.25,,
032000220,1.75,3.00,2.55,,4.50,,,5.75,
032000221,3.50,5.50,2.55,,,,,5.00,
032000222,3.00,2.50,2.55,,,1.75,,4.00,
032000223,4.00,5.25,2.55,,,,,5.00,
032000224,5.00,4.00,2.55,,,,6.25,5.75,
032000225,2.75,6.50,2.55,5.00,,,,7.00,
032000226,6.00,5.25,2.55,,,,,5.50,
032000227,2.25,1.50,2.55,4.75,,,,5.25,
032000228,2.50,2.75,2.55,,,2.75,,2.50,
032000229,3.50,3.50,2.55,,,,,5.00,
032000230,1.50,2.50,2.55,,,,,2.00,
032000231,1.25,2.25,2.55,,,3.25,,,
032000232,1.50,2.75,2.55,,,,,3.50,
032000233,2.75,5.00,2.55,,,,,4.25,
032000234,2.25,4.50,2.55,,,,,5.50,
032000235,3.25,4.25,2.55,,,,,5.75,
032000236,2.25,2.75,2.55,,,5.00,,5.50,
032000237,3.25,4.50,2.55,,,,,6.00,
032000238,2.75,3.75,2.55,,,4.50,,,
032000239,3.25,3.50,2.55,,,4.50,,5.00,
032000240,6.25,5.00,2.55,,4.25,,,,
032000241,0.50,3.75,2.55,,,,,2.75,
032000242,2.75,5.00,2.55,,,,,3.75,
032000243,2.50,5.00,2.55,,,,,4.75,
032000244,2.00,5.25,2.55,,,,,3.50,
032000245,2.75,3.00,2.55,,,,,4.00,
032000246,2.00,2.75,2.55,,,3.75,,,
032000247,2.00,1.75,2.55,,,3.75,,3.50,
032000248,1.50,2.50,2.55,,,3.00,,,
032000249,3.25,1.50,2.55,,,3.75,,5.00,
032000250,2.25,3.25,2.55,,,,6.75,3.75,
032000251,2.25,3.00,2.55,,,2.00,,3.25,
032000252,1.50,5.00,2.55,,,,,4.75,
032000253,2.00,2.75,2.55,,,3.00,,3.75,
032000254,1.25,4.00,2.55,,,,5.00,6.25,
032000255,1.75,3.00,2.55,,,,6.00,4.25,
032000256,3.50,3.75,2.55,,,4.00,,5.25,
032000257,3.00,3.25,2.55,,,,,4.00,
032000258,4.00,5.25,2.55,,,,,5.75,
032000259,1.75,4.00,2.55,,,,6.25,2.75,
032000260,3.50,5.00,2.55,,,,,6.50,
032000261,2.50,4.25,2.55,,,,7.25,5.25,
032000262,2.75,4.75,2.55,,,,,6.75,
032000263,3.00,4.00,2.55,,,,,4.00,
032000264,2.75,3.75,2.55,,,,,,
032000265,4.00,6.00,2.55,,,,,5.75,
032000266,1.75,4.50,2.55,,,,8.00,4.50,
032000267,4.00,5.00,2.55,,,,,5.50,
032000268,4.00,5.25,2.55,,,,,4.75,
032000269,3.50,5.00,2.55,,,,,4.00,
032000270,3.75,5.50,2.55,,,,,4.50,
032000271,0.25,2.50,2.55,,,2.50,,2.50,
032000272,2.75,3.25,2.55,,,,,3.75,
032000273,2.50,3.00,2.55,,,,,3.50,
032000274,2.25,5.00,2.55,,,,,5.50,
032000275,2.00,6.50,2.55,,,,,6.25,
032000276,1.50,3.50,2.55,,,,5.25,4.50,
032000277,2.75,3.00,2.55,,,,,,
032000278,3.75,3.75,2.55,,,,,5.25,
032000279,3.00,2.75,2.55,,,,,4.00,
032000280,2.75,5.00,2.55,,,5.25,,7.00,
032000281,2.50,1.50,2.55,,,2.00,,2.75,
032000283,2.00,6.25,2.55,,,,,5.75,
032000284,2.50,4.25,2.55,,,,,4.00,
032000285,5.00,4.25,2.55,5.50,,,,,
032000286,2.75,4.25,2.55,,,3.25,,2.50,
032000287,3.25,4.00,2.55,,,,,5.25,
032000288,1.25,1.25,2.55,,,3.50,,4.25,
032000289,2.00,2.50,2.55,,,2.75,,3.25,
032000290,3.00,3.50,2.55,,,4.00,,5.00,
032000291,3.00,3.00,2.55,,,,,5.75,
032000292,2.25,4.25,2.55,,,,,4.50,
032000293,2.00,4.25,2.55,,,4.00,,4.25,
032000294,3.00,1.25,2.55,,4.75,,,5.50,
032000295,4.00,4.50,2.55,,,,,5.50,
032000296,1.75,4.50,2.55,,,,,5.00,
032000297,3.75,5.50,2.55,,,,,5.25,
032000298,2.25,5.00,2.55,,,,,5.00,
032000299,2.00,4.00,2.55,3.25,,,5.50,,
032000300,3.50,6.25,2.55,,,,,4.75,
032000301,1.75,3.50,2.55,,,,6.00,5.00,
032000302,2.75,5.25,2.55,,,6.25,,4.50,
032000303,0.25,0.50,2.55,,,1.50,,2.00,
032000304,0.25,2.00,2.55,3.50,,,,2.00,
032000305,3.50,4.50,2.55,,,,,3.25,
032000306,3.25,3.00,2.55,,,4.25,,5.25,
032000307,3.75,4.75,2.55,,,,,4.75,
032000309,0.50,1.50,2.55,,,2.50,,4.25,
032000310,0.50,1.25,2.55,,,2.25,,5.00,
032000311,3.00,3.50,2.55,,,3.00,,4.25,
032000312,3.25,3.50,2.55,,,,,5.25,
032000313,1.25,3.25,2.55,,,3.75,,4.25,
032000314,5.00,3.50,2.55,,,,,4.25,
032000315,3.00,2.00,2.55,,,3.75,,3.50,
032000316,1.00,3.00,2.55,,,,,,
032000317,2.50,4.75,2.55,,,,,4.00,
032000318,1.75,3.75,2.55,,,3.00,,4.25,
032000319,3.50,5.25,2.55,,4.75,,,5.00,
032000320,3.25,2.00,2.55,,,2.50,,3.00,
032000321,2.00,3.50,2.55,,,,,4.00,
032000322,2.50,3.00,2.55,,,2.50,,3.50,
032000323,1.25,4.00,2.55,,,2.50,,4.50,
032000324,2.75,3.00,2.55,,,,5.00,2.50,
032000325,2.00,1.75,2.55,,,2.25,,3.00,
032000326,4.50,5.00,2.55,,,,,5.75,
032000327,1.25,4.00,2.55,,,,5.00,4.50,
032000328,2.50,3.50,2.55,,,,5.00,5.00,
032000329,2.25,5.00,2.55,4.50,,,,5.25,
032000330,3.25,4.25,2.55,,,,5.00,3.50,
032000331,3.00,5.00,2.55,,,3.25,,3.50,
032000332,2.50,3.75,2.55,,,,,4.75,
032000333,2.75,3.25,2.55,,,,,5.25,
032000334,2.75,4.50,2.55,,5.50,5.25,,,
032000335,5.00,6.00,2.55,,,,,4.00,
032000336,3.25,3.75,2.55,,,3.75,,3.75,
032000337,2.50,5.50,2.55,,,,6.00,4.50,
032000338,3.75,5.00,2.55,,,,,5.25,
032000340,3.25,5.00,2.55,,,,4.25,5.50,
032000341,2.25,3.25,2.55,,,,,,
032000342,2.75,4.50,2.55,5.50,,,,6.50,
032000343,2.50,4.75,2.55,,,,5.00,4.00,
032000344,2.50,5.25,2.55,,,,5.50,4.75,
032000345,3.00,5.00,2.55,,,,,5.75,
032000346,2.25,3.00,2.55,,4.50,,,2.75,
032000347,2.50,4.75,2.55,,,,5.25,4.50,
032000348,0.25,2.25,2.55,,3.25,,,,
032000349,0.75,3.75,2.55,,,3.50,,,
032000350,3.25,4.50,2.55,,,,,5.50,
032000351,2.50,3.00,2.55,,,,,3.25,
032000352,3.00,4.00,2.55,,,,,5.00,
032000353,3.75,6.00,2.55,,,,,8.00,
032000354,2.75,5.00,2.55,,,,,5.00,
032000355,2.50,4.75,2.55,,,,8.50,3.50,
032000356,3.00,4.50,2.55,,,3.50,,3.00,
032000357,3.25,2.00,2.55,,,3.00,,2.75,
032000358,1.50,2.25,2.55,,,3.50,,3.75,
032000359,3.00,3.50,2.55,,,,,3.50,
032000360,4.00,5.00,2.55,,,,,5.50,
032000361,2.50,6.00,2.55,,,,7.75,3.50,
032000362,4.25,3.75,2.55,,,,,3.50,
032000363,2.75,5.50,2.55,,,,7.25,6.00,
032000364,2.50,6.00,2.55,,,,5.25,4.25,
032000365,2.25,7.00,2.55,,,,5.00,7.00,
032000366,1.25,2.00,2.55,,,2.75,,2.00,
032000367,0.50,2.00,2.55,,,3.00,,3.00,
032000368,3.25,4.75,2.55,,,,,6.00,
032000369,2.50,2.50,2.55,,,,6.25,5.00,
032000370,3.00,4.50,2.55,,,,,5.00,
032000371,2.75,6.75,2.55,,,,,5.50,
032000372,2.00,7.25,2.55,,,,,6.75,
032000373,2.00,7.00,2.55,,,,,6.75,
032000374,2.75,5.25,2.55,,,3.50,,3.25,
032000375,3.00,5.75,2.55,,,,6.75,6.50,
032000376,3.00,5.50,2.55,,,,,7.00,
032000377,3.00,5.50,2.55,,,,,5.25,
032000378,2.50,,2.55,,,3.75,,,
032000379,2.75,5.50,2.55,,,,,5.50,
032000380,1.50,2.75,2.55,,4.75,,,6.75,
032000381,2.00,3.25,2.55,,,,4.00,4.50,
032000382,2.50,1.25,2.55,,,2.25,,3.50,
032000383,1.50,2.50,2.55,,3.75,,,4.25,
032000384,3.00,2.75,2.55,3.75,,,5.00,,
032000385,3.50,5.25,2.55,,,,,6.25,
032000386,2.25,5.25,2.55,,,,,5.75,
032000388,2.50,4.25,2.55,,,4.25,,4.25,
032000389,3.00,4.00,2.55,,,3.25,,4.50,
032000390,2.50,7.00,2.55,,,4.50,,5.50,
032000391,3.50,5.00,2.55,,,,,6.50,
032000392,1.50,2.00,2.55,,3.50,,,5.50,
032000393,4.00,5.25,2.55,,,,,7.25,
032000394,2.75,4.50,2.55,,4.50,,,3.25,
032000395,2.00,5.50,2.55,,,,,5.00,
032000396,3.00,7.50,2.55,,,,8.00,7.25,
032000397,5.75,5.00,2.55,,,,,5.75,
032000398,2.75,4.25,2.55,,,,6.00,5.75,
032000399,3.50,4.25,2.55,,,,,5.25,
032000400,6.25,8.50,2.55,,,,,9.00,
032000401,2.50,5.00,2.55,,,,,7.00,
032000402,1.75,4.25,2.55,,,,,5.25,
032000403,3.25,3.00,2.55,,,2.75,,,
032000404,1.25,1.75,2.55,,,,3.50,3.50,
032000405,4.50,5.00,2.55,,,,,5.75,
032000406,3.50,5.50,2.55,,,,,5.50,
032000407,1.25,3.00,2.55,,,4.00,,,
032000408,1.50,4.00,2.55,,,2.75,,3.50,
032000410,0.75,0.75,2.55,,3.50,2.50,,,
032000411,5.00,6.25,2.55,,,,,6.00,
032000412,2.75,5.00,2.55,,,,8.00,4.75,
032000413,4.25,5.50,2.55,,,,,5.00,
032000414,4.00,5.75,2.55,,,,5.75,6.25,
032000415,2.00,1.50,2.55,5.50,,,,5.50,
032000416,2.50,3.25,2.55,,,,,6.50,
032000417,2.50,6.00,2.55,,,,8.25,5.00,
032000418,3.25,5.50,2.55,,,,,4.75,
032000419,1.25,,2.55,,,,3.25,,
032000421,1.25,1.25,2.55,,,2.75,,5.50,
032000422,5.25,3.00,2.55,,,,,5.50,
032000423,3.00,3.75,2.55,,,,,6.00,
032000424,1.50,4.50,2.55,,,4.25,,3.75,
032000425,4.25,3.25,2.55,,,,,3.50,
032000426,2.50,5.75,2.55,,,5.50,,5.25,
032000427,1.50,4.75,2.55,,,,,4.75,
032000428,5.50,2.00,2.55,,6.00,,,,
032000429,3.50,7.25,2.55,,,,,7.25,
032000430,1.25,4.50,2.55,,,4.00,,3.50,
032000431,2.25,4.75,2.55,,,,,7.25,
032000432,3.25,4.25,2.55,,,,,5.75,
032000433,6.00,4.25,2.55,,,,,8.25,
032000434,1.50,3.50,2.55,,,,5.75,3.75,
032000435,2.50,5.00,2.55,,,,5.25,8.00,
032000436,1.75,4.25,2.55,,,4.50,,5.25,
032000437,4.00,3.75,2.55,,,,,6.75,
032000438,2.50,3.00,2.55,,3.50,,,5.50,
032000439,1.50,3.25,2.55,,,,,5.25,
032000440,2.00,4.25,2.55,,,3.00,,5.00,
032000441,5.75,5.75,2.55,,,,,7.00,
032000442,5.00,3.50,2.55,,,,,7.50,
032000443,3.25,2.00,2.55,,,,,4.75,
032000444,6.00,5.00,2.55,,,,,7.75,
032000445,4.75,6.50,2.55,,,,,5.75,
032000446,1.25,5.00,2.55,,,,5.00,4.00,
032000447,1.25,2.50,2.55,,,3.00,,2.50,
032000448,2.75,1.75,2.55,,,,,5.25,
032000449,2.75,2.75,2.55,,,3.75,,5.50,
032000450,5.50,6.00,2.55,,,,,8.25,
032000451,3.00,6.50,2.55,,,,7.25,4.75,
032000452,2.50,4.50,2.55,,,,7.00,5.50,
032000453,2.50,,2.55,,,,,4.50,
032000454,3.25,7.00,2.55,,,,6.25,7.75,
032000455,0.25,1.50,2.55,,,2.75,,,
032000456,3.00,4.75,2.55,,,,,7.25,
032000457,5.50,4.00,2.55,,,,,6.00,
032000458,1.75,4.50,2.55,,,,,5.00,
032000459,2.00,1.25,2.55,,4.00,,,3.75,
032000460,3.25,4.75,2.55,,,,,4.75,
032000461,1.50,2.50,2.55,,,2.25,,5.00,
032000463,1.25,2.75,2.55,,,,3.50,5.50,
032000464,2.00,3.25,2.55,,,3.25,,4.00,
032000465,1.25,0.50,2.55,,,2.50,,2.00,
032000466,4.50,4.50,2.55,,,,,6.00,
032000467,2.50,5.75,2.55,,,,,5.25,
032000468,1.25,2.50,2.55,,,2.00,,3.00,
032000469,2.75,2.75,2.55,,,,,6.75,
032000470,3.25,4.25,2.55,,,,,4.75,
032000472,0.75,2.25,2.55,,,2.25,,,
032000473,1.25,1.50,2.55,,,3.75,,2.00,
032000474,2.00,3.25,2.55,,,3.50,,5.25,
032000475,1.75,4.25,2.55,,,,5.50,6.00,
032000476,1.25,2.75,2.55,,,,,5.50,
032000477,3.00,3.25,2.55,,,,,4.25,
032000478,2.50,3.00,2.55,,,,,4.75,
032000479,2.50,4.25,2.55,,,,,6.50,
032000480,4.25,4.50,2.55,,,,,4.50,
032000481,1.25,2.25,2.55,,,2.25,,1.25,
032000482,0.25,1.75,2.55,,,2.75,,3.25,
032000483,1.25,3.75,2.55,,,3.50,,4.50,
032000484,2.00,2.25,2.55,,,3.25,,,
032000485,3.00,6.00,2.55,,4.50,,,4.50,
032000486,2.25,4.00,2.55,,,,3.50,3.75,
032000487,2.50,3.25,2.55,,,,,1.25,
032000488,0.75,0.75,2.55,,,,1.25,1.75,
032000489,3.50,4.75,2.55,,,,,5.75,
032000490,3.25,,2.55,,,,,,
032000491,3.00,5.75,2.55,,,,,7.25,
032000492,3.00,5.25,2.55,,,,,8.00,
032000493,3.00,6.00,2.55,,,,,7.00,
032000494,2.25,4.50,2.55,,,,,6.50,
032000495,2.25,5.25,2.55,,,,,,
032000496,4.75,4.00,2.55,,,,,6.75,
032000497,3.50,4.00,2.55,,,,,8.25,
032000498,3.50,4.00,2.55,,,,,5.50,
032000499,3.50,7.25,2.55,,,,6.50,6.00,
032000500,2.00,3.00,2.55,,,3.00,,3.75,
032000501,1.50,3.75,2.55,,,,5.00,5.50,
032000502,3.00,3.50,2.55,,4.50,,,5.25,
032000503,2.00,4.25,2.55,,,3.00,,3.50,
032000504,2.25,2.25,2.55,,,3.50,,,
032000505,1.75,3.75,2.55,,4.00,,,4.50,
032000506,4.75,4.50,2.55,,,,,4.75,
032000507,4.25,2.75,2.55,,3.25,,,4.00,
032000508,2.75,3.75,2.55,,,2.25,,3.00,
032000509,2.25,3.25,2.55,,,4.50,,4.25,
032000510,3.25,3.50,2.55,,,,,5.00,
032000511,2.00,3.75,2.55,,,,4.00,4.75,
032000512,4.00,4.25,2.55,4.25,,,,5.25,
032000513,2.50,5.00,2.55,,,,,7.25,
032000514,2.25,3.75,2.55,,,,,6.00,
032000515,2.50,4.25,2.55,,,,,7.50,
032000516,2.00,1.50,2.55,,,,7.50,5.50,
032000517,2.50,3.25,2.55,,,3.75,,4.50,
032000518,4.25,5.00,2.55,,,,,5.00,
032000519,4.00,3.25,2.55,,,,,7.00,
032000520,3.25,3.50,2.55,,,,,5.50,
032000521,1.50,4.25,2.55,,,2.50,,4.75,
032000522,2.25,2.50,2.55,,4.25,,,5.25,
032000523,3.50,3.75,2.55,,,,,5.50,
032000524,2.50,6.00,2.55,,,,6.00,6.00,
032000525,3.00,6.50,2.55,,,,8.00,7.00,
032000526,3.75,4.75,2.55,,,,,6.25,
032000527,2.50,4.25,2.55,,,,,5.50,
032000528,3.50,5.00,2.55,,,,,8.00,
032000529,3.00,3.25,2.55,,,3.25,,,
032000530,5.25,2.00,2.55,,,,,5.00,
032000531,5.00,4.25,2.55,,,,,6.00,
032000532,2.25,4.00,2.55,,,4.25,,5.75,
032000533,1.75,4.50,2.55,,,4.75,,,
032000534,3.25,5.00,2.55,,,,8.50,6.25,
032000535,5.25,3.25,2.55,,,,,6.00,
032000536,3.25,5.25,2.55,,,,,5.75,
032000537,2.25,,2.55,,,,,,
032000538,2.25,,2.55,,,,5.00,,
032000539,2.00,3.75,2.55,,,2.75,,4.00,
032000540,1.25,1.00,2.55,,3.75,1.75,,,
032000541,3.00,1.00,2.55,,,2.50,,3.50,
032000542,1.50,1.00,2.55,,,3.25,,2.75,
032000543,3.75,5.50,2.55,,,,,7.00,
032000544,1.75,4.25,2.55,,,,3.00,5.25,
032000545,3.00,3.75,2.55,,,,,3.25,
032000546,2.50,7.75,2.55,,,,5.00,,
032000547,2.75,2.25,2.55,,,,6.75,5.00,
032000548,2.75,5.00,2.55,,,,7.00,5.00,
032000549,2.25,3.00,2.55,,,,6.25,5.00,
032000550,4.00,5.00,2.55,,,,,5.00,
032000551,1.75,5.75,2.55,,,,6.25,6.75,
032000552,1.00,7.00,2.55,,,,,6.25,
032000553,5.00,6.25,2.55,,6.25,,,,
032000554,2.25,3.00,2.55,,,,6.00,5.25,
032000555,2.50,5.00,2.55,,,,5.50,6.50,
032000556,3.00,5.50,2.55,,,,6.25,6.50,
032000557,2.25,2.25,2.55,,6.50,,,4.25,
032000558,4.25,4.25,2.55,,,,,6.00,
032000559,3.75,4.00,2.55,,,3.75,,5.00,
032000560,4.50,4.25,2.55,,,,,5.00,
032000561,3.50,4.25,2.55,,,,,6.50,
032000562,2.25,4.75,2.55,,,,,5.75,
032000563,2.50,4.25,2.55,,,,6.25,6.00,
032000564,3.50,6.00,2.55,5.50,,,,6.50,
032000565,2.75,5.50,2.55,,,,8.00,5.75,
032000566,2.50,1.75,2.55,4.00,,,,5.75,
032000567,3.25,5.00,2.55,,,,,6.25,
032000568,2.25,3.50,2.55,,4.25,,,4.50,
032000569,3.00,5.25,2.55,,,,,5.00,
032000570,3.75,5.25,2.55,,,,,5.00,
032000571,2.25,4.00,2.55,,,,,4.25,
032000572,2.00,2.00,2.55,,5.50,,,4.50,
032000573,2.50,4.25,2.55,,,,7.25,6.00,
032000574,3.50,7.25,2.55,,,,8.00,7.50,
032000575,2.50,5.75,2.55,,,,6.00,5.75,
032000576,4.50,6.25,2.55,,,,,6.25,
032000577,3.25,2.75,2.55,,,2.50,,3.50,
032000578,4.00,5.50,2.55,,,,,5.00,
032000579,1.50,2.75,2.55,,,1.50,,4.50,
032000580,2.00,7.00,2.55,,,,5.00,5.50,
032000581,3.00,5.00,2.55,,,,6.25,6.25,
032000582,1.25,4.50,2.55,,,3.25,,4.00,
032000583,4.25,3.00,2.55,,,,,3.75,
032000584,4.25,5.25,2.55,,,,,5.75,
032000585,2.50,5.00,2.55,,,,4.00,,
032000586,1.75,3.25,2.55,,,,5.25,5.25,
032000587,2.25,2.00,2.55,,,,,5.50,
032000588,3.25,6.00,2.55,,,,,4.00,
032000589,2.25,4.00,2.55,,,3.50,,3.00,
032000590,1.25,4.00,2.55,,,3.00,,,
032000591,4.00,6.00,2.55,,,,,5.50,
032000592,2.75,7.25,2.55,,,,,6.50,
032000593,4.50,5.00,2.55,,,,,5.25,
032000594,5.75,3.50,2.55,4.50,,,,,
032000595,3.50,6.25,2.55,,,,6.50,6.25,
032000596,2.75,3.50,2.55,,,6.50,,,
032000597,3.25,5.00,2.55,,,,,6.00,
032000598,2.25,5.25,2.55,,3.50,,,6.50,
032000599,5.75,3.00,2.55,4.75,,,,,
032000600,3.25,5.00,2.55,,,2.75,,4.00,
032000601,3.00,3.50,2.55,,,3.75,,2.75,
032000602,2.00,,2.55,,,,4.00,,
032000603,2.25,5.00,2.55,,,2.50,,4.25,
032000604,1.75,5.25,2.55,,,,,5.75,
032000605,2.50,1.50,2.55,,,2.50,,2.00,
032000606,2.25,5.50,2.55,,,,3.00,3.50,
032000607,2.25,,2.55,,,,5.00,,
032000608,1.75,4.50,2.55,,,3.75,,5.00,
032000609,2.25,4.00,2.55,,,,6.50,6.75,
032000610,5.00,7.75,2.55,,,,8.50,,
032000611,2.25,6.00,2.55,,,,5.50,6.00,
032000612,4.25,6.75,2.55,,,,,6.50,
032000613,4.25,5.50,2.55,,,,,5.50,
032000614,1.50,1.75,2.55,,3.50,,,3.25,
032000615,2.00,3.50,2.55,,2.50,3.50,,,
032000616,5.00,4.25,2.55,,,,,4.50,
032000617,1.50,2.50,2.55,,,,1.50,2.75,
032000618,1.75,2.75,2.55,,,,,4.00,
032000619,4.50,2.25,2.55,,,,,5.25,
032000620,1.25,3.50,2.55,,,3.50,,1.25,
032000621,2.50,2.75,2.55,,,,3.25,5.50,
032000622,2.75,5.25,2.55,,,,6.75,7.25,
032000623,2.25,4.00,2.55,,,3.50,,3.75,
032000624,3.75,5.00,2.55,,,3.75,,7.50,
032000625,1.75,5.50,2.55,,,3.25,,4.50,
032000626,3.25,6.00,2.55,,,,5.00,7.00,
032000627,3.75,5.00,2.55,,,3.50,,6.50,
032000628,3.00,3.50,2.55,,,3.50,,,
032000629,4.00,5.50,2.55,,,,,6.25,
032000630,3.00,2.25,2.55,,,,4.50,4.75,
032000631,3.00,5.75,2.55,,,,5.00,5.25,
032000632,4.00,5.50,2.55,,,,,7.50,
032000633,3.25,4.50,2.55,,,,,5.50,
032000634,4.00,4.50,2.55,,,,,5.75,
032000635,2.50,3.00,2.55,3.00,,,,6.50,
032000636,2.75,0.75,2.55,,,3.50,,4.50,
032000637,4.50,3.75,2.55,,,,,5.50,
032000638,3.00,3.00,2.55,,,,,5.75,
032000639,2.25,3.00,2.55,,2.75,,,,
032000640,4.00,5.75,2.55,,,,,6.25,
032000641,3.25,5.50,2.55,,,,6.00,5.75,
032000642,1.75,2.75,2.55,,,,4.25,3.50,
032000643,4.50,5.00,2.55,,,,,6.25,
032000644,0.75,1.50,2.55,,3.75,,,6.50,
032000645,2.75,3.75,2.55,,,,7.00,6.25,
032000646,4.25,2.50,2.55,,,,,5.75,
032000647,4.00,3.00,2.55,,,,,6.50,
032000648,2.75,5.00,2.55,,,,5.25,5.50,
032000649,2.50,3.25,2.55,,,4.50,,5.25,
032000650,4.50,4.50,2.55,,,,,5.75,
032000651,4.25,4.25,2.55,,,,,6.50,
032000652,1.75,3.50,2.55,,4.50,,,6.00,
032000653,5.00,3.25,2.55,,,,,5.25,
032000654,3.50,4.50,2.55,,,,,6.25,
032000655,3.75,3.25,2.55,,,,,5.00,
032000656,4.75,5.00,2.55,,,,,5.00,
032000657,4.50,3.00,2.55,,,3.50,,6.50,
032000658,5.75,,2.55,,,4.25,,,
032000659,5.75,,2.55,,,3.25,,,
032000660,4.00,3.75,2.55,,,,,5.50,
032000661,4.50,6.00,2.55,,,,,5.00,
032000662,5.50,3.50,2.55,,,,,6.25,
032000663,2.00,4.75,2.55,,,,6.50,5.00,
032000664,2.25,5.75,2.55,,,,,7.25,
032000665,4.25,5.00,2.55,,,,,5.25,
032000666,3.50,6.75,2.55,,,,,5.50,
032000667,1.50,5.00,2.55,,,,,7.00,
032000668,3.50,4.00,2.55,,,,5.00,7.25,
032000669,3.50,5.00,2.55,,,,5.00,7.75,
032000670,1.50,1.25,2.55,,,,3.75,3.00,
032000671,4.25,5.25,2.55,,,,,7.50,
032000672,2.00,3.25,2.55,,,,,4.00,
032000673,2.25,4.00,2.55,,,,,6.00,
032000674,2.50,4.25,2.55,,,3.75,,5.00,
032000675,1.50,4.75,2.55,,,,,5.00,
032000676,4.00,5.00,2.55,,,,,5.50,
032000677,4.25,5.00,2.55,,,,,5.75,
032000678,2.25,,2.55,,,,,,
032000679,2.00,5.00,2.55,,,,,6.00,
032000680,1.75,3.75,2.55,,,,,5.00,
032000681,3.75,5.50,2.55,,,5.75,,,
032000682,2.50,5.25,2.55,,,,,5.00,
032000683,6.25,5.75,2.55,,,,,6.50,
032000684,2.75,5.50,2.55,,,,,7.25,
032000685,4.25,4.75,2.55,,,,,6.50,
032000686,2.25,5.00,2.55,,,,5.75,4.25,
032000687,2.75,4.75,2.55,,,,,5.00,
032000688,5.00,6.25,2.55,,,,,6.25,
032000689,3.00,,2.55,,,,6.00,,
032000690,4.25,5.00,2.55,,,4.50,,7.00,
032000691,4.25,5.50,2.55,,,,,7.75,
032000692,1.75,4.25,2.55,,,,,4.75,
032000693,4.00,1.50,2.55,3.50,4.25,,,,
032000694,2.50,1.75,2.55,,,2.50,,2.25,
032000695,3.50,3.50,2.55,,,2.50,,5.00,
032000696,2.25,4.50,2.55,,,,4.25,3.75,
032000697,1.25,4.75,2.55,,,,,5.00,
032000698,4.25,4.00,2.55,,,,7.00,6.50,
032000699,1.75,4.00,2.55,,,,,5.00,
032000700,1.25,3.75,2.55,,,,,5.00,
032000701,4.50,6.00,2.55,,6.50,,,7.25,
032000702,2.25,2.00,2.55,,,3.50,,,
032000703,2.25,5.00,2.55,,,,8.00,6.00,
032000704,1.75,5.50,2.55,,,,,5.75,
032000705,2.50,4.50,2.55,,3.50,,,5.75,
032000706,3.00,5.00,2.55,,,,4.25,6.00,
032000707,2.25,1.50,2.55,,,,,,
032000708,1.75,2.75,2.55,,,,2.75,5.25,
032000709,2.25,5.25,2.55,,,2.50,,4.25,
032000710,1.50,2.50,2.55,,,3.50,,4.50,
032000711,3.00,3.75,2.55,,,,,5.25,
032000712,4.50,5.75,2.55,,,,,4.50,
032000713,4.50,5.50,2.55,,,,,6.25,
032000714,6.50,7.50,2.55,,,5.25,,8.00,
032000715,1.75,5.00,2.55,,,,5.75,4.50,
032000716,5.50,5.75,2.55,,,,,6.25,
032000717,3.50,3.00,2.55,,,3.50,,5.00,
032000718,3.00,4.25,2.55,,,4.50,,6.00,
032000719,1.75,4.50,2.55,,4.50,,,5.25,
032000720,4.50,5.50,2.55,,,,6.50,6.00,
032000721,4.00,3.25,2.55,,4.75,,,6.25,
032000722,4.25,5.75,2.55,5.25,,,,6.25,
032000723,4.75,6.25,2.55,,,,,8.50,
032000724,2.75,5.25,2.55,,,,,5.75,
032000725,2.75,4.00,2.55,,,,,4.25,
032000726,1.25,6.00,2.55,,,,,4.25,
032000728,2.50,5.75,2.55,,,,,5.25,
032000729,2.25,5.50,2.55,,,4.75,,6.00,
032000730,2.50,4.50,2.55,,,,5.25,6.00,
032000731,0.50,2.75,2.55,,,3.50,,3.25,
032000732,1.75,3.75,2.55,,,2.25,,,
032000733,1.50,4.25,2.55,,2.50,3.50,,,
032000734,2.50,2.00,2.55,,,2.00,,2.25,
032000735,2.50,5.75,2.55,,,2.50,,4.00,
032000736,0.50,2.50,2.55,,,4.50,,,
032000737,5.00,3.50,2.55,,,5.25,,5.00,
032000738,2.00,,2.55,,,,,,
032000739,3.50,4.50,2.55,,,,7.00,6.50,
032000740,3.50,3.50,2.55,,,,,6.75,
032000741,2.75,5.00,2.55,,,,2.75,5.75,
032000742,3.50,2.75,2.55,,,,5.00,,
032000743,3.00,4.00,2.55,,,,,5.50,
032000744,5.00,5.00,2.55,,,,,5.75,
032000745,2.50,5.75,2.55,,,,,5.75,
032000746,2.25,3.25,2.55,,,,,5.75,
032000747,3.50,1.75,2.55,,,,4.25,3.50,
032000748,3.25,4.75,2.55,,,,,5.75,
032000749,3.00,5.00,2.55,,,,,4.50,
032000750,3.50,3.75,2.55,,,,6.75,4.50,
032000751,2.00,3.00,2.55,,,,,5.00,
032000752,5.00,4.50,2.55,,,,,7.25,
032000753,3.75,4.50,2.55,,,,,5.25,
032000754,3.50,2.75,2.55,,,,,3.50,
032000755,4.50,6.00,2.55,,,,,5.00,
032000756,2.75,3.00,2.55,,,,5.25,,
032000757,2.50,2.75,2.55,,,2.75,,3.75,
032000758,4.50,6.50,2.55,,,,,5.00,
032000759,3.50,4.25,2.55,,,,,4.25,
032000761,2.00,2.25,2.55,,,2.50,,5.00,
032000762,2.00,1.75,2.55,,,2.25,,2.75,
032000763,1.25,2.00,2.55,,,2.50,,,
032000764,2.25,2.50,2.55,,,,,,
032000765,2.25,4.50,2.55,,,,,5.00,
032000766,3.25,5.00,2.55,,,,,5.00,
032000768,4.00,3.50,2.55,,,5.00,,6.75,
032000769,1.50,2.50,2.55,,,,5.00,4.50,
032000770,1.50,3.00,2.55,,5.50,3.00,,,
032000771,1.75,5.25,2.55,,,,,4.75,
032000772,4.00,4.50,2.55,,,,,5.50,
032000773,1.50,3.25,2.55,,4.00,3.00,,,
032000774,3.00,6.25,2.55,,,,,5.00,
032000775,1.75,4.25,2.55,,,3.50,,4.50,
032000776,2.25,3.75,2.55,,,2.50,,,
032000777,1.75,1.25,2.55,,,3.25,,,
032000778,2.50,3.50,2.55,,,3.00,,4.75,
032000779,3.50,2.50,2.55,,,,5.50,6.50,
032000780,2.25,4.00,2.55,,,,,5.25,
032000781,3.25,3.75,2.55,,,,6.25,5.25,
032000782,2.75,6.50,2.55,,,,,5.25,
032000783,1.25,4.50,2.55,,,3.50,,3.25,
032000785,1.75,5.75,2.55,,,,,6.25,
032000786,3.25,5.25,2.55,,,,,5.00,
032000787,4.25,5.00,2.55,,,,,5.75,
032000788,2.25,3.75,2.55,,,,,6.25,
032000789,2.75,3.00,2.55,,3.50,,,5.00,
032000790,2.25,,2.55,,,,4.75,,
032000791,1.75,4.00,2.55,4.25,,,,2.75,
032000792,3.25,2.75,2.55,,,3.25,,5.00,
032000793,1.75,1.25,2.55,,,2.50,,3.00,
032000794,3.25,4.00,2.55,,,3.00,,3.75,
032000795,4.00,4.25,2.55,4.75,,,,5.75,
032000796,5.50,5.75,2.55,,,,,7.00,
032000797,2.25,4.00,2.55,,,4.50,,6.00,
032000798,2.00,3.50,2.55,,,2.75,,5.00,
032000799,3.25,2.00,2.55,,4.50,2.50,,,
032000800,4.00,5.00,2.55,,,,5.50,5.75,
032000801,3.25,1.75,2.55,,3.75,2.50,,,
032000802,2.00,3.50,2.55,,,3.50,,5.25,
032000803,3.25,4.00,2.55,,,,6.25,4.75,
032000804,2.50,5.00,2.55,,,,,5.00,
032000805,3.50,3.25,2.55,,,5.25,,,
032000806,2.75,5.25,2.55,,,,,5.00,
032000807,2.75,2.50,2.55,,,,,4.75,
032000808,6.25,3.50,2.55,4.50,,,,,
032000809,3.25,4.75,2.55,,,,,5.00,
032000810,1.75,2.25,2.55,,,,,,
032000811,2.25,5.50,2.55,,,3.50,,4.00,
032000812,2.25,3.00,2.55,,,4.50,,6.25,
032000814,3.75,4.75,2.55,,,2.25,,4.00,
032000815,2.50,5.75,2.55,,,,4.25,7.00,
032000816,3.00,5.50,2.55,,,,,6.25,
032000817,3.00,3.75,2.55,,,3.75,,4.75,
032000818,2.75,5.00,2.55,,,,5.25,4.25,
032000819,2.00,6.25,2.55,,,,,8.25,
032000820,3.50,5.50,2.55,,,,,6.25,
032000821,2.50,3.50,2.55,,3.75,,,6.50,
032000822,2.25,2.50,2.55,,4.50,,,6.75,
032000823,2.75,4.50,2.55,,,,,,
032000824,2.75,3.25,2.55,,4.25,,,6.50,
032000825,2.25,4.50,2.55,,,,3.00,4.75,
032000826,2.75,4.25,2.55,,,,,6.50,
032000827,3.50,6.00,2.55,,,5.00,,7.00,
032000828,3.50,4.75,2.55,,,4.75,,6.75,
032000829,1.25,1.25,2.55,,,3.00,,2.00,
032000830,2.25,4.00,2.55,,,,,5.75,
032000831,3.50,3.75,2.55,,,2.75,,,
032000832,2.25,3.75,2.55,,,,,7.00,
032000833,2.75,4.75,2.55,,,,,5.25,
032000835,3.00,2.25,2.55,,,7.50,,6.25,
032000836,2.00,3.50,2.55,,,,4.00,3.75,
032000837,1.75,2.75,2.55,,,3.50,,3.50,
032000838,3.25,4.00,2.55,,,,,5.50,
032000839,2.75,4.75,2.55,,,,5.50,6.00,
032000840,3.50,3.75,2.55,,,,7.25,5.75,
032000841,3.00,5.50,2.55,,,,,5.25,
032000842,3.25,5.50,2.55,,4.75,,,,
032000843,2.50,4.50,2.55,,,,6.25,5.25,
032000844,1.25,6.50,2.55,,,,,4.50,
032000845,2.00,4.50,2.55,,,2.75,,3.25,
032000846,2.75,6.75,2.55,,,,,6.00,
032000847,2.00,4.75,2.55,,,,,8.00,
032000848,2.25,3.00,2.55,,,2.50,,4.50,
032000849,1.50,1.25,2.55,,,2.50,,3.00,
032000850,1.75,2.75,2.55,,3.25,,,3.50,
032000851,2.25,1.25,2.55,,,2.25,,3.50,
032000852,3.50,7.00,2.55,,,,,5.25,
032000853,4.00,5.00,2.55,,,3.25,,5.50,
032000854,2.75,0.75,2.55,,3.25,2.75,,,
032000855,2.75,5.50,2.55,,,,,,
032000856,2.25,5.00,2.55,,,,,5.75,
032000857,2.50,2.75,2.55,,,,,5.50,
032000858,2.25,5.25,2.55,,,,,5.00,
032000859,3.50,2.75,2.55,,4.75,,,5.75,
032000860,3.75,4.00,2.55,,,4.00,,4.75,
032000861,3.00,1.25,2.55,,,2.25,,4.00,
032000862,2.25,2.00,2.55,,,1.75,,4.50,
032000863,3.00,5.75,2.55,,,,,5.75,
032000864,2.00,1.75,2.55,6.00,,2.25,,,
032000865,3.25,5.25,2.55,,,,,6.25,
032000866,2.00,5.75,2.55,,,,4.50,5.50,
032000867,1.75,4.25,2.55,,,,,6.50,
032000868,1.50,1.75,2.55,,,4.25,,3.50,
032000869,4.00,4.50,2.55,,,,,5.75,
032000870,2.75,4.00,2.55,,,,6.50,5.50,
032000871,3.25,4.00,2.55,,,3.50,,4.25,
032000872,4.25,4.00,2.55,,,,,5.00,
032000873,2.50,4.75,2.55,,,,,5.25,
032000874,3.75,5.75,2.55,,,,,5.75,
032000875,3.50,4.50,2.55,,,,6.00,6.00,
032000876,2.00,3.25,2.55,,,,,5.50,
032000877,3.00,3.75,2.55,,,3.50,,5.00,
032000878,1.75,0.75,2.55,4.75,4.50,,,,
032000879,2.50,2.75,2.55,,,,,5.00,
032000880,4.50,6.00,2.55,,,,,6.25,
032000881,3.50,4.00,2.55,,,,,5.75,
032000882,3.50,3.25,2.55,,,,5.00,4.00,
032000883,3.25,4.00,2.55,,,,,5.50,
032000884,1.50,4.75,2.55,,,,6.50,5.00,
032000885,3.00,7.00,2.55,,,,5.50,,
032000886,3.75,4.50,2.55,,,,,7.00,
032000887,3.00,4.00,2.55,,,,,5.75,
032000888,3.00,6.00,2.55,,,,,6.50,
032000889,3.00,4.50,2.55,,,,,4.50,
032000890,3.00,3.50,2.55,,,,,5.00,
032000891,3.25,4.00,2.55,,,,,5.25,
032000892,3.75,7.25,2.55,,,,,4.50,
032000893,3.75,4.25,2.55,,,,,5.25,
032000894,3.75,3.50,2.55,,,,6.25,5.75,
032000895,4.75,3.50,2.55,,,5.00,,,
032000896,3.75,4.50,2.55,,,,,5.00,
032000897,3.25,2.25,2.55,,,,4.00,3.25,
032000898,3.50,4.00,2.55,,,,5.25,5.25,
032000899,4.25,5.00,2.55,,,,6.75,7.00,
032000900,4.50,3.25,2.55,,,4.75,,,
032000901,2.75,6.00,2.55,,3.50,,,3.75,
032000902,2.25,,2.55,,,,,,
032000903,2.75,4.50,2.55,,,,5.50,,
032000904,2.25,5.50,2.55,,,,5.25,5.25,
032000905,2.00,2.00,2.55,,,2.00,,3.75,
032000906,3.75,1.25,2.55,,3.25,2.25,,,
032000907,5.00,4.00,2.55,,,,,,
032000908,4.00,4.25,2.55,,,,5.75,6.00,
032000909,0.75,4.50,2.55,,,4.00,,4.50,
032000910,3.00,6.00,2.55,,,,5.75,5.25,
032000911,5.25,4.00,2.55,,,5.00,,,
032000912,3.25,5.75,2.55,,,,5.75,5.25,
032000913,2.25,5.25,2.55,,,,,5.25,
032000914,3.75,2.75,2.55,,,1.50,,,
032000915,3.50,4.50,2.55,,,,,6.00,
032000916,3.00,4.25,2.55,,,,,4.75,
032000917,3.00,3.75,2.55,,,,,5.00,
032000918,4.25,4.50,2.55,4.50,,,,3.75,
032000919,0.75,3.50,2.55,,,,,5.00,
032000920,3.75,1.75,2.55,,,3.00,,5.00,
032000921,3.75,3.00,2.55,,,,,4.00,
032000922,4.25,4.75,2.55,,,,,5.75,
032000923,4.50,4.50,2.55,,,,,6.25,
032000924,2.25,4.25,2.55,,,,,5.50,
032000925,3.00,3.75,2.55,,,,3.00,4.75,
032000926,2.50,1.75,2.55,,,,,5.00,
032000927,3.50,5.75,2.55,,,,5.50,7.25,
032000928,4.00,2.25,2.55,,,,5.00,4.50,
032000929,2.00,3.75,2.55,,,2.50,,5.00,
032000930,4.50,5.00,2.55,,,,,5.00,
032000931,2.25,4.75,2.55,,,,6.00,5.25,
032000932,2.25,4.75,2.55,,,4.25,,,
032000933,3.50,5.00,2.55,,,,,6.25,
032000934,2.00,3.25,2.55,,,3.75,,4.50,
032000935,2.25,3.75,2.55,4.00,,,,,
032000936,4.25,5.00,2.55,,,,,5.75,
032000937,4.25,3.50,2.55,,,,,5.50,
032000938,3.50,4.25,2.55,,,,5.50,4.25,
032000939,4.25,4.00,2.55,,,,,5.50,
032000940,3.25,6.50,2.55,,,,5.00,5.00,
032000941,5.50,4.00,2.55,,,,,6.75,
032000942,4.75,4.50,2.55,,,,,6.25,
032000943,1.75,3.25,2.55,,,1.50,,4.25,
032000944,4.75,7.00,2.55,,,,,6.25,
032000945,1.50,2.50,2.55,,,3.50,,2.50,
032000946,3.75,5.50,2.55,,4.50,,,4.50,
032000947,3.75,3.50,2.55,,,,,6.25,
032000948,4.00,4.50,2.55,,,,,6.50,
032000949,2.25,4.50,2.55,,,3.25,,5.00,
032000950,2.00,3.50,2.55,,,2.50,,4.50,
032000951,2.00,5.50,2.55,,,,5.00,4.50,
032000952,5.00,3.25,2.55,,,,7.50,4.00,
032000953,4.00,5.25,2.55,,,,,5.00,
032000954,4.25,5.00,2.55,,,,,4.25,
032000955,2.25,,2.55,,,,6.50,,
032000956,2.25,1.50,2.55,,,2.75,,,
032000957,3.75,5.75,2.55,,,,6.75,8.25,
032000958,4.75,5.75,2.55,,,,,5.75,
032000959,1.50,5.00,2.55,,,,5.00,5.00,
032000960,1.75,2.75,2.55,,,,4.50,4.75,
032000961,4.00,4.25,2.55,,,,7.25,4.75,
032000962,4.00,3.25,2.55,,,,,5.25,
032000963,1.50,1.75,2.55,,,2.25,,3.50,
032000964,2.25,4.50,2.55,,,,5.00,5.25,
032000965,1.75,3.50,2.55,,,,5.00,5.50,
032000966,3.75,3.50,2.55,,,,,5.25,
032000967,3.00,2.00,2.55,,,4.25,,,
032000968,4.00,4.25,2.55,,,,,5.75,
032000969,2.00,2.00,2.55,,,3.00,,2.50,
032000970,3.25,6.00,2.55,,,,,7.25,
032000971,4.25,2.50,2.55,,,,,6.25,
032000973,2.75,3.25,2.55,,,,,5.00,
032000974,2.00,3.50,2.55,,,4.50,,,
032000975,5.00,4.25,2.55,,3.50,,,4.25,
032000976,2.00,1.75,2.55,,,3.75,,3.50,
032000977,1.50,4.50,2.55,,,,6.25,5.00,
032000978,3.25,4.75,2.55,4.00,,,,6.00,
032000979,3.75,4.75,2.55,,,,,5.00,
032000980,4.25,5.25,2.55,,,,,5.75,
032000981,5.00,6.25,2.55,5.25,,,,6.25,
032000982,2.50,3.00,2.55,,,2.75,,4.75,
032000983,2.25,4.25,2.55,,,,,6.00,
032000984,2.00,5.00,2.55,,,3.25,,4.75,
032000985,2.50,5.25,2.55,,,,,,
032000986,5.00,4.50,2.55,,,,8.25,6.00,
032000987,3.75,3.75,2.55,,,3.50,,,
032000988,4.25,3.25,2.55,,,,,6.50,
032000989,4.25,4.50,2.55,,,,,4.50,
032000990,2.50,5.00,2.55,,2.25,,,3.25,
032000991,2.25,3.75,2.55,,,4.25,,5.25,
032000992,4.25,4.25,2.55,,,,,5.00,
032000993,4.25,3.50,2.55,,,,,5.00,
032000994,2.75,6.75,2.55,,,,,6.75,
032000995,2.50,5.75,2.55,,,5.00,,6.00,
032000996,2.25,4.25,2.55,,,3.25,,5.00,
032000997,2.75,1.25,2.55,,,2.00,,3.75,
032000998,4.25,4.00,2.55,,,,,5.50,
032000999,2.00,2.00,2.55,,5.25,2.50,,,
032001000,1.50,1.75,2.55,,3.75,2.75,,,
032001001,2.75,6.50,2.55,,,,,5.50,
032001002,4.25,5.75,2.55,,,,,6.25,
032001003,3.75,3.25,2.55,,,,,5.50,
032001004,1.50,2.50,2.55,,,2.50,,4.50,
032001005,1.25,3.25,2.55,,,,3.00,2.75,
032001006,2.00,3.00,2.55,,,3.25,,4.25,
032001007,0.50,1.25,2.55,1.50,,,,2.50,
032001008,2.00,2.25,2.55,,,3.00,,3.00,
032001009,2.50,4.50,2.55,,,,,5.00,
032001010,4.75,4.50,2.55,,,7.50,,,
032001011,1.25,2.00,2.55,2.50,,2.50,,,
032001012,1.50,2.25,2.55,,,2.25,,3.00,
032001013,3.75,2.50,2.55,,3.75,,,1.75,
032001014,2.00,3.25,2.55,,,2.50,,5.50,
032001015,3.50,3.50,2.55,,,,,5.50,
032001016,1.50,3.25,2.55,,4.50,,,4.25,
032001017,3.50,5.00,2.55,,,,,5.75,
032001018,2.50,4.25,2.55,,,2.25,,5.00,
032001019,4.00,3.50,2.55,,,,,5.00,
032001020,4.00,2.75,2.55,,,,,5.50,
032001021,2.50,6.00,2.55,,,3.00,,4.50,
032001022,5.50,6.00,2.55,,,5.75,,,
032001023,3.75,2.75,2.55,,,,,5.50,
032001024,3.00,3.50,2.55,,,,,6.50,
032001025,4.50,5.00,2.55,,,,,8.25,
032001026,3.75,6.00,2.55,,,,7.00,6.50,
032001027,2.75,3.50,2.55,,4.00,,,4.00,
032001028,2.00,3.75,2.55,6.00,,,,5.00,
032001029,2.25,2.75,2.55,,,,,,
032001030,3.75,5.00,2.55,,,,,6.25,
032001031,2.75,3.00,2.55,,,,,6.75,
032001032,1.25,1.50,2.55,,2.50,,,2.75,
032001033,1.75,3.50,2.55,,,2.50,,3.25,
032001034,1.25,1.25,2.55,,3.00,,,1.75,
032001035,2.00,3.25,2.55,,2.00,,,4.00,
032001036,1.50,4.25,2.55,,,3.50,,3.75,
032001037,1.50,4.75,2.55,,3.75,3.25,,,
032001038,2.50,3.00,2.55,,,,,6.75,
032001039,1.75,1.75,2.55,,2.25,3.00,,,
032001040,2.75,4.00,2.55,,,3.50,,5.00,
032001041,1.75,3.00,2.55,,,2.25,,5.00,
032001042,2.75,7.00,2.55,,,,5.50,8.00,
032001043,1.75,2.25,2.55,,,4.75,,2.50,
032001044,2.25,3.50,2.55,,,3.75,,5.25,
032001045,3.75,3.75,2.55,,,,,5.50,
032001046,0.50,5.00,2.55,,,,,7.00,
032001047,2.50,4.00,2.55,,,,4.00,3.75,
032001048,2.00,2.50,2.55,,,,,5.00,
032001049,5.00,6.50,2.55,,,,,5.75,
032001050,5.00,6.50,2.55,,,,,6.00,
032001051,3.25,6.25,2.55,,,,,5.50,
032001052,3.00,4.75,2.55,,4.00,,,4.00,
032001053,2.00,2.50,2.55,,,,,5.75,
032001054,2.75,2.00,2.55,,,,,5.00,
032001055,3.25,5.50,2.55,,,,,5.50,
032001056,2.50,5.50,2.55,,3.50,,,5.00,
032001057,3.75,5.00,2.55,,,,,6.25,
032001058,4.25,5.50,2.55,,,,,5.00,
032001059,4.75,5.25,2.55,,,,,7.00,
032001060,3.50,4.50,2.55,,,,,6.75,
032001061,3.00,3.25,2.55,,,,,5.75,
032001062,2.25,5.00,2.55,,,,,,
032001063,3.25,5.50,2.55,,,,,6.25,
032001064,4.50,5.50,2.55,,,,,4.75,
032001065,2.25,4.25,2.55,,,,6.75,3.25,
032001066,2.00,3.25,2.55,3.50,,,,6.00,
032001067,3.00,4.25,2.55,,,,,5.00,
032001068,1.75,4.25,2.55,,,,,5.25,
032001069,2.75,3.75,2.55,,,,,5.25,
032001070,2.25,2.50,2.55,,,3.50,,5.75,
032001071,3.50,4.50,2.55,,,,,5.75,
032001072,1.50,4.50,2.55,,,3.00,,5.25,
032001073,3.25,5.00,2.55,,,,,6.50,
032001074,6.25,4.25,2.55,,5.25,,,,
032001075,3.00,3.75,2.55,,,3.50,,,
032001076,3.50,4.50,2.55,,,,7.00,4.00,
032001077,2.00,2.75,2.55,,3.25,,,4.00,
032001078,4.50,4.00,2.55,,,,,4.75,
032001079,1.50,3.00,2.55,,4.00,2.25,,,
032001080,3.00,5.00,2.55,6.00,4.25,,,,
032001081,2.50,3.25,2.55,,5.00,,,5.00,
032001082,2.50,3.75,2.55,,2.00,,,4.25,
032001083,3.00,4.75,2.55,,,,5.00,6.50,
032001084,4.25,3.25,2.55,,5.75,,,4.00,
032001085,2.25,2.00,2.55,,,4.00,,2.50,
032001086,2.25,1.50,2.55,,,3.25,,3.75,
032001087,2.50,3.25,2.55,,,3.00,,5.00,
032001089,2.00,2.25,2.55,,,4.00,,5.00,
032001090,3.50,5.25,2.55,,,,,6.00,
032001091,3.50,5.00,2.55,,,,,,
032001092,5.25,7.50,2.55,,,,,6.50,
032001093,3.75,4.00,2.55,,,,,4.50,
032001094,2.00,3.00,2.55,,,4.50,,5.00,
032001095,5.00,5.50,2.55,,,,,4.50,
032001096,5.00,3.75,2.55,,,5.00,,,
032001097,1.75,6.75,2.55,,,2.50,,5.00,
032001098,2.00,3.75,2.55,,,,3.00,3.75,
032001099,2.00,4.25,2.55,,,,,5.00,
032001100,1.75,1.75,2.55,,,3.50,,4.00,
032001101,4.25,5.50,2.55,,,,6.50,5.00,
032001102,2.75,5.50,2.55,,,,,7.00,
032001103,4.25,6.25,2.55,,,,,5.75,
032001105,2.75,4.50,2.55,,,,5.50,5.75,
032001106,1.25,3.00,2.55,,5.75,4.25,,,
032001107,1.75,3.25,2.55,,,4.25,,4.25,
032001108,3.50,3.25,2.55,,,6.50,,5.00,
032001109,3.25,3.25,2.55,,,,,,
032001110,2.75,4.75,2.55,,,3.50,,5.00,
032001111,2.50,3.00,2.55,,2.50,2.00,,,
032001112,2.75,4.25,2.55,,,3.50,,6.00,
032001113,2.50,4.75,2.55,,,,,5.00,
032001114,4.75,4.50,2.55,,,,,5.00,
032001115,2.75,2.75,2.55,,,,,6.75,
032001116,2.25,3.25,2.55,,,,5.50,5.75,
032001117,2.50,2.75,2.55,,,,,6.00,
032001118,4.00,3.50,2.55,,,,,5.25,
032001119,2.50,4.00,2.55,,,,5.25,4.75,
032001120,2.75,3.75,2.55,,3.25,,,3.75,
032001121,1.75,2.00,2.55,,,3.75,,5.75,
032001122,3.25,3.25,2.55,,,,,5.50,
032001123,3.25,4.50,2.55,,,,5.00,4.00,
032001124,4.25,5.00,2.55,,,,,5.50,
032001125,2.75,2.75,2.55,,,,,3.50,
032001126,4.50,3.75,2.55,,,,5.00,3.75,
032001127,4.00,6.50,2.55,,,,,5.75,
032001128,5.75,4.25,2.55,,,,,6.50,
032001129,5.00,,2.55,,,,4.00,,
032001130,3.00,4.00,2.55,,,,,4.25,
032001131,3.50,3.25,2.55,,,,,5.00,
032001132,2.50,4.00,2.55,,,3.50,,,
032001133,4.25,6.00,2.55,,,,,4.75,
032001134,2.50,4.25,2.55,,,4.00,,3.25,
032001135,3.00,4.00,2.55,,,,7.50,5.50,
032001136,2.25,7.50,2.55,,,,,6.25,
032001137,3.25,5.00,2.55,,,,,6.00,
032001138,3.75,5.25,2.55,,,4.50,,5.00,
032001139,5.25,4.50,2.55,,,,,4.75,
032001140,3.00,2.50,2.55,,,3.50,,3.50,
032001141,3.00,3.75,2.55,,,2.25,,5.00,
032001142,3.75,1.25,2.55,,,3.50,,5.00,
032001143,4.50,3.25,2.55,,,,4.50,4.25,
032001144,1.75,2.50,2.55,,,,3.00,4.00,
032001145,4.25,6.50,2.55,,,,,5.00,
032001146,2.50,3.25,2.55,,,,3.00,3.75,
032001147,5.25,6.00,2.55,,,,,5.50,
032001148,5.00,4.75,2.55,,,,,5.25,
032001149,3.25,5.75,2.55,,,,,7.00,
032001150,3.00,6.25,2.55,,,,,5.50,
032001151,1.50,4.25,2.55,,,2.75,,3.75,
032001152,4.00,4.50,2.55,,,,,5.00,
032001153,3.75,5.75,2.55,,,,6.00,6.75,
032001154,2.75,4.50,2.55,,,,,6.25,
032001155,2.25,3.50,2.55,,,,,5.25,
032001156,2.50,2.75,2.55,4.50,5.00,,,,
032001157,1.50,4.50,2.55,,,,,3.25,
032001158,4.00,5.25,2.55,,,,,6.25,
032001159,2.75,3.75,2.55,,,,,5.25,
032001160,5.00,5.75,2.55,,,,,7.00,
032001161,2.50,4.50,2.55,,,,,5.00,
032001162,6.25,6.50,2.55,,,,,7.50,
032001163,2.25,3.50,2.55,,,,,4.25,
032001164,3.50,4.50,2.55,,,,,4.50,
032001165,5.25,4.50,2.55,,,,,6.25,
032001166,2.50,5.25,2.55,,,,,6.50,
032001167,4.00,3.00,2.55,,,4.50,,4.75,
032001168,2.50,3.50,2.55,,,3.75,,3.50,
032001169,4.25,2.50,2.55,,,3.50,,3.75,
032001170,3.75,3.75,2.55,,,3.50,,5.00,
032001171,4.00,4.50,2.55,,,6.50,,5.25,
032001172,5.75,5.50,2.55,,,,,6.00,
032001173,1.50,4.00,2.55,,,3.50,,5.00,
032001174,2.25,5.25,2.55,,,,,4.25,
032001175,3.25,5.25,2.55,,,,5.75,5.50,
032001176,2.00,1.50,2.55,,,,,6.00,
032001177,3.00,4.00,2.55,,,,5.25,5.00,
032001178,2.50,3.00,2.55,,,3.00,,2.00,
032001179,2.50,3.00,2.55,,,2.50,,2.00,
032001180,2.75,6.75,2.55,,5.50,,,5.00,
032001181,2.75,4.50,2.55,,,,,4.25,
032001182,3.50,4.50,2.55,,,7.50,,5.00,
032001183,2.25,4.50,2.55,,,,,5.00,
032001184,5.75,5.00,2.55,,,,,7.50,
032001185,2.25,3.25,2.55,,,,,5.25,
032001186,2.50,4.75,2.55,,4.00,,,,
032001187,2.75,2.25,2.55,,,,,7.75,
032001188,4.75,8.00,2.55,6.00,,,,,
032001189,2.50,3.00,2.55,,4.00,,,5.00,
032001190,5.75,2.50,2.55,,,,,5.50,
032001191,4.75,6.25,2.55,,,,,7.25,
032001192,2.75,5.50,2.55,,,,,5.25,
032001193,3.25,4.75,2.55,,,,,5.50,
032001194,5.00,6.50,2.55,,,,,6.25,
032001195,5.00,5.00,2.55,,,,,5.00,
032001196,2.75,3.75,2.55,,,3.25,,2.50,
032001197,3.00,3.75,2.55,,,,,5.00,
032001198,1.50,2.00,2.55,,,3.75,,3.50,
032001199,3.75,4.00,2.55,,,,7.25,5.00,
032001200,3.50,3.75,2.55,,,,,5.00,
032001201,3.50,4.25,2.55,,,,,6.00,
032001202,2.75,5.00,2.55,,,,7.00,,
032001203,2.50,4.75,2.55,,,,,4.75,
032001204,3.00,6.50,2.55,,,,,6.00,
032001205,2.00,2.75,2.55,,,,,4.00,
032001206,4.00,4.00,2.55,,,,,6.50,
032001207,2.75,5.00,2.55,,,,,4.50,
032001208,2.75,4.50,2.55,,,,,5.75,
032001209,2.50,6.75,2.55,,,,,4.00,
032001210,2.25,2.25,2.55,,,3.25,,5.50,
032001211,2.25,6.00,2.55,,,,6.00,5.00,
032001212,3.75,4.00,2.55,,,,,6.00,
032001213,4.50,5.25,2.55,,5.25,,,,
032001214,3.00,5.00,2.55,,,,,6.25,
032001215,4.00,3.50,2.55,,,,,4.75,
032001216,3.50,7.00,2.55,,,,,6.00,
032001217,4.00,4.25,2.55,,,,,5.00,
032001218,2.25,3.75,2.55,,,,,4.00,
032001219,4.50,4.75,2.55,3.75,,,,,
032001220,4.75,5.00,2.55,,,,,5.00,
032001221,5.00,5.00,2.55,,,,7.50,5.50,
032001222,3.50,1.75,2.55,,,4.00,,3.00,
032001223,5.75,4.75,2.55,,,,,6.75,
032001224,4.50,7.00,2.55,,,,,7.75,
032001225,3.00,5.25,2.55,,,,,5.50,
032001226,2.50,3.75,2.55,,,3.75,,4.25,
032001228,3.50,3.50,2.55,,,4.00,,,
032001229,3.75,4.50,2.55,,,4.75,,5.00,
032001230,2.75,3.25,2.55,,,2.50,,2.50,
032001231,3.00,3.75,2.55,,,4.50,,4.25,
032001232,2.25,,2.55,,,,6.00,,
032001233,4.50,3.25,2.55,,,3.00,,4.00,
032001234,2.75,,2.55,,,,,3.75,
032001235,4.00,4.25,2.55,,,,,5.75,
032001236,2.75,4.50,2.55,,,,,4.75,
032001237,3.50,3.50,2.55,,,,,5.25,
032001238,3.50,4.50,2.55,,,7.00,,3.75,
032001239,2.25,4.25,2.55,,,,,5.75,
032001240,2.75,3.50,2.55,,,4.50,,4.75,
032001241,3.25,5.25,2.55,,,,,4.50,
032001242,2.25,5.25,2.55,,5.00,,,5.75,
032001243,5.75,6.50,2.55,,,5.75,,5.50,
032001244,2.75,5.00,2.55,,,,5.75,4.25,
032001245,3.25,5.00,2.55,,,,,5.25,
032001246,1.75,2.00,2.55,,2.75,4.25,,,
032001247,3.00,3.75,2.55,,,4.50,,,
032001248,2.50,3.50,2.55,,,6.00,,,
032001249,3.75,5.00,2.55,,,,,7.75,
032001250,3.50,4.00,2.55,,,,,6.00,
032001251,2.75,3.50,2.55,,,3.50,,,
032001252,3.50,1.75,2.55,,5.50,,,3.75,
032001253,1.75,6.00,2.55,,,3.75,,5.00,
032001254,2.00,4.25,2.55,,,4.75,,4.50,
032001255,3.75,3.25,2.55,,,3.75,,5.00,
032001256,2.00,3.00,2.55,,,3.00,,5.00,
032001257,1.75,4.25,2.55,,,,6.00,3.50,
032001258,4.25,2.75,2.55,,,,,4.00,
032001259,1.25,2.00,2.55,,,3.25,,3.25,
032001260,2.25,7.25,2.55,,,,5.00,7.00,
032001261,1.25,,2.55,,,,,,
032001262,2.50,5.50,2.55,,,5.50,,4.50,
032001263,0.75,2.00,2.55,2.50,,2.50,,,
032001264,1.50,2.75,2.55,,,1.75,,2.00,
032001265,2.50,5.50,2.55,,,,6.00,6.00,
032001266,1.75,3.50,2.55,,,3.25,,4.25,
032001267,2.50,3.25,2.55,,,3.50,,4.25,
032001268,3.50,5.00,2.55,,,,,5.75,
032001269,2.25,4.75,2.55,,,,3.75,6.50,
032001270,3.25,5.00,2.55,,,,,5.00,
032001271,2.75,2.50,2.55,,,,,5.50,
032001272,3.25,3.25,2.55,,5.00,,,,
032001273,2.50,3.75,2.55,,,,,6.50,
032001274,3.25,4.75,2.55,,,,,4.50,
032001275,3.00,5.25,2.55,,,,,5.25,
032001276,2.50,6.50,2.55,,6.25,,,8.25,
032001277,3.50,6.75,2.55,,,,,5.00,
032001278,2.25,4.75,2.55,,,,,5.75,
032001279,2.50,1.50,2.55,,,2.75,,5.00,
032001280,1.50,2.25,2.55,,,2.75,,,
032001281,2.25,4.50,2.55,,,,5.00,6.50,
032001282,3.00,1.75,2.55,,1.50,,,2.50,
032001283,2.25,1.25,2.55,,,3.50,,,
032001284,3.00,3.25,2.55,,2.75,2.75,,,
032001285,2.50,2.00,2.55,,,2.25,4.00,,
032001286,2.50,4.75,2.55,,6.50,,,5.75,
032001287,3.25,5.00,2.55,,,,,6.00,
032001288,1.50,2.00,2.55,,,,,,
032001289,3.25,6.25,2.55,,,,3.00,7.25,
032001291,2.00,3.50,2.55,,,,3.50,4.25,
032001292,3.00,4.25,2.55,,,,,5.00,
032001293,1.50,2.50,2.55,3.25,,,,5.00,
032001294,4.25,5.00,2.55,,,,,6.25,
032001295,1.50,5.00,2.55,,,,4.00,6.50,
032001296,1.75,3.50,2.55,,,2.25,,2.50,
032001297,2.25,2.50,2.55,,,3.25,,4.50,
032001298,2.50,3.00,2.55,,,2.25,,2.00,
032001299,2.25,2.50,2.55,,,2.75,2.50,,
032001300,3.25,5.50,2.55,,,,,5.00,
032001301,4.50,4.00,2.55,,,,,5.50,
032001302,2.75,3.50,2.55,,,,,5.00,
032001303,2.25,3.50,2.55,,3.00,,,4.00,
032001304,2.25,4.00,2.55,,,1.75,,3.50,
032001305,2.00,5.25,2.55,,,,,4.25,
032001306,2.75,2.75,2.55,,,,,6.25,
032001307,3.50,4.75,2.55,,,,,6.00,
032001308,2.00,2.50,2.55,,,,,4.50,
032001309,3.00,3.00,2.55,,,,,5.00,
032001310,2.00,,2.55,,,,,,
032001311,1.75,4.00,2.55,,,,,5.00,
032001312,2.25,5.25,2.55,,,,,7.00,
032001313,3.75,4.25,2.55,,,,,5.75,
032001314,2.75,5.50,2.55,,,,,6.00,
032001315,2.00,2.50,2.55,,,4.00,,5.00,
032001316,6.25,5.25,2.55,,,3.50,,,
032001317,2.75,4.50,2.55,,,,,6.50,
032001318,2.50,2.50,2.55,,5.50,,,5.75,
032001319,3.75,5.00,2.55,,,,,5.50,
032001320,2.75,4.75,2.55,,,,,5.50,
032001321,2.50,3.75,2.55,,,2.50,,3.25,
032001322,2.25,3.25,2.55,,6.75,,,6.00,
032001323,1.00,5.25,2.55,,,3.75,,5.00,
032001324,4.50,5.50,2.55,,,,,6.25,
032001325,2.75,3.50,2.55,,,,,6.50,
032001326,1.25,6.00,2.55,,,,,5.00,
032001327,3.00,4.50,2.55,,,,,6.00,
032001328,2.00,2.00,2.55,,,,,6.75,
032001329,2.25,5.50,2.55,,,,,5.75,
032001330,3.50,3.00,2.55,,,,,6.50,
032001331,3.75,4.25,2.55,,,,,5.25,
032001332,2.00,5.00,2.55,,,,,6.50,
032001333,4.00,4.50,2.55,,,,,6.25,
032001334,2.00,4.00,2.55,,,,,5.00,
032001335,2.25,2.50,2.55,,,2.75,,3.75,
032001336,2.75,5.50,2.55,,,,,5.00,
032001337,4.00,6.25,2.55,,,,,8.00,
032001338,3.25,3.25,2.55,,,3.00,,3.00,
032001339,3.00,2.50,2.55,,,,,5.25,
032001340,2.50,4.75,2.55,,,3.00,,3.50,
032001341,3.25,3.25,2.55,4.50,,,,,
032001342,3.00,6.25,2.55,,,,,6.00,
032001343,3.00,4.00,2.55,,,,,5.25,
032001344,3.25,5.00,2.55,,,,,5.00,
032001345,2.00,3.50,2.55,,,,,4.00,
032001346,2.75,4.25,2.55,,,,,5.25,
032001347,2.00,2.75,2.55,,,3.25,,4.00,
032001348,2.00,3.00,2.55,,,2.50,,3.75,
032001349,5.00,5.25,2.55,,,,,6.75,
032001350,2.00,3.00,2.55,,,2.50,,4.25,
032001351,3.75,3.50,2.55,,,,,5.50,
032001352,1.75,2.75,2.55,,,4.00,,3.25,
032001353,3.50,2.50,2.55,,,,,5.00,
032001354,2.75,4.50,2.55,,,3.00,,3.50,
032001355,2.50,4.75,2.55,,,,6.50,6.00,
032001356,3.25,6.75,2.55,,,,,7.00,
032001357,4.00,4.00,2.55,,,,,5.75,
032001358,3.50,4.50,2.55,,,,,5.50,
032001359,0.50,4.00,2.55,,,,,,
032001360,3.25,4.00,2.55,,,,,5.00,
032001361,3.00,5.25,2.55,,,,,5.00,
032001362,3.50,3.75,2.55,,,3.75,,,
032001363,3.00,,2.55,,,,,,
032001364,3.00,5.75,2.55,,,,,5.00,
032001365,3.25,4.75,2.55,,,,,,
032001366,4.75,5.00,2.55,,,6.25,,5.00,
032001367,3.50,4.25,2.55,,,,,6.50,
032001368,1.75,5.50,2.55,,,,6.75,5.75,
032001369,2.00,2.00,2.55,,2.75,,,4.00,
032001370,4.00,4.75,2.55,,,,,6.50,
032001371,2.25,,2.55,,,,,,
032001372,4.25,6.25,2.55,,,,,5.00,
032001373,3.25,,2.55,,,,,4.25,
032001374,3.00,5.00,2.55,,,,,6.50,
032001375,2.25,2.00,2.55,,3.75,3.25,,,
032001376,1.50,3.25,2.55,,,,7.25,,
032001377,6.00,4.25,2.55,,5.25,,,,
032001378,3.75,5.50,2.55,,,,,6.25,
032001379,3.25,3.75,2.55,,,3.25,,4.50,
032001380,2.50,5.00,2.55,,,4.50,,5.25,
032001381,3.75,3.25,2.55,,,,,5.00,
032001382,4.00,4.50,2.55,,,,,5.50,
032001383,0.75,4.00,2.55,,,,5.75,4.50,
032001384,1.50,5.00,2.55,,,,2.50,,
032001385,1.25,3.75,2.55,,,,6.00,5.00,
032001386,4.75,3.25,2.55,,,,,6.00,
032001387,4.00,7.00,2.55,,,,,7.00,
032001388,3.75,4.00,2.55,,,,,3.50,
032001389,4.75,5.00,2.55,,,,,5.75,
032001390,2.50,2.25,2.55,,,,,4.25,
032001391,1.75,5.00,2.55,,,5.50,,4.75,
032001392,4.50,6.25,2.55,,,,,5.25,
032001393,4.50,3.00,2.55,,,,,5.00,
032001394,2.25,4.75,2.55,,,,,7.50,
032001395,1.50,6.25,2.55,,,2.50,,2.50,
032001396,4.25,5.50,2.55,,,,,4.75,
032001397,3.00,6.25,2.55,,,,,5.75,
032001398,3.00,5.75,2.55,,,,,6.75,
032001399,2.50,4.75,2.55,,,,,6.50,
032001400,1.25,4.25,2.55,,,,2.50,,
032001401,1.75,2.75,2.55,,,2.75,,4.25,
032001402,1.75,3.50,2.55,,4.25,,,6.00,
032001403,2.25,4.25,2.55,,,,,,
032001404,4.50,5.25,2.55,,,,,5.00,
032001405,2.75,4.25,2.55,,,,,5.25,
032001406,2.00,4.25,2.55,,,4.00,,5.00,
032001407,3.25,5.00,2.55,5.00,2.75,,,,
032001408,2.75,3.00,2.55,,,,,4.25,
032001409,2.00,2.50,2.55,,,2.75,,4.75,
032001410,3.25,2.50,2.55,,,,,5.50,
032001411,1.75,5.50,2.55,,,,6.00,6.50,
032001412,1.25,4.00,2.55,,,2.25,,2.50,
032001413,1.25,4.25,2.55,,3.00,,,3.50,
032001414,4.25,4.75,2.55,,,,,5.00,
032001415,2.75,4.75,2.55,,,,,5.50,
032001416,2.75,5.25,2.55,,,,5.75,5.25,
032001417,1.25,4.25,2.55,,,2.50,,5.25,
032001418,2.50,4.00,2.55,,,,,,
032001419,3.00,3.00,2.55,,,,,5.00,
032001420,3.00,2.00,2.55,,,2.75,,3.50,
032001421,6.00,7.50,2.55,,,7.50,,6.50,
032001422,2.75,3.75,2.55,,,,5.50,4.25,
032001423,5.25,5.25,2.55,,,,,5.00,
032001424,1.50,3.50,2.55,,,,,3.75,
032001425,3.50,3.50,2.55,,,,,4.75,
032001426,3.75,6.25,2.55,,,,,6.00,
032001427,3.50,4.50,2.55,,,,,6.25,
032001428,0.75,4.00,2.55,,,2.50,,4.50,
032001429,3.75,5.25,2.55,,,,,4.50,
032001430,3.50,4.50,2.55,,,,,6.00,
032001431,1.25,4.00,2.55,,,,,4.00,
032001432,4.50,4.50,2.55,,,4.25,,4.00,
032001433,3.25,5.50,2.55,,,,,7.25,
032001434,1.75,4.00,2.55,,,3.75,,5.00,
032001435,2.00,4.75,2.55,,,,6.75,5.00,
032001436,2.75,3.25,2.55,,,,,3.25,
032001437,2.25,6.00,2.55,,3.75,,,5.00,
032001438,2.50,5.00,2.55,,,,,5.00,
032001439,2.25,3.50,2.55,,,,,4.25,
032001440,3.50,6.00,2.55,,,,7.00,5.00,
032001441,2.50,5.50,2.55,,,,,3.75,
032001442,3.50,2.75,2.55,,,5.25,,4.00,
032001443,2.25,4.25,2.55,,,,,5.00,
032001444,1.50,2.75,2.55,,,4.00,,4.75,
032001445,2.25,4.75,2.55,,,4.00,,5.50,
032001446,1.50,3.25,2.55,,,2.50,,2.50,
032001447,2.00,1.50,2.55,,,4.50,,5.25,
032001448,2.25,5.00,2.55,,,,4.75,4.00,
032001449,1.25,3.25,2.55,,5.50,,,4.50,
032001450,0.75,2.25,2.55,5.25,,,6.50,,
032001451,1.50,3.00,2.55,,,2.75,,2.75,
032001452,2.50,4.50,2.55,,,,,5.00,
032001453,3.75,3.00,2.55,,,4.00,,4.50,
032001454,1.25,1.75,2.55,,,,1.25,3.50,
032001455,1.50,5.25,2.55,,,3.50,,5.50,
032001456,3.25,4.00,2.55,,,,,5.75,
032001457,2.00,5.00,2.55,,6.50,,,3.75,
032001458,0.50,4.00,2.55,2.50,,,,3.75,
032001459,5.25,2.75,2.55,5.50,,,,,
032001460,3.75,4.25,2.55,,,,,3.25,
032001461,3.50,5.75,2.55,,,,,7.75,
032001462,1.25,4.00,2.55,,,2.00,,3.50,
032001463,2.75,5.75,2.55,,,,,5.50,
032001464,2.25,5.00,2.55,,5.75,,,6.25,
032001465,6.25,5.50,2.55,,6.50,,,,
032001466,4.25,5.75,2.55,,,,,6.75,
032001467,1.75,5.00,2.55,,,,5.00,6.00,
032001468,3.75,4.50,2.55,,,,,4.50,
032001469,4.25,5.75,2.55,,,,,5.50,
032001470,3.00,2.00,2.55,,,1.75,,3.50,
032001471,1.75,3.50,2.55,,,,6.50,5.50,
032001472,2.00,5.50,2.55,,,,6.50,5.00,
032001473,3.25,5.25,2.55,,,,,5.25,
032001474,2.25,3.75,2.55,,,2.50,,,
032001475,3.75,3.25,2.55,,,3.50,,3.75,
032001476,1.50,4.50,2.55,,,3.50,,5.50,
032001477,2.00,5.25,2.55,,,,6.00,6.00,
032001478,2.75,2.75,2.55,,,,4.25,,
032001479,1.75,2.25,2.55,,,4.75,,5.00,
032001480,2.00,4.50,2.55,,,3.50,,3.75,
032001481,3.75,5.75,2.55,,,,,6.25,
032001482,3.75,4.25,2.55,,,,,4.50,
032001483,4.50,3.75,2.55,,6.00,3.75,,,
032001484,1.25,1.75,2.55,,,3.25,,1.75,
032001485,3.00,4.50,2.55,,,,,5.50,
032001486,4.00,5.00,2.55,,,,,5.00,
032001487,5.25,2.50,2.55,,,2.25,,5.25,
032001488,1.75,5.00,2.55,,,,3.25,4.50,
032001489,3.75,,2.55,,,3.25,,,
032001490,2.00,4.25,2.55,,,,,5.00,
032001491,3.25,3.00,2.55,,,3.50,,3.00,
032001492,3.25,4.50,2.55,,,,,7.25,
032001493,1.25,3.25,2.55,,,2.00,,4.00,
032001494,4.75,4.25,2.55,,,,,8.25,
032001495,2.25,3.00,2.55,,,4.50,,5.25,
032001496,3.00,4.25,2.55,,,4.00,,,
032001497,4.75,4.00,2.55,,,,,5.00,
032001498,3.25,5.00,2.55,,,,,5.00,
032001499,3.00,4.00,2.55,,,4.50,,5.00,
032001500,4.50,3.75,2.55,,,,,5.75,
032001501,3.25,3.25,2.55,,,5.00,,4.50,
032001502,2.00,4.00,2.55,,6.25,,,5.00,
032001503,2.00,5.25,2.55,,,,,6.00,
032001504,2.00,3.50,2.55,,,4.25,,5.75,
032001505,3.25,4.00,2.55,,,,,5.00,
032001506,2.25,5.50,2.55,,,4.00,,5.00,
032001507,1.50,5.00,2.55,,,,5.00,4.50,
032001508,4.50,5.00,2.55,,,,,6.75,
032001509,3.25,5.25,2.55,,,,,5.25,
032001510,3.00,5.25,2.55,,,,,6.25,
032001511,2.75,5.50,2.55,,,,5.00,4.50,
032001512,2.75,3.75,2.55,,,,,5.00,
032001513,2.25,4.75,2.55,,,3.75,,6.00,
032001514,4.00,,2.55,,,3.50,,,
032001515,1.25,3.25,2.55,,,3.75,,5.25,
032001516,2.25,2.25,2.55,,,3.00,,,
032001517,2.50,3.50,2.55,,,,,5.00,
032001518,4.75,4.00,2.55,,,,,7.00,
032001519,3.50,4.00,2.55,,,4.50,,,
032001520,1.50,1.25,2.55,,3.75,,,2.00,
032001521,1.75,4.00,2.55,,,,,6.25,
032001522,4.25,4.00,2.55,,,,,6.75,
032001523,4.50,3.50,2.55,,,,,7.75,
032001524,3.25,4.00,2.55,4.00,,,5.00,,
032001525,3.50,5.75,2.55,,,,7.75,4.50,
032001526,3.25,4.25,2.55,,,,,5.25,
032001527,4.25,4.25,2.55,,,,,7.50,
032001528,2.00,5.50,2.55,4.50,5.00,,,,
032001529,3.00,1.50,2.55,,,2.50,,1.75,
032001530,4.50,2.75,2.55,,,1.50,,3.50,
032001531,4.25,6.75,2.55,,,,,6.25,
032001532,3.75,3.50,2.55,,,3.50,,5.75,
032001533,2.75,6.50,2.55,,,6.00,,6.25,
032001534,1.50,3.50,2.55,,,,5.00,6.25,
032001535,5.50,5.50,2.55,,,,,6.25,
032001536,3.25,4.50,2.55,,,2.00,,3.75,
032001537,4.50,5.75,2.55,,,4.00,,5.00,
032001538,2.25,1.75,2.55,,,3.50,,1.50,
032001539,2.00,2.75,2.55,,,,,5.00,
032001540,4.75,5.00,2.55,,,,,7.25,
032001541,2.50,2.50,2.55,,,,,5.25,
032001542,3.00,5.75,2.55,,,,,4.75,
032001543,2.00,2.25,2.55,,,,,5.75,
032001544,3.50,4.00,2.55,,,,5.50,5.00,
032001545,1.50,4.25,2.55,,,3.00,,6.00,
032001546,2.50,5.25,2.55,,,,,6.25,
032001547,2.75,5.00,2.55,,,2.00,,,
032001548,4.50,,2.55,,,,,4.25,
032001549,3.50,5.50,2.55,,,,6.50,5.25,
032001550,2.75,3.75,2.55,,,3.25,,4.00,
032001551,3.25,1.00,2.55,,,2.50,,4.00,
032001552,2.75,5.00,2.55,,,,,4.25,
032001553,4.25,4.00,2.55,,,,,5.25,
032001554,3.00,4.75,2.55,,,,,6.00,
032001555,3.50,3.75,2.55,,,,,6.25,
032001556,2.75,3.00,2.55,,,,,4.75,
032001557,3.00,4.00,2.55,,,,,4.25,
032001558,4.00,3.50,2.55,,,,,6.25,
032001559,3.50,2.25,2.55,,,,,5.50,
032001560,1.25,4.50,2.55,,,,5.00,5.50,
032001561,3.50,1.25,2.55,,,2.25,,3.75,
032001562,2.75,4.50,2.55,,,2.75,,2.50,
032001563,3.50,2.25,2.55,,,2.50,,3.00,
032001564,4.00,3.25,2.55,,,2.75,,4.75,
032001565,6.25,4.50,2.55,4.50,,,,,
032001566,4.00,3.50,2.55,,,3.75,,,
032001567,3.25,5.00,2.55,,,,,5.25,
032001568,1.75,3.00,2.55,,,3.25,,4.00,
032001569,3.25,4.50,2.55,,,,,5.50,
032001571,2.00,2.50,2.55,,,,,7.50,
032001572,2.75,4.25,2.55,,,,7.25,6.25,
032001573,4.00,0.75,2.55,5.75,,2.25,,,
032001574,1.50,4.25,2.55,,4.50,2.50,,,
032001575,0.75,3.25,2.55,,4.50,,,2.25,
032001576,1.50,3.75,2.55,,,,3.25,6.25,
032001577,2.00,3.50,2.55,,3.75,,,5.50,
032001578,4.00,3.00,2.55,,,4.00,,3.75,
032001579,2.25,4.25,2.55,,5.75,,,5.50,
032001580,1.75,3.75,2.55,,,2.00,,5.25,
032001581,1.75,2.75,2.55,,,,2.25,2.50,
032001582,1.25,,2.55,,,,,,
032001583,2.75,6.25,2.55,,,,,5.75,
032001584,1.75,3.00,2.55,,,4.50,,5.25,
032001585,2.00,4.25,2.55,,,,7.00,5.75,
032001586,2.75,3.75,2.55,,,,,4.50,
032001587,1.75,2.25,2.55,,5.00,,,3.25,
032001588,3.50,2.75,2.55,,,,6.25,4.75,
032001589,2.75,2.75,2.55,,,,,5.50,
032001590,2.75,5.00,2.55,,,,,5.25,
032001591,2.50,3.25,2.55,,,,5.50,3.25,
032001592,2.50,2.75,2.55,,,4.50,,3.75,
032001593,2.25,5.00,2.55,,,,5.50,6.00,
032001594,2.75,5.25,2.55,,,5.25,,4.00,
032001595,2.50,4.50,2.55,,,,5.50,4.25,
032001596,3.75,3.00,2.55,,,,,5.25,
032001597,2.75,5.50,2.55,,,,,6.25,
032001598,3.25,2.50,2.55,,,,,4.50,
032001599,1.75,4.00,2.55,,2.50,,,4.00,
032001600,1.75,3.75,2.55,,,4.50,,3.00,
032001601,3.00,3.00,2.55,,,,,5.25,
032001602,2.50,,2.55,,,,,,
032001603,3.25,2.50,2.55,,,,,7.25,
032001604,3.50,5.50,2.55,,,,,5.50,
032001605,1.25,1.75,2.55,,,,2.75,2.50,
032001606,2.50,3.25,2.55,,,,1.25,4.00,
032001607,3.50,3.00,2.55,,,,,,
032001608,5.25,4.75,2.55,4.25,,,,,
032001609,2.50,3.50,2.55,,,,2.75,5.00,
032001610,3.50,2.75,2.55,,,,,5.50,
032001611,2.25,6.00,2.55,,,4.50,,5.75,
032001612,3.25,2.75,2.55,,,,,3.25,
032001613,2.25,3.50,2.55,,,,,5.00,
032001614,3.75,2.25,2.55,,,,,6.25,
032001615,3.75,3.25,2.55,,,,,5.50,
032001616,1.75,2.50,2.55,,3.25,,,3.25,
032001617,3.00,3.00,2.55,,,,,2.75,
032001618,1.50,3.00,2.55,,,,,4.50,
032001619,3.25,5.00,2.55,,,,,5.00,
032001620,3.00,2.50,2.55,,3.75,,,5.25,
032001621,4.75,2.50,2.55,,,2.50,,4.25,
032001622,4.75,3.50,2.55,,,3.00,,4.25,
032001623,2.00,3.00,2.55,,,1.25,,3.75,
032001624,2.00,1.50,2.55,,,3.50,,3.00,
032001625,3.00,7.00,2.55,,,,,5.00,
032001626,3.25,3.25,2.55,,,,,5.75,
032001627,3.75,6.25,2.55,,,,,5.00,
032001628,4.00,3.75,2.55,,,,,5.50,
032001629,3.00,,2.55,,,,,4.00,
032001630,3.75,3.50,2.55,,,,,5.25,
032001631,4.75,6.00,2.55,,,,,8.75,
032001632,1.25,4.25,2.55,,,2.75,,3.75,
032001633,2.50,2.75,2.55,,,3.75,,4.25,
032001634,1.75,4.00,2.55,,,2.75,,,
032001635,3.25,6.00,2.55,,,,,6.00,
032001636,3.75,4.75,2.55,,,,,5.00,
032001637,5.50,4.00,2.55,,,,,5.25,
032001638,2.25,2.50,2.55,,4.75,,,3.00,
032001639,2.00,2.00,2.55,,,3.50,,3.50,
032001640,4.00,4.50,2.55,,,3.50,,4.25,
032001641,3.25,5.75,2.55,,,4.00,,5.00,
032001642,2.25,3.00,2.55,,,,,5.50,
032001643,4.50,4.75,2.55,,,,,5.50,
032001644,2.25,5.50,2.55,,,,5.75,4.00,
032001645,4.25,4.75,2.55,,,,,5.50,
032001646,2.75,4.25,2.55,,,,,5.50,
032001647,2.50,3.75,2.55,,,3.25,,4.50,
032001648,2.25,2.75,2.55,,,,,4.50,
032001649,2.00,2.25,2.55,,,,,4.00,
032001650,3.00,4.25,2.55,,4.00,,,4.00,
032001651,2.50,4.00,2.55,,3.50,,,5.00,
032001652,2.25,3.50,2.55,,,,,5.00,
032001653,2.50,3.25,2.55,,,,2.00,5.00,
032001654,5.50,4.00,2.55,,,,,7.25,
032001655,2.75,5.00,2.55,,,,,7.00,
032001656,5.75,2.00,2.55,,4.75,,,,
032001657,2.00,6.00,2.55,,,,3.00,6.75,
032001658,4.00,5.25,2.55,,,,,6.50,
032001659,1.75,4.75,2.55,,6.50,,,4.75,
032001660,3.00,3.00,2.55,,,,,5.00,
032001661,1.25,3.75,2.55,2.50,,3.00,,,
032001662,2.25,2.25,2.55,,,,,5.00,
032001663,2.75,2.75,2.55,,,,3.50,4.00,
032001664,3.25,3.25,2.55,,,,,3.50,
032001665,2.75,4.75,2.55,,,,,5.25,
032001666,2.00,1.75,2.55,3.25,,,,,
032001667,2.25,1.25,2.55,2.75,,,,3.00,
032001668,3.00,1.75,2.55,,,,,5.00,
032001669,2.25,2.50,2.55,,,,,5.00,
032001670,1.50,2.50,2.55,,,3.75,,2.75,
032001671,2.25,3.50,2.55,,,,3.75,,
032001672,3.75,3.00,2.55,,,,,4.75,
032001673,3.00,2.25,2.55,,,,,5.75,
032001674,3.75,5.25,2.55,,,,,5.50,
032001675,1.25,2.25,2.55,,4.00,,,4.00,
032001676,3.75,4.00,2.55,,5.75,,,,
032001677,2.50,5.00,2.55,,,4.00,,4.25,
032001678,3.25,4.50,2.55,,,,,6.50,
032001679,1.75,3.50,2.55,,,,,,
032001680,1.75,3.75,2.55,,,2.75,,3.50,
032001681,3.25,3.75,2.55,,,,,5.25,
032001682,2.25,3.00,2.55,,,,,5.75,
032001683,2.25,5.75,2.55,,,,6.75,5.00,
032001684,2.75,4.50,2.55,,,,,4.50,
032001685,3.75,3.25,2.55,,,,,6.50,
032001686,2.50,4.75,2.55,,,3.00,,4.00,
032001687,4.25,5.75,2.55,,,,,5.75,
032001688,2.25,,2.55,,,,5.25,3.50,
032001689,2.50,3.50,2.55,,,,3.25,5.50,
032001690,3.00,2.25,2.55,,,2.50,,4.50,
032001691,3.25,3.25,2.55,,,4.25,,4.00,
032001692,0.25,3.00,2.55,,,1.50,,2.25,
032001693,2.75,1.25,2.55,,,2.25,,5.75,
032001694,3.00,2.50,2.55,,,2.50,,5.50,
032001695,3.50,4.50,2.55,,,,,5.25,
032001696,2.75,3.75,2.55,,,,,5.00,
032001697,3.25,5.50,2.55,,,,,6.25,
032001698,2.00,5.75,2.55,,,,,5.25,
032001699,3.00,4.00,2.55,,,,4.00,5.00,
032001700,2.75,4.75,2.55,,6.75,,,5.25,
032001701,3.25,,2.55,,,,,,
032001702,3.75,3.00,2.55,,,,,5.00,
032001703,2.25,2.75,2.55,,4.25,,,4.50,
032001704,2.50,5.50,2.55,,,,5.25,4.50,
032001705,4.00,3.25,2.55,,,,,5.75,
032001706,1.50,2.25,2.55,,,2.50,,2.00,
032001707,2.25,5.25,2.55,,,,,,
032001708,1.50,3.00,2.55,,,,,,
032001709,3.75,4.25,2.55,,,,,4.25,
032001710,2.00,3.00,2.55,,,3.50,,4.00,
032001711,4.50,6.00,2.55,,,,,6.75,
032001713,2.25,4.25,2.55,3.50,,,,5.00,
032001714,2.50,2.25,2.55,,,4.25,,3.75,
032001715,1.75,4.50,2.55,,,2.50,,3.00,
032001716,1.50,3.00,2.55,,4.25,4.00,,,
032001717,3.00,2.00,2.55,,4.50,3.25,,,
032001718,4.25,3.25,2.55,,,,,5.75,
032001719,2.75,2.75,2.55,,,2.25,,,
032001720,3.75,3.75,2.55,,4.50,,,4.75,
032001721,3.00,1.75,2.55,,,1.75,,3.75,
032001722,3.25,6.00,2.55,,,,,6.75,
032001723,2.75,4.50,2.55,,6.75,,,5.25,
032001724,5.50,5.00,2.55,,5.25,,,,
032001725,2.50,2.75,2.55,,,,,5.00,
032001726,3.00,5.25,2.55,,,,5.50,5.00,
032001727,3.75,5.00,2.55,,,,,3.75,
032001728,2.25,2.75,2.55,,,3.50,,6.00,
032001729,2.75,4.50,2.55,,,,,5.50,
032001730,3.00,5.50,2.55,4.75,,,,4.25,
032001731,2.25,4.00,2.55,,,,3.50,4.00,
032001732,2.50,3.50,2.55,,,2.50,,3.75,
032001733,1.50,1.75,2.55,,,2.25,,3.00,
032001734,2.50,5.00,2.55,,,,5.00,4.50,
032001736,3.25,4.50,2.55,,,3.25,,4.50,
032001737,3.25,4.00,2.55,,,2.50,,4.50,
032001738,3.00,4.75,2.55,,,,3.25,5.00,
032001739,2.75,6.25,2.55,,,,,3.75,
032001740,3.25,4.50,2.55,,,,,5.75,
032001741,2.00,4.75,2.55,,,3.00,,5.00,
032001742,3.25,4.00,2.55,,,,,5.00,
032001743,3.50,4.25,2.55,,,,,5.75,
032001744,2.75,6.75,2.55,,,,4.25,5.00,
032001745,3.25,3.75,2.55,,,,2.00,3.75,
032001746,3.50,5.00,2.55,,,,,6.00,
032001747,3.75,3.25,2.55,,,,,4.50,
032001748,4.25,4.00,2.55,,,,,4.25,
032001749,3.50,3.50,2.55,,,,,4.00,
032001750,4.25,5.00,2.55,,,,,6.00,
032001751,2.00,6.25,2.55,,,,,6.75,
032001752,3.00,4.50,2.55,,,,,5.00,
032001753,4.00,5.50,2.55,,,,,5.00,
032001754,1.50,5.25,2.55,,,,,3.75,
032001755,2.00,3.00,2.55,,,3.50,,4.50,
032001756,1.25,0.50,2.55,,3.25,2.50,,,
032001757,4.00,5.25,2.55,,,,,5.50,
032001758,1.75,5.50,2.55,,,,,5.25,
032001759,4.00,4.25,2.55,,,,,6.25,
032001760,4.25,4.75,2.55,,,,,5.00,
032001761,4.25,5.75,2.55,,,,,7.75,
032001762,3.75,3.50,2.55,,,4.25,,3.00,
032001763,2.00,3.00,2.55,,,3.75,,3.50,
032001764,2.50,3.25,2.55,,,3.00,,3.75,
032001765,1.25,5.00,2.55,,,3.50,,5.50,
032001766,3.00,3.75,2.55,,,,6.25,4.25,
032001767,4.25,6.75,2.55,,,,,5.50,
032001768,2.25,4.25,2.55,,,,,,
032001769,3.75,4.75,2.55,,,,,5.00,
032001770,3.75,6.00,2.55,,,,,7.75,
032001771,3.25,3.75,2.55,,,4.25,,5.00,
032001772,3.75,4.50,2.55,,,,,5.50,
032001773,2.75,4.00,2.55,,6.00,,,5.00,
032001774,3.50,4.00,2.55,,,1.50,,5.00,
032001775,4.25,6.50,2.55,,,,,6.75,
032001776,2.25,5.25,2.55,,,3.25,,4.50,
032001777,2.25,4.50,2.55,,,,2.25,5.50,
032001778,2.50,4.00,2.55,,,,,6.00,
032001779,4.50,5.75,2.55,,,4.00,,6.50,
032001780,3.75,3.75,2.55,,,,,4.00,
032001781,3.50,5.00,2.55,,,,,5.75,
032001783,4.00,5.00,2.55,,,,,6.75,
032001784,3.25,5.00,2.55,,,,,4.00,
032001785,2.25,4.75,2.55,,,,5.00,5.00,
032001786,2.50,5.25,2.55,,,4.00,,5.25,
032001787,5.00,7.75,2.55,,,,,8.00,
032001788,4.25,4.75,2.55,,,,,6.50,
032001789,1.50,4.00,2.55,,,2.50,,3.50,
032001790,2.25,2.75,2.55,,4.50,2.00,,,
032001791,2.00,1.25,2.55,,,3.25,,5.00,
032001792,2.25,3.75,2.55,,,,,6.25,
032001793,2.50,4.50,2.55,,,,5.25,2.50,
032001794,2.25,1.25,2.55,,3.75,2.75,,,
032001795,1.25,5.25,2.55,,4.50,,,4.00,
032001796,4.25,6.00,2.55,,,,,5.50,
032001797,3.00,5.00,2.55,,,,2.50,3.75,
032001798,2.50,3.25,2.55,,,,,4.00,
032001799,4.00,3.25,2.55,,,,,5.75,
032001800,2.50,5.75,2.55,,,,,5.00,
032001801,3.50,5.50,2.55,,,,3.25,5.75,
032001802,5.00,2.75,2.55,6.00,,,,,
032001803,2.75,3.25,2.55,,6.50,,,4.25,
032001804,1.50,3.25,2.55,,,,,3.25,
032001805,2.75,4.00,2.55,,,,,4.00,
032001806,3.00,4.25,2.55,,,,,7.00,
032001807,4.50,4.75,2.55,,,,,5.25,
032001808,2.75,5.00,2.55,,,,3.25,5.25,
032001809,3.25,3.75,2.55,,,,,5.50,
032001810,3.25,5.50,2.55,,,,,5.00,
032001811,1.75,6.50,2.55,,,,,6.50,
032001812,2.75,6.50,2.55,,,,,5.50,
032001813,3.00,4.50,2.55,,,,,5.50,
032001814,2.50,3.75,2.55,,,,,4.75,
032001815,3.75,4.00,2.55,,,,,5.25,
032001816,2.25,1.50,2.55,,,3.50,,3.50,
032001817,2.00,3.25,2.55,,,,,4.50,
032001818,3.25,3.75,2.55,,,,6.25,4.75,
032001819,3.75,5.75,2.55,,,,,6.50,
032001820,2.50,4.50,2.55,,,,,5.00,
032001821,3.25,1.25,2.55,,,3.25,,3.75,
032001822,3.25,,2.55,,,,,,
032001823,3.25,3.75,2.55,,,,,5.50,
032001824,4.00,4.00,2.55,,,,,6.00,
032001825,2.75,4.75,2.55,,,,,4.50,
032001826,2.25,3.25,2.55,,,,5.00,3.25,
032001827,4.00,5.00,2.55,,,,,4.00,
032001828,2.75,7.00,2.55,,,,,5.00,
032001829,3.00,4.50,2.55,,6.25,,,5.75,
032001830,2.25,3.50,2.55,,,,,4.25,
032001831,3.00,4.00,2.55,,2.50,,,5.50,
032001832,2.75,7.00,2.55,,,,,4.50,
032001833,3.50,3.50,2.55,,,,,,
032001834,3.25,3.25,2.55,,,2.50,,,
032001835,2.25,3.75,2.55,,,3.50,,4.00,
032001836,3.00,4.00,2.55,,,3.50,,3.25,
032001837,3.75,3.75,2.55,,,,,6.00,
032001838,2.50,4.25,2.55,,,,,6.00,
032001839,1.75,3.25,2.55,3.00,,,,3.75,
032001840,0.25,3.25,2.55,,,4.00,,4.00,
032001841,1.25,3.75,2.55,,,3.75,,4.50,
032001842,3.25,5.50,2.55,,,,7.00,5.50,
032001843,3.75,5.75,2.55,,,4.00,,4.75,
032001844,3.25,4.00,2.55,,,3.50,,5.25,
032001845,3.75,3.25,2.55,,,,,5.00,
032001846,4.00,5.25,2.55,,,,,5.50,
032001847,2.75,3.25,2.55,,,,5.00,5.25,
032001848,4.00,7.00,2.55,,5.50,,,,
032001849,3.00,3.25,2.55,,,,,4.00,
032001850,1.25,2.25,2.55,,,4.00,,4.00,
032001851,3.50,4.25,2.55,,,,,5.75,
032001852,4.25,5.00,2.55,,,,,6.00,
032001853,4.25,6.25,2.55,,,,,6.50,
032001854,2.25,3.25,2.55,,,,,5.75,
032001855,3.00,5.50,2.55,,,2.75,,6.25,
032001856,2.75,3.50,2.55,,,2.50,,,
032001857,3.25,2.50,2.55,,,,,4.75,
032001858,1.50,2.50,2.55,,,3.25,,4.25,
032001859,3.00,3.75,2.55,,,,,6.25,
032001860,2.00,5.00,2.55,,,,5.50,4.50,
032001861,3.75,5.50,2.55,,,,,6.75,
032001862,3.75,3.50,2.55,,3.50,,,5.50,
032001863,1.75,4.25,2.55,,,,,5.00,
032001864,1.25,3.25,2.55,,,2.00,,3.25,
032001865,4.00,6.00,2.55,,,,,5.00,
032001866,3.25,4.50,2.55,,,,,5.00,
032001867,2.25,6.25,2.55,,,,,5.25,
032001868,2.00,4.00,2.55,,,4.50,,4.25,
032001869,3.75,6.50,2.55,,,,3.50,5.25,
032001870,3.50,5.75,2.55,,,,,5.75,
032001871,2.50,2.75,2.55,,,3.00,,4.00,
032001872,2.25,4.25,2.55,,,,5.00,4.50,
032001873,2.50,5.75,2.55,,,,4.00,6.25,
032001874,2.50,5.50,2.55,,,,,5.50,
032001875,4.25,6.50,2.55,,,,,5.50,
032001876,3.00,6.50,2.55,,,,4.50,6.25,
032001877,3.00,4.75,2.55,,,3.50,,8.00,
032001878,2.75,3.50,2.55,,,,,6.00,
032001879,2.75,4.25,2.55,,,,,4.00,
032001880,4.75,6.50,2.55,,,,,7.00,
032001881,4.75,5.75,2.55,,,,,4.25,
032001882,3.50,4.25,2.55,,,,,4.00,
032001883,2.25,3.00,2.55,,,,,,
032001884,2.00,6.00,2.55,,,,,5.00,
032001885,2.50,2.75,2.55,,,,,3.25,
032001886,3.00,5.00,2.55,,,,,6.00,
032001887,2.00,5.00,2.55,,,,,5.00,
032001888,1.50,5.00,2.55,,,,,4.00,
032001889,3.75,4.75,2.55,,,,,6.75,
032001890,2.75,4.75,2.55,,,,,5.50,
032001891,1.50,3.25,2.55,,,3.50,,,
032001892,2.25,3.75,2.55,,,,,5.75,
032001893,2.75,4.25,2.55,,,,6.25,5.00,
032001894,1.25,2.25,2.55,,,,,4.75,
032001895,3.25,5.50,2.55,,,,,6.50,
032001896,1.25,,2.55,,,,,,
032001897,3.75,4.00,2.55,,,,,5.50,
032001898,2.50,3.50,2.55,,5.75,,,5.00,
032001899,2.25,2.00,2.55,,,,,5.75,
032001900,1.50,3.00,2.55,,,3.50,,3.50,
032001901,1.75,2.75,2.55,,,3.25,,3.75,
032001902,1.75,,2.55,,,3.25,,,
032001903,3.75,3.25,2.55,,,,,5.75,
032001904,1.75,1.25,2.55,,,4.75,,3.75,
032001905,2.00,4.00,2.55,3.00,,,,5.25,
032001906,2.75,3.50,2.55,,,,,5.75,
032001907,4.50,4.25,2.55,,5.25,,,,
032001908,2.50,5.25,2.55,,,,6.25,4.25,
032001909,2.00,4.25,2.55,,,,,6.25,
032001910,1.25,1.50,2.55,,,2.75,,2.50,
032001911,3.75,4.00,2.55,,,,,,
032001912,0.75,3.00,2.55,,,,,4.75,
032001913,1.50,3.75,2.55,,,,,6.75,
032001914,2.00,4.25,2.55,,,,,5.50,
032001915,2.00,3.75,2.55,,,,,4.25,
032001916,2.75,5.25,2.55,,,,,7.25,
032001917,2.50,6.50,2.55,,,,,5.25,
032001918,2.00,2.50,2.55,,,2.75,,3.75,
032001919,1.50,3.75,2.55,,,2.50,,3.50,
032001920,2.25,3.75,2.55,,,2.50,,2.75,
032001921,1.50,3.75,2.55,,,,,5.00,
032001922,3.00,5.00,2.55,,,,6.50,6.75,
032001923,1.75,4.50,2.55,,,,,5.50,
032001924,1.25,2.50,2.55,,,3.00,,2.75,
032001925,3.50,4.50,2.55,,,,,5.50,
032001926,1.75,4.25,2.55,2.50,,,,4.25,
032001927,2.25,3.75,2.55,,,,,4.00,
032001928,3.00,4.75,2.55,,,,6.50,6.50,
032001929,4.25,3.75,2.55,,,,,4.75,
032001930,4.25,5.00,2.55,,6.00,,,3.50,
032001931,2.25,4.75,2.55,,,,,,
032001932,1.50,3.50,2.55,,,3.25,,,
032001933,2.75,5.00,2.55,,,,,5.25,
032001934,1.50,4.75,2.55,,,,,4.25,
032001935,3.25,7.00,2.55,,,,,4.50,
032001936,3.25,5.00,2.55,,,,,7.25,
032001937,2.00,4.00,2.55,,,,,4.50,
032001938,1.75,5.00,2.55,,,4.25,,4.75,
032001939,2.50,4.75,2.55,,,,5.75,5.75,
032001940,1.25,4.50,2.55,,,3.50,,3.00,
032001941,2.50,6.50,2.55,,,,5.25,6.25,
032001942,4.00,4.50,2.55,,,,,5.00,
032001943,4.25,3.00,2.55,,5.75,,,3.00,
032001944,3.50,3.25,2.55,,,,,,
032001945,3.25,2.50,2.55,,,3.50,,3.50,
032001946,3.75,2.50,2.55,5.00,,,,3.25,
032001947,3.75,5.00,2.55,,4.00,,,,
032001948,0.50,2.50,2.55,,,2.50,,3.75,
032001949,3.00,,2.55,,,,,,
032001950,2.25,4.50,2.55,,,,,,
032001951,1.75,3.00,2.55,,,,,5.50,
032001952,2.00,3.50,2.55,,,,,4.25,
032001953,3.25,3.50,2.55,,,,5.00,6.25,
032001954,3.25,3.00,2.55,4.75,,,,5.25,
032001955,4.00,3.25,2.55,,,,6.75,4.00,
032001956,2.25,3.00,2.55,,,,2.25,3.75,
032001957,2.50,4.00,2.55,,,3.00,,2.50,
032001958,2.75,2.25,2.55,,,2.25,,,
032001959,4.25,3.00,2.55,,,,,4.50,
032001960,3.00,3.50,2.55,,,4.25,,4.50,
032001961,3.50,5.50,2.55,,,,,5.00,
032001962,2.00,4.00,2.55,,,,5.50,3.75,
032001963,1.00,2.00,2.55,,,,,4.00,
032001964,4.50,4.75,2.55,,,3.75,,5.00,
032001965,2.75,4.50,2.55,,,,5.50,5.75,
032001966,4.25,4.75,2.55,,,,,,
032001967,2.50,4.25,2.55,,,,5.25,3.75,
032001968,1.25,1.50,2.55,,4.75,,,5.00,
032001969,1.75,5.00,2.55,,,,,6.00,
032001970,3.50,3.75,2.55,,,,,5.00,
032001971,2.25,4.00,2.55,,,3.75,,,
032001972,1.50,3.00,2.55,,,,,4.00,
032001973,2.50,5.00,2.55,,,,,6.25,
032001974,2.50,6.00,2.55,,,,,7.75,
032001975,3.25,4.75,2.55,,,,,5.00,
032001976,5.25,3.25,2.55,,,,,6.50,
032001977,5.00,5.00,2.55,,,,,7.00,
032001978,3.50,4.50,2.55,,,,,4.00,
032001979,2.75,3.25,2.55,,,,6.00,5.25,
032001980,3.75,,2.55,,,,,,
032001981,4.50,4.25,2.55,,,,,6.00,
032001982,2.75,4.00,2.55,,,,,,
032001983,3.00,3.25,2.55,,,,,,
032001984,2.00,6.50,2.55,,,,,6.25,
032001985,2.50,3.25,2.55,,,,4.00,3.50,
032001986,2.25,3.75,2.55,,,,,,
032001987,4.50,5.00,2.55,,,,,6.25,
032001988,4.25,5.25,2.55,,,,5.50,3.75,
032001989,2.25,2.25,2.55,,,2.25,,,
032001990,3.50,6.00,2.55,,,,5.50,6.50,
032001991,3.50,4.00,2.55,,,,,,
032001992,0.75,2.75,2.55,,,,,3.50,
032001993,4.50,5.00,2.55,,,,,5.75,
032001994,1.25,3.50,2.55,,,2.50,,5.75,
032001995,2.00,4.25,2.55,,,,,4.00,
032001996,2.00,4.50,2.55,,,2.75,,3.00,
032001997,4.00,4.50,2.55,4.50,,,,4.50,
032001998,2.00,2.25,2.55,,3.50,3.50,,,
032001999,5.50,6.75,2.55,,,,,6.25,
032002000,4.00,6.00,2.55,,,,,5.50,
032002001,3.50,4.00,2.55,,,,,6.00,
032002002,1.75,3.75,2.55,,,,,5.25,
032002003,3.25,5.00,2.55,,,,,5.00,
032002004,3.50,3.00,2.55,,,,,,
032002005,4.00,4.00,2.55,,,,,4.00,
032002006,3.00,4.00,2.55,,,,,5.25,
032002007,1.50,6.75,2.55,,,,,5.00,
032002008,3.00,6.00,2.55,,,,,5.25,
032002009,3.00,6.50,2.55,,,,,5.00,
032002010,1.75,3.00,2.55,,,,,4.75,
032002011,2.00,3.50,2.55,,,,,5.50,
032002012,2.50,4.50,2.55,,,2.00,,2.50,
032002013,3.00,3.25,2.55,,,2.75,,,
032002014,3.00,2.75,2.55,,,,,5.00,
032002015,4.25,0.75,2.55,,,,,4.25,
032002016,1.75,1.75,2.55,,,,3.25,3.00,
032002017,4.75,,2.55,,,,,5.25,
032002018,3.25,2.25,2.55,,,,,5.50,
032002019,2.75,1.50,2.55,,,2.50,,3.50,
032002020,2.25,4.50,2.55,,,,,5.00,
032002021,4.75,4.50,2.55,,,,,6.00,
032002022,2.25,4.75,2.55,,,,,5.50,
032002023,3.00,5.50,2.55,,,,,,
032002024,3.00,3.25,2.55,,,4.25,,3.25,
032002025,2.00,5.00,2.55,,,,,4.00,
032002026,2.50,2.75,2.55,,,2.75,,3.50,
032002027,1.25,1.75,2.55,,,2.50,,2.00,
032002028,2.75,2.75,2.55,,,,2.50,4.00,
032002029,2.50,4.00,2.55,,,2.75,,3.00,
032002030,3.25,4.00,2.55,,,2.50,,,
032002031,1.75,4.50,2.55,,,,,5.00,
032002032,4.25,5.50,2.55,,,,,5.50,
032002033,3.75,4.25,2.55,,,,,4.75,
032002034,2.50,5.75,2.55,,,,,4.00,
032002035,3.75,6.00,2.55,,,,5.50,4.50,
032002036,3.25,6.50,2.55,,,,,7.75,
032002037,1.75,2.00,2.55,,,3.50,,2.75,
032002038,3.50,5.25,2.55,,,4.50,,4.75,
032002039,2.00,4.00,2.55,,,3.50,,3.50,
032002040,4.25,2.75,2.55,,,,5.25,3.00,
032002041,4.50,6.25,2.55,,,,,5.00,
032002042,2.75,4.00,2.55,,,3.00,,4.25,
032002043,2.00,3.25,2.55,,,,5.50,5.00,
032002044,1.75,2.75,2.55,,,2.50,,4.25,
032002045,2.50,2.25,2.55,,,,5.00,5.50,
032002046,1.75,3.75,2.55,,,,,3.50,
032002047,1.75,4.50,2.55,,,,,5.75,
032002048,3.25,5.00,2.55,,,,,5.25,
032002049,4.75,5.25,2.55,,,,,4.50,
032002050,4.50,5.50,2.55,,,,,4.00,
032002051,2.75,5.50,2.55,,,,,6.75,
032002052,3.75,5.00,2.55,,,,,5.25,
032002053,3.25,3.25,2.55,,,3.50,,4.50,
032002054,5.25,5.25,2.55,,,,,7.75,
032002055,3.50,4.75,2.55,,,3.00,,5.25,
032002056,4.75,3.25,2.55,,4.25,,,3.25,
032002057,5.75,2.50,2.55,,,2.75,,4.75,
032002058,1.50,1.75,2.55,,,1.50,,3.75,
032002059,1.75,4.00,2.55,,,,,3.75,
032002060,3.00,5.00,2.55,,,3.50,,4.50,
032002061,3.25,2.50,2.55,,,,,,
032002062,3.50,4.50,2.55,,,,,4.50,
032002063,4.50,4.00,2.55,,3.50,2.25,,,
032002064,2.75,4.00,2.55,,,,,5.00,
032002065,4.75,5.50,2.55,,,,,5.00,
032002066,3.50,3.00,2.55,,,,,4.50,
032002067,4.50,2.25,2.55,,,2.75,,3.75,
032002068,2.25,5.00,2.55,,,,,6.50,
032002069,2.00,2.75,2.55,,4.50,,,2.25,
032002070,4.75,5.00,2.55,,,,,5.00,
032002071,2.75,5.00,2.55,,,,,5.25,
032002072,4.00,4.50,2.55,,,,5.25,4.00,
032002073,2.75,3.00,2.55,,,4.50,,,
032002074,4.50,3.50,2.55,,,,,4.50,
032002075,2.75,4.75,2.55,,,,5.00,5.00,
032002076,1.50,4.50,2.55,,,,,5.00,
032002077,1.75,4.25,2.55,,,,,5.50,
032002078,3.25,6.00,2.55,,,,,7.00,
032002079,1.75,4.50,2.55,,,,,4.50,
032002080,2.75,3.00,2.55,,,,5.50,5.50,
032002081,1.50,4.25,2.55,,,,,4.25,
032002082,3.50,2.75,2.55,,4.25,,,5.25,
032002083,3.00,4.25,2.55,3.25,,,7.50,,
032002084,4.25,4.00,2.55,,,,,4.25,
032002085,4.00,2.00,2.55,,,2.75,2.75,,
032002086,3.25,4.75,2.55,,,,5.75,4.50,
032002087,3.75,5.75,2.55,,,,,5.00,
032002088,5.00,2.00,2.55,,4.00,2.25,,,
032002089,2.25,3.50,2.55,,,,5.00,2.75,
032002090,1.50,2.00,2.55,,,2.50,,3.25,
032002091,2.00,,2.55,,,2.50,,3.75,
032002092,3.00,5.50,2.55,,,,,6.25,
032002093,2.25,3.00,2.55,,,,,3.75,
032002094,2.00,2.75,2.55,,4.50,,,4.25,
032002095,2.50,3.75,2.55,,,,6.25,4.25,
032002096,4.50,3.00,2.55,,,,,5.75,
032002097,3.50,4.25,2.55,,,,6.25,5.00,
032002098,4.00,3.00,2.55,,,,,4.25,
032002099,4.00,2.00,2.55,,,,,4.75,
032002100,4.50,3.25,2.55,,,2.50,,4.50,
032002101,4.75,4.00,2.55,,,2.75,,5.00,
032002102,5.25,2.25,2.55,,,,,,
032002103,3.75,4.25,2.55,,,,5.00,5.25,
032002104,5.00,1.75,2.55,,,,2.75,5.00,
032002105,4.75,5.50,2.55,,,,,5.50,
032002106,5.75,3.75,2.55,,,2.50,,3.00,
032002107,4.25,4.00,2.55,,7.00,,,5.75,
032002109,1.75,1.75,2.55,,,2.50,,2.50,
032002110,5.00,,2.55,,3.50,2.50,,,
032002111,3.50,4.50,2.55,,,,6.00,5.25,
032002112,2.75,2.25,2.55,,,2.25,,3.25,
032002114,5.00,5.50,2.55,3.75,,,,,
032002115,3.00,1.50,2.55,,,2.25,,2.50,
032002116,4.50,2.50,2.55,,,3.00,,3.75,
032002117,5.00,4.25,2.55,,,2.75,,3.75,
032002118,4.75,3.75,2.55,,,,,5.50,
032002119,5.75,5.75,2.55,,,,,8.25,
032002120,3.25,3.75,2.55,,,,,5.25,
032002121,2.00,4.50,2.55,3.50,,,,6.00,
032002122,4.25,6.25,2.55,,5.00,,,,
032002123,4.00,2.00,2.55,,,2.00,,4.25,
032002124,5.00,6.00,2.55,,,,,6.00,
032002125,2.50,4.00,2.55,,,3.75,,4.75,
032002126,4.25,3.25,2.55,,,,6.25,3.75,
032002127,3.75,6.50,2.55,,,,6.25,7.50,
032002128,3.00,4.75,2.55,,,,,4.25,
032002129,4.25,3.25,2.55,,6.25,,,6.25,
